<?xml version="1.0" encoding="UTF-8"?>
<!--
Template derived pattern
===========================================
ID: 1.2.40.0.34.11.2.2.23
Name: OP-Bericht
Description: Operationsbericht
-->
<pattern xmlns="http://purl.oclc.org/dsdl/schematron"
         id="template-1.2.40.0.34.11.2.2.23-2013-02-10T000000">
   <title>OP-Bericht</title>
   <!--
Template derived rules for ID: 1.2.40.0.34.11.2.2.23
Context: *[hl7:section[hl7:templateId[@root = '1.2.40.0.34.11.2.2.23']]]
Item: (OPBericht)
-->

   <!--
Template derived rules for ID: 1.2.40.0.34.11.2.2.23
Context: *[hl7:section[hl7:templateId[@root = '1.2.40.0.34.11.2.2.23']]]/hl7:section[hl7:templateId[@root = '1.2.40.0.34.11.2.2.23']]
Item: (OPBericht)
-->

   <rule context="*[hl7:section[hl7:templateId[@root = '1.2.40.0.34.11.2.2.23']]]/hl7:section[hl7:templateId[@root = '1.2.40.0.34.11.2.2.23']]"
         id="d20e12167-false-d193151e0">
      <assert role="error"
              see="http://elga.art-decor.org/elga-html-20200130T133330/tmp-1.2.40.0.34.11.2.2.23-2013-02-10T000000.html"
              test="count(hl7:templateId[@root = '1.2.40.0.34.11.2.2.23']) &gt;= 1">(OPBericht): Element hl7:templateId[@root = '1.2.40.0.34.11.2.2.23'] ist required [min 1x].</assert>
      <assert role="error"
              see="http://elga.art-decor.org/elga-html-20200130T133330/tmp-1.2.40.0.34.11.2.2.23-2013-02-10T000000.html"
              test="count(hl7:templateId[@root = '1.2.40.0.34.11.2.2.23']) &lt;= 1">(OPBericht): Element hl7:templateId[@root = '1.2.40.0.34.11.2.2.23'] kommt zu häufig vor [max 1x].</assert>
      <assert role="error"
              see="http://elga.art-decor.org/elga-html-20200130T133330/tmp-1.2.40.0.34.11.2.2.23-2013-02-10T000000.html"
              test="count(hl7:code[(@code = 'OPBER' and @codeSystem = '1.2.40.0.34.5.40')]) &gt;= 1">(OPBericht): Element hl7:code[(@code = 'OPBER' and @codeSystem = '1.2.40.0.34.5.40')] ist mandatory [min 1x].</assert>
      <assert role="error"
              see="http://elga.art-decor.org/elga-html-20200130T133330/tmp-1.2.40.0.34.11.2.2.23-2013-02-10T000000.html"
              test="count(hl7:code[(@code = 'OPBER' and @codeSystem = '1.2.40.0.34.5.40')]) &lt;= 1">(OPBericht): Element hl7:code[(@code = 'OPBER' and @codeSystem = '1.2.40.0.34.5.40')] kommt zu häufig vor [max 1x].</assert>
      <assert role="error"
              see="http://elga.art-decor.org/elga-html-20200130T133330/tmp-1.2.40.0.34.11.2.2.23-2013-02-10T000000.html"
              test="count(hl7:title[not(@nullFlavor)]) &gt;= 1">(OPBericht): Element hl7:title[not(@nullFlavor)] ist mandatory [min 1x].</assert>
      <assert role="error"
              see="http://elga.art-decor.org/elga-html-20200130T133330/tmp-1.2.40.0.34.11.2.2.23-2013-02-10T000000.html"
              test="count(hl7:title[not(@nullFlavor)]) &lt;= 1">(OPBericht): Element hl7:title[not(@nullFlavor)] kommt zu häufig vor [max 1x].</assert>
      <assert role="error"
              see="http://elga.art-decor.org/elga-html-20200130T133330/tmp-1.2.40.0.34.11.2.2.23-2013-02-10T000000.html"
              test="count(hl7:text[not(@nullFlavor)]) &gt;= 1">(OPBericht): Element hl7:text[not(@nullFlavor)] ist mandatory [min 1x].</assert>
      <assert role="error"
              see="http://elga.art-decor.org/elga-html-20200130T133330/tmp-1.2.40.0.34.11.2.2.23-2013-02-10T000000.html"
              test="count(hl7:text[not(@nullFlavor)]) &lt;= 1">(OPBericht): Element hl7:text[not(@nullFlavor)] kommt zu häufig vor [max 1x].</assert>
   </rule>
   <!--
Template derived rules for ID: 1.2.40.0.34.11.2.2.23
Context: *[hl7:section[hl7:templateId[@root = '1.2.40.0.34.11.2.2.23']]]/hl7:section[hl7:templateId[@root = '1.2.40.0.34.11.2.2.23']]/hl7:templateId[@root = '1.2.40.0.34.11.2.2.23']
Item: (OPBericht)
-->

   <rule context="*[hl7:section[hl7:templateId[@root = '1.2.40.0.34.11.2.2.23']]]/hl7:section[hl7:templateId[@root = '1.2.40.0.34.11.2.2.23']]/hl7:templateId[@root = '1.2.40.0.34.11.2.2.23']"
         id="d20e12169-false-d193194e0">
      <extends rule="II"/>
      <assert role="error"
              see="http://elga.art-decor.org/elga-html-20200130T133330/tmp-1.2.40.0.34.11.2.2.23-2013-02-10T000000.html"
              test="(local-name-from-QName(resolve-QName(@xsi:type,.))='II' and namespace-uri-from-QName(resolve-QName(@xsi:type,.))='urn:hl7-org:v3') or not(@xsi:type)">(OPBericht): Wenn eine @xsi:type Instruktion anwesend ist MUSS diese den Wert "{urn:hl7-org:v3}:II" haben. Gefunden "{<value-of select="namespace-uri-from-QName(resolve-QName(@xsi:type,.))"/>}:<value-of select="local-name-from-QName(resolve-QName(@xsi:type,.))"/>"</assert>
      <assert role="error"
              see="http://elga.art-decor.org/elga-html-20200130T133330/tmp-1.2.40.0.34.11.2.2.23-2013-02-10T000000.html"
              test="string(@root) = ('1.2.40.0.34.11.2.2.23')">(OPBericht): Der Wert von root MUSS '1.2.40.0.34.11.2.2.23' sein. Gefunden: "<value-of select="@root"/>"</assert>
   </rule>
   <!--
Template derived rules for ID: 1.2.40.0.34.11.2.2.23
Context: *[hl7:section[hl7:templateId[@root = '1.2.40.0.34.11.2.2.23']]]/hl7:section[hl7:templateId[@root = '1.2.40.0.34.11.2.2.23']]/hl7:code[(@code = 'OPBER' and @codeSystem = '1.2.40.0.34.5.40')]
Item: (OPBericht)
-->

   <rule context="*[hl7:section[hl7:templateId[@root = '1.2.40.0.34.11.2.2.23']]]/hl7:section[hl7:templateId[@root = '1.2.40.0.34.11.2.2.23']]/hl7:code[(@code = 'OPBER' and @codeSystem = '1.2.40.0.34.5.40')]"
         id="d20e12174-false-d193209e0">
      <extends rule="CE"/>
      <assert role="error"
              see="http://elga.art-decor.org/elga-html-20200130T133330/tmp-1.2.40.0.34.11.2.2.23-2013-02-10T000000.html"
              test="(local-name-from-QName(resolve-QName(@xsi:type,.))='CE' and namespace-uri-from-QName(resolve-QName(@xsi:type,.))='urn:hl7-org:v3') or not(@xsi:type)">(OPBericht): Wenn eine @xsi:type Instruktion anwesend ist MUSS diese den Wert "{urn:hl7-org:v3}:CE" haben. Gefunden "{<value-of select="namespace-uri-from-QName(resolve-QName(@xsi:type,.))"/>}:<value-of select="local-name-from-QName(resolve-QName(@xsi:type,.))"/>"</assert>
      <assert role="error"
              see="http://elga.art-decor.org/elga-html-20200130T133330/tmp-1.2.40.0.34.11.2.2.23-2013-02-10T000000.html"
              test="@nullFlavor or (@code='OPBER' and @codeSystem='1.2.40.0.34.5.40')">(OPBericht): Der Elementinhalt MUSS einer von 'code 'OPBER' codeSystem '1.2.40.0.34.5.40'' sein.</assert>
   </rule>
   <!--
Template derived rules for ID: 1.2.40.0.34.11.2.2.23
Context: *[hl7:section[hl7:templateId[@root = '1.2.40.0.34.11.2.2.23']]]/hl7:section[hl7:templateId[@root = '1.2.40.0.34.11.2.2.23']]/hl7:title[not(@nullFlavor)]
Item: (OPBericht)
-->

   <rule context="*[hl7:section[hl7:templateId[@root = '1.2.40.0.34.11.2.2.23']]]/hl7:section[hl7:templateId[@root = '1.2.40.0.34.11.2.2.23']]/hl7:title[not(@nullFlavor)]"
         id="d20e12184-false-d193225e0">
      <extends rule="ST"/>
      <assert role="error"
              see="http://elga.art-decor.org/elga-html-20200130T133330/tmp-1.2.40.0.34.11.2.2.23-2013-02-10T000000.html"
              test="(local-name-from-QName(resolve-QName(@xsi:type,.))='ST' and namespace-uri-from-QName(resolve-QName(@xsi:type,.))='urn:hl7-org:v3') or not(@xsi:type)">(OPBericht): Wenn eine @xsi:type Instruktion anwesend ist MUSS diese den Wert "{urn:hl7-org:v3}:ST" haben. Gefunden "{<value-of select="namespace-uri-from-QName(resolve-QName(@xsi:type,.))"/>}:<value-of select="local-name-from-QName(resolve-QName(@xsi:type,.))"/>"</assert>
      <assert role="error"
              see="http://elga.art-decor.org/elga-html-20200130T133330/tmp-1.2.40.0.34.11.2.2.23-2013-02-10T000000.html"
              test="text()='Operationsbericht'">(OPBericht): Der Elementinhalt von 'hl7:title[not(@nullFlavor)]' MUSS ''Operationsbericht'' sein. Gefunden: "<value-of select="."/>"</assert>
   </rule>
   <!--
Template derived rules for ID: 1.2.40.0.34.11.2.2.23
Context: *[hl7:section[hl7:templateId[@root = '1.2.40.0.34.11.2.2.23']]]/hl7:section[hl7:templateId[@root = '1.2.40.0.34.11.2.2.23']]/hl7:text[not(@nullFlavor)]
Item: (OPBericht)
-->

   <rule context="*[hl7:section[hl7:templateId[@root = '1.2.40.0.34.11.2.2.23']]]/hl7:section[hl7:templateId[@root = '1.2.40.0.34.11.2.2.23']]/hl7:text[not(@nullFlavor)]"
         id="d20e12190-false-d193239e0">
      <extends rule="SD.TEXT"/>
      <assert role="error"
              see="http://elga.art-decor.org/elga-html-20200130T133330/tmp-1.2.40.0.34.11.2.2.23-2013-02-10T000000.html"
              test="(local-name-from-QName(resolve-QName(@xsi:type,.))='SD.TEXT' and namespace-uri-from-QName(resolve-QName(@xsi:type,.))='urn:hl7-org:v3') or not(@xsi:type)">(OPBericht): Wenn eine @xsi:type Instruktion anwesend ist MUSS diese den Wert "{urn:hl7-org:v3}:SD.TEXT" haben. Gefunden "{<value-of select="namespace-uri-from-QName(resolve-QName(@xsi:type,.))"/>}:<value-of select="local-name-from-QName(resolve-QName(@xsi:type,.))"/>"</assert>
   </rule>
</pattern>
