<?xml version="1.0" encoding="UTF-8"?>
<!--
Template derived pattern
===========================================
ID: 1.2.40.0.34.6.0.11.9.21
Name: Performer Body - Impfende Person
Description: 
-->
<pattern xmlns="http://purl.oclc.org/dsdl/schematron" id="template-1.2.40.0.34.6.0.11.9.21-2019-05-08T132112">
    <title>Performer Body - Impfende Person</title>
   <!--
Template derived rules for ID: 1.2.40.0.34.6.0.11.9.21
Context: *[hl7:templateId[@root = '1.2.40.0.34.6.0.11.9.21']]
Item: (atcdabbr_other_PerformerBodyImpfendePerson)
-->
    <rule context="*[hl7:templateId[@root = '1.2.40.0.34.6.0.11.9.21']]" id="d245561e6509-false-d469799e0">
        <assert role="error" see="http://art-decor.org/art-decor/decor-templates--elgaimpf-?id=1.2.40.0.34.6.0.11.9.21" test="count(hl7:templateId[@root = '1.2.40.0.34.6.0.11.9.21']) &gt;= 1">(atcdabbr_other_PerformerBodyImpfendePerson): Element hl7:templateId[@root = '1.2.40.0.34.6.0.11.9.21'] ist mandatory [min 1x].</assert>
        <assert role="error" see="http://art-decor.org/art-decor/decor-templates--elgaimpf-?id=1.2.40.0.34.6.0.11.9.21" test="count(hl7:templateId[@root = '1.2.40.0.34.6.0.11.9.21']) &lt;= 1">(atcdabbr_other_PerformerBodyImpfendePerson): Element hl7:templateId[@root = '1.2.40.0.34.6.0.11.9.21'] kommt zu häufig vor [max 1x].</assert>
        <assert role="error" see="http://art-decor.org/art-decor/decor-templates--elgaimpf-?id=1.2.40.0.34.6.0.11.9.21" test="count(hl7:time) &lt;= 1">(atcdabbr_other_PerformerBodyImpfendePerson): Element hl7:time kommt zu häufig vor [max 1x].</assert>
        <assert role="error" see="http://art-decor.org/art-decor/decor-templates--elgaimpf-?id=1.2.40.0.34.6.0.11.9.21" test="count(hl7:assignedEntity[not(@nullFlavor)]) &gt;= 1">(atcdabbr_other_PerformerBodyImpfendePerson): Element hl7:assignedEntity[not(@nullFlavor)] ist mandatory [min 1x].</assert>
        <assert role="error" see="http://art-decor.org/art-decor/decor-templates--elgaimpf-?id=1.2.40.0.34.6.0.11.9.21" test="count(hl7:assignedEntity[not(@nullFlavor)]) &lt;= 1">(atcdabbr_other_PerformerBodyImpfendePerson): Element hl7:assignedEntity[not(@nullFlavor)] kommt zu häufig vor [max 1x].</assert>
    </rule>
   <!--
Template derived rules for ID: 1.2.40.0.34.6.0.11.9.21
Context: *[hl7:templateId[@root = '1.2.40.0.34.6.0.11.9.21']]/hl7:templateId[@root = '1.2.40.0.34.6.0.11.9.21']
Item: (atcdabbr_other_PerformerBodyImpfendePerson)
-->
    <rule context="*[hl7:templateId[@root = '1.2.40.0.34.6.0.11.9.21']]/hl7:templateId[@root = '1.2.40.0.34.6.0.11.9.21']" id="d245561e6535-false-d469864e0">
        <extends rule="II"/>
        <assert role="error" see="http://art-decor.org/art-decor/decor-templates--elgaimpf-?id=1.2.40.0.34.6.0.11.9.21" test="(local-name-from-QName(resolve-QName(@xsi:type,.))='II' and namespace-uri-from-QName(resolve-QName(@xsi:type,.))='urn:hl7-org:v3') or not(@xsi:type)">(atcdabbr_other_PerformerBodyImpfendePerson): Wenn eine @xsi:type Instruktion anwesend ist MUSS diese den Wert "{urn:hl7-org:v3}:II" haben. Gefunden "{<value-of select="namespace-uri-from-QName(resolve-QName(@xsi:type,.))"/>}:<value-of select="local-name-from-QName(resolve-QName(@xsi:type,.))"/>"</assert>
        <assert role="error" see="http://art-decor.org/art-decor/decor-templates--elgaimpf-?id=1.2.40.0.34.6.0.11.9.21" test="string(@root) = ('1.2.40.0.34.6.0.11.9.21')">(atcdabbr_other_PerformerBodyImpfendePerson): Der Wert von root MUSS '1.2.40.0.34.6.0.11.9.21' sein. Gefunden: "<value-of select="@root"/>"</assert>
    </rule>
   <!--
Template derived rules for ID: 1.2.40.0.34.6.0.11.9.21
Context: *[hl7:templateId[@root = '1.2.40.0.34.6.0.11.9.21']]/hl7:time
Item: (atcdabbr_other_PerformerBodyImpfendePerson)
-->
    <rule context="*[hl7:templateId[@root = '1.2.40.0.34.6.0.11.9.21']]/hl7:time" id="d245561e6539-false-d469877e0">
        <extends rule="TS.AT.TZ"/>
        <assert role="error" see="http://art-decor.org/art-decor/decor-templates--elgaimpf-?id=1.2.40.0.34.6.0.11.9.21" test="(local-name-from-QName(resolve-QName(@xsi:type,.))='TS' and namespace-uri-from-QName(resolve-QName(@xsi:type,.))='urn:hl7-org:v3') or not(@xsi:type)">(atcdabbr_other_PerformerBodyImpfendePerson): Wenn eine @xsi:type Instruktion anwesend ist MUSS diese den Wert "{urn:hl7-org:v3}:TS" haben. Gefunden "{<value-of select="namespace-uri-from-QName(resolve-QName(@xsi:type,.))"/>}:<value-of select="local-name-from-QName(resolve-QName(@xsi:type,.))"/>"</assert>
        <assert role="error" see="http://art-decor.org/art-decor/decor-templates--elgaimpf-?id=1.2.40.0.34.6.0.11.9.21" test="not(*)">(atcdabbr_other_PerformerBodyImpfendePerson): <value-of select="local-name()"/> with datatype TS.AT.TZ, SHOULD NOT have child elements.</assert>
    </rule>
   <!--
Template derived rules for ID: 1.2.40.0.34.6.0.11.9.21
Context: *[hl7:templateId[@root = '1.2.40.0.34.6.0.11.9.21']]/hl7:assignedEntity[not(@nullFlavor)]
Item: (atcdabbr_other_PerformerBodyImpfendePerson)
-->
    <rule context="*[hl7:templateId[@root = '1.2.40.0.34.6.0.11.9.21']]/hl7:assignedEntity[not(@nullFlavor)]" id="d245561e6542-false-d469924e0">
        <assert role="error" see="http://art-decor.org/art-decor/decor-templates--elgaimpf-?id=1.2.40.0.34.6.0.11.9.21" test="string(@classCode) = ('ASSIGNED') or not(@classCode)">(atcdabbr_other_PerformerBodyImpfendePerson): Der Wert von classCode MUSS 'ASSIGNED' sein. Gefunden: "<value-of select="@classCode"/>"</assert>
        <assert role="error" see="http://art-decor.org/art-decor/decor-templates--elgaimpf-?id=1.2.40.0.34.6.0.11.9.21" test="not(/hl7:ClinicalDocument/hl7:templateId[@root = '1.2.40.0.34.6.0.11.0.2'] and not(ancestor::*/hl7:participant/hl7:templateId[@root = '1.2.40.0.34.6.0.11.9.14'])) or hl7:code[@code]">(atcdabbr_other_PerformerBodyImpfendePerson): code/@code MUSS vorhanden sein.</assert>
        <let name="elmcount" value="count(hl7:id[not(@nullFlavor)] | hl7:id[@nullFlavor='NI'] | hl7:id[@nullFlavor='UNK'])"/>
        <assert role="error" see="http://art-decor.org/art-decor/decor-templates--elgaimpf-?id=1.2.40.0.34.6.0.11.9.21" test="$elmcount &gt;= 1">(atcdabbr_other_PerformerBodyImpfendePerson): Auswahl (hl7:id[not(@nullFlavor)]  oder  hl7:id[@nullFlavor='NI']  oder  hl7:id[@nullFlavor='UNK']) enthält nicht genügend Elemente [min 1x]</assert>
        <assert role="error" see="http://art-decor.org/art-decor/decor-templates--elgaimpf-?id=1.2.40.0.34.6.0.11.9.21" test="count(hl7:id[@nullFlavor='NI']) &lt;= 1">(atcdabbr_other_PerformerBodyImpfendePerson): Element hl7:id[@nullFlavor='NI'] kommt zu häufig vor [max 1x].</assert>
        <assert role="error" see="http://art-decor.org/art-decor/decor-templates--elgaimpf-?id=1.2.40.0.34.6.0.11.9.21" test="count(hl7:id[@nullFlavor='UNK']) &lt;= 1">(atcdabbr_other_PerformerBodyImpfendePerson): Element hl7:id[@nullFlavor='UNK'] kommt zu häufig vor [max 1x].</assert>
        <let name="elmcount" value="count(hl7:code[concat(@code, @codeSystem) = doc('include/voc-1.2.40.0.34.6.0.10.11-DYNAMIC.xml')//valueSet[1]/conceptList/concept/concat(@code, @codeSystem)] | hl7:code[@nullFlavor='UNK'])"/>
        <assert role="error" see="http://art-decor.org/art-decor/decor-templates--elgaimpf-?id=1.2.40.0.34.6.0.11.9.21" test="$elmcount &gt;= 1">(atcdabbr_other_PerformerBodyImpfendePerson): Auswahl (hl7:code[concat(@code, @codeSystem) = doc('include/voc-1.2.40.0.34.6.0.10.11-DYNAMIC.xml')//valueSet[1]/conceptList/concept/concat(@code, @codeSystem)]  oder  hl7:code[@nullFlavor='UNK']) enthält nicht genügend Elemente [min 1x]</assert>
        <assert role="error" see="http://art-decor.org/art-decor/decor-templates--elgaimpf-?id=1.2.40.0.34.6.0.11.9.21" test="$elmcount &lt;= 1">(atcdabbr_other_PerformerBodyImpfendePerson): Auswahl (hl7:code[concat(@code, @codeSystem) = doc('include/voc-1.2.40.0.34.6.0.10.11-DYNAMIC.xml')//valueSet[1]/conceptList/concept/concat(@code, @codeSystem)]  oder  hl7:code[@nullFlavor='UNK']) enthält zu viele Elemente [max 1x]</assert>
        <assert role="error" see="http://art-decor.org/art-decor/decor-templates--elgaimpf-?id=1.2.40.0.34.6.0.11.9.21" test="count(hl7:code[concat(@code, @codeSystem) = doc('include/voc-1.2.40.0.34.6.0.10.11-DYNAMIC.xml')//valueSet[1]/conceptList/concept/concat(@code, @codeSystem)]) &lt;= 1">(atcdabbr_other_PerformerBodyImpfendePerson): Element hl7:code[concat(@code, @codeSystem) = doc('include/voc-1.2.40.0.34.6.0.10.11-DYNAMIC.xml')//valueSet[1]/conceptList/concept/concat(@code, @codeSystem)] kommt zu häufig vor [max 1x].</assert>
        <assert role="error" see="http://art-decor.org/art-decor/decor-templates--elgaimpf-?id=1.2.40.0.34.6.0.11.9.21" test="count(hl7:code[@nullFlavor='UNK']) &lt;= 1">(atcdabbr_other_PerformerBodyImpfendePerson): Element hl7:code[@nullFlavor='UNK'] kommt zu häufig vor [max 1x].</assert>
        <let name="elmcount" value="count(hl7:addr[not(@nullFlavor)] | hl7:addr[@nullFlavor = 'UNK'])"/>
        <assert role="error" see="http://art-decor.org/art-decor/decor-templates--elgaimpf-?id=1.2.40.0.34.6.0.11.9.21" test="$elmcount &lt;= 1">(atcdabbr_other_PerformerBodyImpfendePerson): Auswahl (hl7:addr[not(@nullFlavor)]  oder  hl7:addr[@nullFlavor = 'UNK']) enthält zu viele Elemente [max 1x]</assert>
        <assert role="error" see="http://art-decor.org/art-decor/decor-templates--elgaimpf-?id=1.2.40.0.34.6.0.11.9.21" test="count(hl7:addr[not(@nullFlavor)]) &lt;= 1">(atcdabbr_other_PerformerBodyImpfendePerson): Element hl7:addr[not(@nullFlavor)] kommt zu häufig vor [max 1x].</assert>
        <assert role="error" see="http://art-decor.org/art-decor/decor-templates--elgaimpf-?id=1.2.40.0.34.6.0.11.9.21" test="count(hl7:addr[@nullFlavor = 'UNK']) &lt;= 1">(atcdabbr_other_PerformerBodyImpfendePerson): Element hl7:addr[@nullFlavor = 'UNK'] kommt zu häufig vor [max 1x].</assert>
        <let name="elmcount" value="count(hl7:assignedPerson | hl7:assignedPerson)"/>
        <assert role="error" see="http://art-decor.org/art-decor/decor-templates--elgaimpf-?id=1.2.40.0.34.6.0.11.9.21" test="$elmcount &gt;= 1">(atcdabbr_other_PerformerBodyImpfendePerson): Auswahl (hl7:assignedPerson  oder  hl7:assignedPerson) enthält nicht genügend Elemente [min 1x]</assert>
        <assert role="error" see="http://art-decor.org/art-decor/decor-templates--elgaimpf-?id=1.2.40.0.34.6.0.11.9.21" test="$elmcount &lt;= 1">(atcdabbr_other_PerformerBodyImpfendePerson): Auswahl (hl7:assignedPerson  oder  hl7:assignedPerson) enthält zu viele Elemente [max 1x]</assert>
        <assert role="error" see="http://art-decor.org/art-decor/decor-templates--elgaimpf-?id=1.2.40.0.34.6.0.11.9.21" test="count(hl7:assignedPerson) &lt;= 1">(atcdabbr_other_PerformerBodyImpfendePerson): Element hl7:assignedPerson kommt zu häufig vor [max 1x].</assert>
        <assert role="error" see="http://art-decor.org/art-decor/decor-templates--elgaimpf-?id=1.2.40.0.34.6.0.11.9.21" test="count(hl7:assignedPerson) &lt;= 1">(atcdabbr_other_PerformerBodyImpfendePerson): Element hl7:assignedPerson kommt zu häufig vor [max 1x].</assert>
        <assert role="error" see="http://art-decor.org/art-decor/decor-templates--elgaimpf-?id=1.2.40.0.34.6.0.11.9.21" test="count(hl7:representedOrganization) &lt;= 1">(atcdabbr_other_PerformerBodyImpfendePerson): Element hl7:representedOrganization kommt zu häufig vor [max 1x].</assert>
    </rule>
   <!--
Template derived rules for ID: 1.2.40.0.34.6.0.11.9.21
Context: *[hl7:templateId[@root = '1.2.40.0.34.6.0.11.9.21']]/hl7:assignedEntity[not(@nullFlavor)]/hl7:id[not(@nullFlavor)]
Item: (atcdabbr_other_PerformerBodyImpfendePerson)
-->
    <rule context="*[hl7:templateId[@root = '1.2.40.0.34.6.0.11.9.21']]/hl7:assignedEntity[not(@nullFlavor)]/hl7:id[not(@nullFlavor)]" id="d245561e6545-false-d470054e0">
        <extends rule="II"/>
        <assert role="error" see="http://art-decor.org/art-decor/decor-templates--elgaimpf-?id=1.2.40.0.34.6.0.11.9.21" test="(local-name-from-QName(resolve-QName(@xsi:type,.))='II' and namespace-uri-from-QName(resolve-QName(@xsi:type,.))='urn:hl7-org:v3') or not(@xsi:type)">(atcdabbr_other_PerformerBodyImpfendePerson): Wenn eine @xsi:type Instruktion anwesend ist MUSS diese den Wert "{urn:hl7-org:v3}:II" haben. Gefunden "{<value-of select="namespace-uri-from-QName(resolve-QName(@xsi:type,.))"/>}:<value-of select="local-name-from-QName(resolve-QName(@xsi:type,.))"/>"</assert>
    </rule>
   <!--
Template derived rules for ID: 1.2.40.0.34.6.0.11.9.21
Context: *[hl7:templateId[@root = '1.2.40.0.34.6.0.11.9.21']]/hl7:assignedEntity[not(@nullFlavor)]/hl7:id[@nullFlavor='NI']
Item: (atcdabbr_other_PerformerBodyImpfendePerson)
-->
    <rule context="*[hl7:templateId[@root = '1.2.40.0.34.6.0.11.9.21']]/hl7:assignedEntity[not(@nullFlavor)]/hl7:id[@nullFlavor='NI']" id="d245561e6557-false-d470061e0">
        <extends rule="II"/>
        <assert role="error" see="http://art-decor.org/art-decor/decor-templates--elgaimpf-?id=1.2.40.0.34.6.0.11.9.21" test="(local-name-from-QName(resolve-QName(@xsi:type,.))='II' and namespace-uri-from-QName(resolve-QName(@xsi:type,.))='urn:hl7-org:v3') or not(@xsi:type)">(atcdabbr_other_PerformerBodyImpfendePerson): Wenn eine @xsi:type Instruktion anwesend ist MUSS diese den Wert "{urn:hl7-org:v3}:II" haben. Gefunden "{<value-of select="namespace-uri-from-QName(resolve-QName(@xsi:type,.))"/>}:<value-of select="local-name-from-QName(resolve-QName(@xsi:type,.))"/>"</assert>
        <assert role="error" see="http://art-decor.org/art-decor/decor-templates--elgaimpf-?id=1.2.40.0.34.6.0.11.9.21" test="string(@nullFlavor) = ('NI')">(atcdabbr_other_PerformerBodyImpfendePerson): Der Wert von nullFlavor MUSS 'NI' sein. Gefunden: "<value-of select="@nullFlavor"/>"</assert>
    </rule>
   <!--
Template derived rules for ID: 1.2.40.0.34.6.0.11.9.21
Context: *[hl7:templateId[@root = '1.2.40.0.34.6.0.11.9.21']]/hl7:assignedEntity[not(@nullFlavor)]/hl7:id[@nullFlavor='UNK']
Item: (atcdabbr_other_PerformerBodyImpfendePerson)
-->
    <rule context="*[hl7:templateId[@root = '1.2.40.0.34.6.0.11.9.21']]/hl7:assignedEntity[not(@nullFlavor)]/hl7:id[@nullFlavor='UNK']" id="d245561e6559-false-d470072e0">
        <extends rule="II"/>
        <assert role="error" see="http://art-decor.org/art-decor/decor-templates--elgaimpf-?id=1.2.40.0.34.6.0.11.9.21" test="(local-name-from-QName(resolve-QName(@xsi:type,.))='II' and namespace-uri-from-QName(resolve-QName(@xsi:type,.))='urn:hl7-org:v3') or not(@xsi:type)">(atcdabbr_other_PerformerBodyImpfendePerson): Wenn eine @xsi:type Instruktion anwesend ist MUSS diese den Wert "{urn:hl7-org:v3}:II" haben. Gefunden "{<value-of select="namespace-uri-from-QName(resolve-QName(@xsi:type,.))"/>}:<value-of select="local-name-from-QName(resolve-QName(@xsi:type,.))"/>"</assert>
        <assert role="error" see="http://art-decor.org/art-decor/decor-templates--elgaimpf-?id=1.2.40.0.34.6.0.11.9.21" test="string(@nullFlavor) = ('UNK')">(atcdabbr_other_PerformerBodyImpfendePerson): Der Wert von nullFlavor MUSS 'UNK' sein. Gefunden: "<value-of select="@nullFlavor"/>"</assert>
    </rule>
   <!--
Template derived rules for ID: 1.2.40.0.34.6.0.11.9.21
Context: *[hl7:templateId[@root = '1.2.40.0.34.6.0.11.9.21']]/hl7:assignedEntity[not(@nullFlavor)]/hl7:code[concat(@code, @codeSystem) = doc('include/voc-1.2.40.0.34.6.0.10.11-DYNAMIC.xml')//valueSet[1]/conceptList/concept/concat(@code, @codeSystem)]
Item: (atcdabbr_other_PerformerBodyImpfendePerson)
-->
    <rule context="*[hl7:templateId[@root = '1.2.40.0.34.6.0.11.9.21']]/hl7:assignedEntity[not(@nullFlavor)]/hl7:code[concat(@code, @codeSystem) = doc('include/voc-1.2.40.0.34.6.0.10.11-DYNAMIC.xml')//valueSet[1]/conceptList/concept/concat(@code, @codeSystem)]" id="d245561e6567-false-d470088e0">
        <extends rule="CE"/>
        <assert role="error" see="http://art-decor.org/art-decor/decor-templates--elgaimpf-?id=1.2.40.0.34.6.0.11.9.21" test="(local-name-from-QName(resolve-QName(@xsi:type,.))='CE' and namespace-uri-from-QName(resolve-QName(@xsi:type,.))='urn:hl7-org:v3') or not(@xsi:type)">(atcdabbr_other_PerformerBodyImpfendePerson): Wenn eine @xsi:type Instruktion anwesend ist MUSS diese den Wert "{urn:hl7-org:v3}:CE" haben. Gefunden "{<value-of select="namespace-uri-from-QName(resolve-QName(@xsi:type,.))"/>}:<value-of select="local-name-from-QName(resolve-QName(@xsi:type,.))"/>"</assert>
        <let name="theCode" value="@code"/>
        <let name="theCodeSystem" value="@codeSystem"/>
        <assert role="error" see="http://art-decor.org/art-decor/decor-templates--elgaimpf-?id=1.2.40.0.34.6.0.11.9.21" test="@nullFlavor or exists(doc('include/voc-1.2.40.0.34.6.0.10.11-DYNAMIC.xml')//valueSet[1][conceptList/concept[@code = $theCode][@codeSystem = $theCodeSystem]])">(atcdabbr_other_PerformerBodyImpfendePerson): Der Elementinhalt MUSS einer von '1.2.40.0.34.6.0.10.11 eImpf_Impfrollen_VS (DYNAMIC)' sein.</assert>
        <assert role="error" see="http://art-decor.org/art-decor/decor-templates--elgaimpf-?id=1.2.40.0.34.6.0.11.9.21" test="@codeSystem">(atcdabbr_other_PerformerBodyImpfendePerson): Attribut @codeSystem MUSS vorkommen.</assert>
        <assert role="error" see="http://art-decor.org/art-decor/decor-templates--elgaimpf-?id=1.2.40.0.34.6.0.11.9.21" test="not(@codeSystem) or matches(@codeSystem,'^[0-2](\.(0|[1-9]\d*))*$')">(atcdabbr_other_PerformerBodyImpfendePerson): Attribute @codeSystem MUSS vom Datentyp 'oid' sein  - '<value-of select="@codeSystem"/>'</assert>
        <assert role="error" see="http://art-decor.org/art-decor/decor-templates--elgaimpf-?id=1.2.40.0.34.6.0.11.9.21" test="@code">(atcdabbr_other_PerformerBodyImpfendePerson): Attribut @code MUSS vorkommen.</assert>
        <assert role="error" see="http://art-decor.org/art-decor/decor-templates--elgaimpf-?id=1.2.40.0.34.6.0.11.9.21" test="not(@code) or (string-length(@code) &gt; 0 and not(matches(@code,'\s')))">(atcdabbr_other_PerformerBodyImpfendePerson): Attribute @code MUSS vom Datentyp 'cs' sein  - '<value-of select="@code"/>'</assert>
    </rule>
   <!--
Template derived rules for ID: 1.2.40.0.34.6.0.11.9.21
Context: *[hl7:templateId[@root = '1.2.40.0.34.6.0.11.9.21']]/hl7:assignedEntity[not(@nullFlavor)]/hl7:code[@nullFlavor='UNK']
Item: (atcdabbr_other_PerformerBodyImpfendePerson)
-->
    <rule context="*[hl7:templateId[@root = '1.2.40.0.34.6.0.11.9.21']]/hl7:assignedEntity[not(@nullFlavor)]/hl7:code[@nullFlavor='UNK']" id="d245561e6582-false-d470115e0">
        <extends rule="CE"/>
        <assert role="error" see="http://art-decor.org/art-decor/decor-templates--elgaimpf-?id=1.2.40.0.34.6.0.11.9.21" test="(local-name-from-QName(resolve-QName(@xsi:type,.))='CE' and namespace-uri-from-QName(resolve-QName(@xsi:type,.))='urn:hl7-org:v3') or not(@xsi:type)">(atcdabbr_other_PerformerBodyImpfendePerson): Wenn eine @xsi:type Instruktion anwesend ist MUSS diese den Wert "{urn:hl7-org:v3}:CE" haben. Gefunden "{<value-of select="namespace-uri-from-QName(resolve-QName(@xsi:type,.))"/>}:<value-of select="local-name-from-QName(resolve-QName(@xsi:type,.))"/>"</assert>
        <assert role="error" see="http://art-decor.org/art-decor/decor-templates--elgaimpf-?id=1.2.40.0.34.6.0.11.9.21" test="string(@nullFlavor) = ('UNK')">(atcdabbr_other_PerformerBodyImpfendePerson): Der Wert von nullFlavor MUSS 'UNK' sein. Gefunden: "<value-of select="@nullFlavor"/>"</assert>
    </rule>

   <!--
Template derived rules for ID: 1.2.40.0.34.6.0.11.9.21
Context: *[hl7:templateId[@root = '1.2.40.0.34.6.0.11.9.21']]/hl7:assignedEntity[not(@nullFlavor)]/hl7:addr[not(@nullFlavor)]
Item: (atcdabbr_other_PerformerBodyImpfendePerson)
-->

<!--
Template derived rules for ID: 1.2.40.0.34.6.0.11.9.10
Context: *[hl7:templateId[@root = '1.2.40.0.34.6.0.11.9.21']]/hl7:assignedEntity[not(@nullFlavor)]/hl7:addr[not(@nullFlavor)]
Item: (atcdabbr_other_AddressCompilationMinimal)
-->
    <rule context="*[hl7:templateId[@root = '1.2.40.0.34.6.0.11.9.21']]/hl7:assignedEntity[not(@nullFlavor)]/hl7:addr[not(@nullFlavor)]">
        <assert role="error" see="http://art-decor.org/art-decor/decor-templates--elgaimpf-?id=1.2.40.0.34.6.0.11.9.10" test="not(@use) or (string-length(@use) &gt; 0 and not(matches(@use,'\s')))">(atcdabbr_other_AddressCompilationMinimal): Attribute @use MUSS vom Datentyp 'cs' sein  - '<value-of select="@use"/>'</assert>
        <assert role="error" see="http://art-decor.org/art-decor/decor-templates--elgaimpf-?id=1.2.40.0.34.6.0.11.9.10" test="not(hl7:streetAddressLine and (hl7:streetName or hl7:houseNumber)) or ((hl7:streetAddressLine or (hl7:streetName and hl7:houseNumber)) and not((hl7:streetAddressLine and hl7:streetName and hl7:houseNumber) or (hl7:streetAddressLine and (hl7:streetName or hl7:houseNumber))))">(atcdabbr_other_AddressCompilationMinimal): Es muss entweder streetAddressLine oder streetName UND houseNumber angegeben werden.</assert>
        <assert role="error" see="http://art-decor.org/art-decor/decor-templates--elgaimpf-?id=1.2.40.0.34.6.0.11.9.10" test="count(hl7:streetAddressLine) &lt;= 1">(atcdabbr_other_AddressCompilationMinimal): Element hl7:streetAddressLine kommt zu häufig vor [max 1x].</assert>
        <assert role="error" see="http://art-decor.org/art-decor/decor-templates--elgaimpf-?id=1.2.40.0.34.6.0.11.9.10" test="count(hl7:streetName) &lt;= 1">(atcdabbr_other_AddressCompilationMinimal): Element hl7:streetName kommt zu häufig vor [max 1x].</assert>
        <assert role="error" see="http://art-decor.org/art-decor/decor-templates--elgaimpf-?id=1.2.40.0.34.6.0.11.9.10" test="count(hl7:houseNumber) &lt;= 1">(atcdabbr_other_AddressCompilationMinimal): Element hl7:houseNumber kommt zu häufig vor [max 1x].</assert>
        <assert role="error" see="http://art-decor.org/art-decor/decor-templates--elgaimpf-?id=1.2.40.0.34.6.0.11.9.10" test="count(hl7:postalCode) &lt;= 1">(atcdabbr_other_AddressCompilationMinimal): Element hl7:postalCode kommt zu häufig vor [max 1x].</assert>
        <assert role="error" see="http://art-decor.org/art-decor/decor-templates--elgaimpf-?id=1.2.40.0.34.6.0.11.9.10" test="count(hl7:city) &lt;= 1">(atcdabbr_other_AddressCompilationMinimal): Element hl7:city kommt zu häufig vor [max 1x].</assert>
        <assert role="error" see="http://art-decor.org/art-decor/decor-templates--elgaimpf-?id=1.2.40.0.34.6.0.11.9.10" test="count(hl7:state) &lt;= 1">(atcdabbr_other_AddressCompilationMinimal): Element hl7:state kommt zu häufig vor [max 1x].</assert>
        <assert role="error" see="http://art-decor.org/art-decor/decor-templates--elgaimpf-?id=1.2.40.0.34.6.0.11.9.10" test="count(hl7:country) &lt;= 1">(atcdabbr_other_AddressCompilationMinimal): Element hl7:country kommt zu häufig vor [max 1x].</assert>
        <assert role="error" see="http://art-decor.org/art-decor/decor-templates--elgaimpf-?id=1.2.40.0.34.6.0.11.9.10" test="count(hl7:additionalLocator) &lt;= 1">(atcdabbr_other_AddressCompilationMinimal): Element hl7:additionalLocator kommt zu häufig vor [max 1x].</assert>
    </rule>

   <!--
Template derived rules for ID: 1.2.40.0.34.6.0.11.9.10
Context: *[hl7:templateId[@root = '1.2.40.0.34.6.0.11.9.21']]/hl7:assignedEntity[not(@nullFlavor)]/hl7:addr[not(@nullFlavor)]/hl7:streetAddressLine
Item: (atcdabbr_other_AddressCompilationMinimal)
-->
    <rule context="*[hl7:templateId[@root = '1.2.40.0.34.6.0.11.9.21']]/hl7:assignedEntity[not(@nullFlavor)]/hl7:addr[not(@nullFlavor)]/hl7:streetAddressLine">
        <extends rule="ADXP"/>
        <assert role="error" see="http://art-decor.org/art-decor/decor-templates--elgaimpf-?id=1.2.40.0.34.6.0.11.9.10" test="(local-name-from-QName(resolve-QName(@xsi:type,.))='ADXP' and namespace-uri-from-QName(resolve-QName(@xsi:type,.))='urn:hl7-org:v3') or not(@xsi:type)">(atcdabbr_other_AddressCompilationMinimal): Wenn eine @xsi:type Instruktion anwesend ist MUSS diese den Wert "{urn:hl7-org:v3}:ADXP" haben. Gefunden "{<value-of select="namespace-uri-from-QName(resolve-QName(@xsi:type,.))"/>}:<value-of select="local-name-from-QName(resolve-QName(@xsi:type,.))"/>"</assert>
    </rule>

   <!--
Template derived rules for ID: 1.2.40.0.34.6.0.11.9.10
Context: *[hl7:templateId[@root = '1.2.40.0.34.6.0.11.9.21']]/hl7:assignedEntity[not(@nullFlavor)]/hl7:addr[not(@nullFlavor)]/hl7:streetName
Item: (atcdabbr_other_AddressCompilationMinimal)
-->
    <rule context="*[hl7:templateId[@root = '1.2.40.0.34.6.0.11.9.21']]/hl7:assignedEntity[not(@nullFlavor)]/hl7:addr[not(@nullFlavor)]/hl7:streetName">
        <extends rule="ADXP"/>
        <assert role="error" see="http://art-decor.org/art-decor/decor-templates--elgaimpf-?id=1.2.40.0.34.6.0.11.9.10" test="(local-name-from-QName(resolve-QName(@xsi:type,.))='ADXP' and namespace-uri-from-QName(resolve-QName(@xsi:type,.))='urn:hl7-org:v3') or not(@xsi:type)">(atcdabbr_other_AddressCompilationMinimal): Wenn eine @xsi:type Instruktion anwesend ist MUSS diese den Wert "{urn:hl7-org:v3}:ADXP" haben. Gefunden "{<value-of select="namespace-uri-from-QName(resolve-QName(@xsi:type,.))"/>}:<value-of select="local-name-from-QName(resolve-QName(@xsi:type,.))"/>"</assert>
    </rule>

   <!--
Template derived rules for ID: 1.2.40.0.34.6.0.11.9.10
Context: *[hl7:templateId[@root = '1.2.40.0.34.6.0.11.9.21']]/hl7:assignedEntity[not(@nullFlavor)]/hl7:addr[not(@nullFlavor)]/hl7:houseNumber
Item: (atcdabbr_other_AddressCompilationMinimal)
-->
    <rule context="*[hl7:templateId[@root = '1.2.40.0.34.6.0.11.9.21']]/hl7:assignedEntity[not(@nullFlavor)]/hl7:addr[not(@nullFlavor)]/hl7:houseNumber">
        <extends rule="ADXP"/>
        <assert role="error" see="http://art-decor.org/art-decor/decor-templates--elgaimpf-?id=1.2.40.0.34.6.0.11.9.10" test="(local-name-from-QName(resolve-QName(@xsi:type,.))='ADXP' and namespace-uri-from-QName(resolve-QName(@xsi:type,.))='urn:hl7-org:v3') or not(@xsi:type)">(atcdabbr_other_AddressCompilationMinimal): Wenn eine @xsi:type Instruktion anwesend ist MUSS diese den Wert "{urn:hl7-org:v3}:ADXP" haben. Gefunden "{<value-of select="namespace-uri-from-QName(resolve-QName(@xsi:type,.))"/>}:<value-of select="local-name-from-QName(resolve-QName(@xsi:type,.))"/>"</assert>
    </rule>

   <!--
Template derived rules for ID: 1.2.40.0.34.6.0.11.9.10
Context: *[hl7:templateId[@root = '1.2.40.0.34.6.0.11.9.21']]/hl7:assignedEntity[not(@nullFlavor)]/hl7:addr[not(@nullFlavor)]/hl7:postalCode
Item: (atcdabbr_other_AddressCompilationMinimal)
-->
    <rule context="*[hl7:templateId[@root = '1.2.40.0.34.6.0.11.9.21']]/hl7:assignedEntity[not(@nullFlavor)]/hl7:addr[not(@nullFlavor)]/hl7:postalCode">
        <extends rule="ADXP"/>
        <assert role="error" see="http://art-decor.org/art-decor/decor-templates--elgaimpf-?id=1.2.40.0.34.6.0.11.9.10" test="(local-name-from-QName(resolve-QName(@xsi:type,.))='ADXP' and namespace-uri-from-QName(resolve-QName(@xsi:type,.))='urn:hl7-org:v3') or not(@xsi:type)">(atcdabbr_other_AddressCompilationMinimal): Wenn eine @xsi:type Instruktion anwesend ist MUSS diese den Wert "{urn:hl7-org:v3}:ADXP" haben. Gefunden "{<value-of select="namespace-uri-from-QName(resolve-QName(@xsi:type,.))"/>}:<value-of select="local-name-from-QName(resolve-QName(@xsi:type,.))"/>"</assert>
    </rule>

   <!--
Template derived rules for ID: 1.2.40.0.34.6.0.11.9.10
Context: *[hl7:templateId[@root = '1.2.40.0.34.6.0.11.9.21']]/hl7:assignedEntity[not(@nullFlavor)]/hl7:addr[not(@nullFlavor)]/hl7:city
Item: (atcdabbr_other_AddressCompilationMinimal)
-->
    <rule context="*[hl7:templateId[@root = '1.2.40.0.34.6.0.11.9.21']]/hl7:assignedEntity[not(@nullFlavor)]/hl7:addr[not(@nullFlavor)]/hl7:city">
        <extends rule="ADXP"/>
        <assert role="error" see="http://art-decor.org/art-decor/decor-templates--elgaimpf-?id=1.2.40.0.34.6.0.11.9.10" test="(local-name-from-QName(resolve-QName(@xsi:type,.))='ADXP' and namespace-uri-from-QName(resolve-QName(@xsi:type,.))='urn:hl7-org:v3') or not(@xsi:type)">(atcdabbr_other_AddressCompilationMinimal): Wenn eine @xsi:type Instruktion anwesend ist MUSS diese den Wert "{urn:hl7-org:v3}:ADXP" haben. Gefunden "{<value-of select="namespace-uri-from-QName(resolve-QName(@xsi:type,.))"/>}:<value-of select="local-name-from-QName(resolve-QName(@xsi:type,.))"/>"</assert>
    </rule>

   <!--
Template derived rules for ID: 1.2.40.0.34.6.0.11.9.10
Context: *[hl7:templateId[@root = '1.2.40.0.34.6.0.11.9.21']]/hl7:assignedEntity[not(@nullFlavor)]/hl7:addr[not(@nullFlavor)]/hl7:state
Item: (atcdabbr_other_AddressCompilationMinimal)
-->
    <rule context="*[hl7:templateId[@root = '1.2.40.0.34.6.0.11.9.21']]/hl7:assignedEntity[not(@nullFlavor)]/hl7:addr[not(@nullFlavor)]/hl7:state">
        <extends rule="ADXP"/>
        <assert role="error" see="http://art-decor.org/art-decor/decor-templates--elgaimpf-?id=1.2.40.0.34.6.0.11.9.10" test="(local-name-from-QName(resolve-QName(@xsi:type,.))='ADXP' and namespace-uri-from-QName(resolve-QName(@xsi:type,.))='urn:hl7-org:v3') or not(@xsi:type)">(atcdabbr_other_AddressCompilationMinimal): Wenn eine @xsi:type Instruktion anwesend ist MUSS diese den Wert "{urn:hl7-org:v3}:ADXP" haben. Gefunden "{<value-of select="namespace-uri-from-QName(resolve-QName(@xsi:type,.))"/>}:<value-of select="local-name-from-QName(resolve-QName(@xsi:type,.))"/>"</assert>
    </rule>

   <!--
Template derived rules for ID: 1.2.40.0.34.6.0.11.9.10
Context: *[hl7:templateId[@root = '1.2.40.0.34.6.0.11.9.21']]/hl7:assignedEntity[not(@nullFlavor)]/hl7:addr[not(@nullFlavor)]/hl7:country
Item: (atcdabbr_other_AddressCompilationMinimal)
-->
    <rule context="*[hl7:templateId[@root = '1.2.40.0.34.6.0.11.9.21']]/hl7:assignedEntity[not(@nullFlavor)]/hl7:addr[not(@nullFlavor)]/hl7:country">
        <extends rule="ADXP"/>
        <assert role="error" see="http://art-decor.org/art-decor/decor-templates--elgaimpf-?id=1.2.40.0.34.6.0.11.9.10" test="(local-name-from-QName(resolve-QName(@xsi:type,.))='ADXP' and namespace-uri-from-QName(resolve-QName(@xsi:type,.))='urn:hl7-org:v3') or not(@xsi:type)">(atcdabbr_other_AddressCompilationMinimal): Wenn eine @xsi:type Instruktion anwesend ist MUSS diese den Wert "{urn:hl7-org:v3}:ADXP" haben. Gefunden "{<value-of select="namespace-uri-from-QName(resolve-QName(@xsi:type,.))"/>}:<value-of select="local-name-from-QName(resolve-QName(@xsi:type,.))"/>"</assert>
        <assert role="info" see="http://art-decor.org/art-decor/decor-templates--elgaimpf-?id=1.2.40.0.34.6.0.11.9.10" test="string-length(text()) = 3">(atcdabbr_other_AddressCompilationMinimal): content length = 3 characters</assert>
    </rule>

   <!--
Template derived rules for ID: 1.2.40.0.34.6.0.11.9.10
Context: *[hl7:templateId[@root = '1.2.40.0.34.6.0.11.9.21']]/hl7:assignedEntity[not(@nullFlavor)]/hl7:addr[not(@nullFlavor)]/hl7:additionalLocator
Item: (atcdabbr_other_AddressCompilationMinimal)
-->
    <rule context="*[hl7:templateId[@root = '1.2.40.0.34.6.0.11.9.21']]/hl7:assignedEntity[not(@nullFlavor)]/hl7:addr[not(@nullFlavor)]/hl7:additionalLocator">
        <extends rule="ADXP"/>
        <assert role="error" see="http://art-decor.org/art-decor/decor-templates--elgaimpf-?id=1.2.40.0.34.6.0.11.9.10" test="(local-name-from-QName(resolve-QName(@xsi:type,.))='ADXP' and namespace-uri-from-QName(resolve-QName(@xsi:type,.))='urn:hl7-org:v3') or not(@xsi:type)">(atcdabbr_other_AddressCompilationMinimal): Wenn eine @xsi:type Instruktion anwesend ist MUSS diese den Wert "{urn:hl7-org:v3}:ADXP" haben. Gefunden "{<value-of select="namespace-uri-from-QName(resolve-QName(@xsi:type,.))"/>}:<value-of select="local-name-from-QName(resolve-QName(@xsi:type,.))"/>"</assert>
    </rule>
   <!--
Template derived rules for ID: 1.2.40.0.34.6.0.11.9.21
Context: *[hl7:templateId[@root = '1.2.40.0.34.6.0.11.9.21']]/hl7:assignedEntity[not(@nullFlavor)]/hl7:addr[@nullFlavor = 'UNK']
Item: (atcdabbr_other_PerformerBodyImpfendePerson)
-->
    <rule context="*[hl7:templateId[@root = '1.2.40.0.34.6.0.11.9.21']]/hl7:assignedEntity[not(@nullFlavor)]/hl7:addr[@nullFlavor = 'UNK']" id="d245561e6596-false-d470266e0">
        <assert role="error" see="http://art-decor.org/art-decor/decor-templates--elgaimpf-?id=1.2.40.0.34.6.0.11.9.21" test="string(@nullFlavor) = ('UNK')">(atcdabbr_other_PerformerBodyImpfendePerson): Der Wert von nullFlavor MUSS 'UNK' sein. Gefunden: "<value-of select="@nullFlavor"/>"</assert>
    </rule>
   <!--
Template derived rules for ID: 1.2.40.0.34.6.0.11.9.21
Context: *[hl7:templateId[@root = '1.2.40.0.34.6.0.11.9.21']]/hl7:assignedEntity[not(@nullFlavor)]/hl7:telecom[not(@nullFlavor)]
Item: (atcdabbr_other_PerformerBodyImpfendePerson)
-->
    <rule context="*[hl7:templateId[@root = '1.2.40.0.34.6.0.11.9.21']]/hl7:assignedEntity[not(@nullFlavor)]/hl7:telecom[not(@nullFlavor)]" id="d245561e6600-false-d470274e0">
        <extends rule="TEL.AT"/>
        <assert role="error" see="http://art-decor.org/art-decor/decor-templates--elgaimpf-?id=1.2.40.0.34.6.0.11.9.21" test="(local-name-from-QName(resolve-QName(@xsi:type,.))='TEL' and namespace-uri-from-QName(resolve-QName(@xsi:type,.))='urn:hl7-org:v3') or not(@xsi:type)">(atcdabbr_other_PerformerBodyImpfendePerson): Wenn eine @xsi:type Instruktion anwesend ist MUSS diese den Wert "{urn:hl7-org:v3}:TEL" haben. Gefunden "{<value-of select="namespace-uri-from-QName(resolve-QName(@xsi:type,.))"/>}:<value-of select="local-name-from-QName(resolve-QName(@xsi:type,.))"/>"</assert>
        <assert role="error" see="http://art-decor.org/art-decor/decor-templates--elgaimpf-?id=1.2.40.0.34.6.0.11.9.21" test="@value">(atcdabbr_other_PerformerBodyImpfendePerson): Attribut @value MUSS vorkommen.</assert>
        <assert role="error" see="http://art-decor.org/art-decor/decor-templates--elgaimpf-?id=1.2.40.0.34.6.0.11.9.21" test="not(@value) or string(@value castable as xs:anyURI)">(atcdabbr_other_PerformerBodyImpfendePerson): Attribute @value MUSS vom Datentyp 'url' sein  - '<value-of select="@value"/>'</assert>
        <assert role="error" see="http://art-decor.org/art-decor/decor-templates--elgaimpf-?id=1.2.40.0.34.6.0.11.9.21" test="not(@use) or (string-length(@use) &gt; 0 and not(matches(@use,'\s')))">(atcdabbr_other_PerformerBodyImpfendePerson): Attribute @use MUSS vom Datentyp 'cs' sein  - '<value-of select="@use"/>'</assert>
    </rule>

   <!--
Template derived rules for ID: 1.2.40.0.34.6.0.11.9.21
Context: *[hl7:templateId[@root = '1.2.40.0.34.6.0.11.9.21']]/hl7:assignedEntity[not(@nullFlavor)]/hl7:assignedPerson
Item: (atcdabbr_other_PerformerBodyImpfendePerson)
-->

<!--
Template derived rules for ID: 1.2.40.0.34.6.0.11.9.12
Context: *[hl7:templateId[@root = '1.2.40.0.34.6.0.11.9.21']]/hl7:assignedEntity[not(@nullFlavor)]/hl7:assignedPerson
Item: (atcdabbr_other_PersonNameCompilationG1M)
-->
    <rule context="*[hl7:templateId[@root = '1.2.40.0.34.6.0.11.9.21']]/hl7:assignedEntity[not(@nullFlavor)]/hl7:assignedPerson">
        <assert role="error" see="http://art-decor.org/art-decor/decor-templates--elgaimpf-?id=1.2.40.0.34.6.0.11.9.12" test="string(@classCode) = ('PSN') or not(@classCode)">(atcdabbr_other_PersonNameCompilationG1M): Der Wert von classCode MUSS 'PSN' sein. Gefunden: "<value-of select="@classCode"/>"</assert>
        <assert role="error" see="http://art-decor.org/art-decor/decor-templates--elgaimpf-?id=1.2.40.0.34.6.0.11.9.12" test="string(@determinerCode) = ('INSTANCE') or not(@determinerCode)">(atcdabbr_other_PersonNameCompilationG1M): Der Wert von determinerCode MUSS 'INSTANCE' sein. Gefunden: "<value-of select="@determinerCode"/>"</assert>
        <assert role="error" see="http://art-decor.org/art-decor/decor-templates--elgaimpf-?id=1.2.40.0.34.6.0.11.9.12" test="count(hl7:name[not(@nullFlavor)]) &gt;= 1">(atcdabbr_other_PersonNameCompilationG1M): Element hl7:name[not(@nullFlavor)] ist mandatory [min 1x].</assert>
        <assert role="error" see="http://art-decor.org/art-decor/decor-templates--elgaimpf-?id=1.2.40.0.34.6.0.11.9.12" test="count(hl7:name[not(@nullFlavor)]) &lt;= 1">(atcdabbr_other_PersonNameCompilationG1M): Element hl7:name[not(@nullFlavor)] kommt zu häufig vor [max 1x].</assert>
    </rule>

   <!--
Template derived rules for ID: 1.2.40.0.34.6.0.11.9.12
Context: *[hl7:templateId[@root = '1.2.40.0.34.6.0.11.9.21']]/hl7:assignedEntity[not(@nullFlavor)]/hl7:assignedPerson/hl7:name[not(@nullFlavor)]
Item: (atcdabbr_other_PersonNameCompilationG1M)
-->
    <rule context="*[hl7:templateId[@root = '1.2.40.0.34.6.0.11.9.21']]/hl7:assignedEntity[not(@nullFlavor)]/hl7:assignedPerson/hl7:name[not(@nullFlavor)]">
        <extends rule="PN"/>
        <assert role="error" see="http://art-decor.org/art-decor/decor-templates--elgaimpf-?id=1.2.40.0.34.6.0.11.9.12" test="(local-name-from-QName(resolve-QName(@xsi:type,.))='PN' and namespace-uri-from-QName(resolve-QName(@xsi:type,.))='urn:hl7-org:v3') or not(@xsi:type)">(atcdabbr_other_PersonNameCompilationG1M): Wenn eine @xsi:type Instruktion anwesend ist MUSS diese den Wert "{urn:hl7-org:v3}:PN" haben. Gefunden "{<value-of select="namespace-uri-from-QName(resolve-QName(@xsi:type,.))"/>}:<value-of select="local-name-from-QName(resolve-QName(@xsi:type,.))"/>"</assert>
        <assert role="error" see="http://art-decor.org/art-decor/decor-templates--elgaimpf-?id=1.2.40.0.34.6.0.11.9.12" test="not(@use) or (string-length(@use) &gt; 0 and not(matches(@use,'\s')))">(atcdabbr_other_PersonNameCompilationG1M): Attribute @use MUSS vom Datentyp 'cs' sein  - '<value-of select="@use"/>'</assert>
    </rule>

   <!--
Template derived rules for ID: 1.2.40.0.34.6.0.11.9.21
Context: *[hl7:templateId[@root = '1.2.40.0.34.6.0.11.9.21']]/hl7:assignedEntity[not(@nullFlavor)]/hl7:assignedPerson
Item: (atcdabbr_other_PerformerBodyImpfendePerson)
-->

<!--
Template derived rules for ID: 1.2.40.0.34.6.0.11.9.11
Context: *[hl7:templateId[@root = '1.2.40.0.34.6.0.11.9.21']]/hl7:assignedEntity[not(@nullFlavor)]/hl7:assignedPerson
Item: (atcdabbr_other_PersonNameCompilationG2M)
-->
    <rule context="*[hl7:templateId[@root = '1.2.40.0.34.6.0.11.9.21']]/hl7:assignedEntity[not(@nullFlavor)]/hl7:assignedPerson">
        <assert role="error" see="http://art-decor.org/art-decor/decor-templates--elgaimpf-?id=1.2.40.0.34.6.0.11.9.11" test="string(@classCode) = ('PSN') or not(@classCode)">(atcdabbr_other_PersonNameCompilationG2M): Der Wert von classCode MUSS 'PSN' sein. Gefunden: "<value-of select="@classCode"/>"</assert>
        <assert role="error" see="http://art-decor.org/art-decor/decor-templates--elgaimpf-?id=1.2.40.0.34.6.0.11.9.11" test="string(@determinerCode) = ('INSTANCE') or not(@determinerCode)">(atcdabbr_other_PersonNameCompilationG2M): Der Wert von determinerCode MUSS 'INSTANCE' sein. Gefunden: "<value-of select="@determinerCode"/>"</assert>
        <assert role="error" see="http://art-decor.org/art-decor/decor-templates--elgaimpf-?id=1.2.40.0.34.6.0.11.9.11" test="count(hl7:name[not(@nullFlavor)]) &gt;= 1">(atcdabbr_other_PersonNameCompilationG2M): Element hl7:name[not(@nullFlavor)] ist mandatory [min 1x].</assert>
        <assert role="error" see="http://art-decor.org/art-decor/decor-templates--elgaimpf-?id=1.2.40.0.34.6.0.11.9.11" test="count(hl7:name[not(@nullFlavor)]) &lt;= 1">(atcdabbr_other_PersonNameCompilationG2M): Element hl7:name[not(@nullFlavor)] kommt zu häufig vor [max 1x].</assert>
    </rule>

   <!--
Template derived rules for ID: 1.2.40.0.34.6.0.11.9.11
Context: *[hl7:templateId[@root = '1.2.40.0.34.6.0.11.9.21']]/hl7:assignedEntity[not(@nullFlavor)]/hl7:assignedPerson/hl7:name[not(@nullFlavor)]
Item: (atcdabbr_other_PersonNameCompilationG2M)
-->
    <rule context="*[hl7:templateId[@root = '1.2.40.0.34.6.0.11.9.21']]/hl7:assignedEntity[not(@nullFlavor)]/hl7:assignedPerson/hl7:name[not(@nullFlavor)]">
        <extends rule="PN"/>
        <assert role="error" see="http://art-decor.org/art-decor/decor-templates--elgaimpf-?id=1.2.40.0.34.6.0.11.9.11" test="(local-name-from-QName(resolve-QName(@xsi:type,.))='PN' and namespace-uri-from-QName(resolve-QName(@xsi:type,.))='urn:hl7-org:v3') or not(@xsi:type)">(atcdabbr_other_PersonNameCompilationG2M): Wenn eine @xsi:type Instruktion anwesend ist MUSS diese den Wert "{urn:hl7-org:v3}:PN" haben. Gefunden "{<value-of select="namespace-uri-from-QName(resolve-QName(@xsi:type,.))"/>}:<value-of select="local-name-from-QName(resolve-QName(@xsi:type,.))"/>"</assert>
        <assert role="error" see="http://art-decor.org/art-decor/decor-templates--elgaimpf-?id=1.2.40.0.34.6.0.11.9.11" test="not(@use) or (string-length(@use) &gt; 0 and not(matches(@use,'\s')))">(atcdabbr_other_PersonNameCompilationG2M): Attribute @use MUSS vom Datentyp 'cs' sein  - '<value-of select="@use"/>'</assert>
        <assert role="error" see="http://art-decor.org/art-decor/decor-templates--elgaimpf-?id=1.2.40.0.34.6.0.11.9.11" test="count(hl7:family[not(@nullFlavor)]) &gt;= 1">(atcdabbr_other_PersonNameCompilationG2M): Element hl7:family[not(@nullFlavor)] ist mandatory [min 1x].</assert>
        <assert role="error" see="http://art-decor.org/art-decor/decor-templates--elgaimpf-?id=1.2.40.0.34.6.0.11.9.11" test="count(hl7:given[not(@nullFlavor)]) &gt;= 1">(atcdabbr_other_PersonNameCompilationG2M): Element hl7:given[not(@nullFlavor)] ist mandatory [min 1x].</assert>
    </rule>

   <!--
Template derived rules for ID: 1.2.40.0.34.6.0.11.9.11
Context: *[hl7:templateId[@root = '1.2.40.0.34.6.0.11.9.21']]/hl7:assignedEntity[not(@nullFlavor)]/hl7:assignedPerson/hl7:name[not(@nullFlavor)]/hl7:prefix
Item: (atcdabbr_other_PersonNameCompilationG2M)
-->
    <rule context="*[hl7:templateId[@root = '1.2.40.0.34.6.0.11.9.21']]/hl7:assignedEntity[not(@nullFlavor)]/hl7:assignedPerson/hl7:name[not(@nullFlavor)]/hl7:prefix">
        <extends rule="ENXP"/>
        <assert role="error" see="http://art-decor.org/art-decor/decor-templates--elgaimpf-?id=1.2.40.0.34.6.0.11.9.11" test="(local-name-from-QName(resolve-QName(@xsi:type,.))='ENXP' and namespace-uri-from-QName(resolve-QName(@xsi:type,.))='urn:hl7-org:v3') or not(@xsi:type)">(atcdabbr_other_PersonNameCompilationG2M): Wenn eine @xsi:type Instruktion anwesend ist MUSS diese den Wert "{urn:hl7-org:v3}:ENXP" haben. Gefunden "{<value-of select="namespace-uri-from-QName(resolve-QName(@xsi:type,.))"/>}:<value-of select="local-name-from-QName(resolve-QName(@xsi:type,.))"/>"</assert>
        <let name="theAttValue" value="distinct-values(tokenize(normalize-space(@qualifier),'\s'))"/>
        <assert role="error" see="http://art-decor.org/art-decor/decor-templates--elgaimpf-?id=1.2.40.0.34.6.0.11.9.11" test="not(@qualifier) or empty($theAttValue[not(. = (doc('include/voc-1.2.40.0.34.6.0.10.8-DYNAMIC.xml')/*/valueSet/conceptList/concept/@code))])">(atcdabbr_other_PersonNameCompilationG2M): Der Wert von qualifier MUSS gewählt werden aus Value Set '1.2.40.0.34.6.0.10.8' ELGA_EntityNamePartQualifier_VS (DYNAMIC).</assert>
    </rule>

   <!--
Template derived rules for ID: 1.2.40.0.34.6.0.11.9.11
Context: *[hl7:templateId[@root = '1.2.40.0.34.6.0.11.9.21']]/hl7:assignedEntity[not(@nullFlavor)]/hl7:assignedPerson/hl7:name[not(@nullFlavor)]/hl7:family[not(@nullFlavor)]
Item: (atcdabbr_other_PersonNameCompilationG2M)
-->
    <rule context="*[hl7:templateId[@root = '1.2.40.0.34.6.0.11.9.21']]/hl7:assignedEntity[not(@nullFlavor)]/hl7:assignedPerson/hl7:name[not(@nullFlavor)]/hl7:family[not(@nullFlavor)]">
        <extends rule="ENXP"/>
        <assert role="error" see="http://art-decor.org/art-decor/decor-templates--elgaimpf-?id=1.2.40.0.34.6.0.11.9.11" test="(local-name-from-QName(resolve-QName(@xsi:type,.))='ENXP' and namespace-uri-from-QName(resolve-QName(@xsi:type,.))='urn:hl7-org:v3') or not(@xsi:type)">(atcdabbr_other_PersonNameCompilationG2M): Wenn eine @xsi:type Instruktion anwesend ist MUSS diese den Wert "{urn:hl7-org:v3}:ENXP" haben. Gefunden "{<value-of select="namespace-uri-from-QName(resolve-QName(@xsi:type,.))"/>}:<value-of select="local-name-from-QName(resolve-QName(@xsi:type,.))"/>"</assert>
        <let name="theAttValue" value="distinct-values(tokenize(normalize-space(@qualifier),'\s'))"/>
        <assert role="error" see="http://art-decor.org/art-decor/decor-templates--elgaimpf-?id=1.2.40.0.34.6.0.11.9.11" test="not(@qualifier) or empty($theAttValue[not(. = (doc('include/voc-1.2.40.0.34.6.0.10.8-DYNAMIC.xml')/*/valueSet/conceptList/concept/@code))])">(atcdabbr_other_PersonNameCompilationG2M): Der Wert von qualifier MUSS gewählt werden aus Value Set '1.2.40.0.34.6.0.10.8' ELGA_EntityNamePartQualifier_VS (DYNAMIC).</assert>
    </rule>

   <!--
Template derived rules for ID: 1.2.40.0.34.6.0.11.9.11
Context: *[hl7:templateId[@root = '1.2.40.0.34.6.0.11.9.21']]/hl7:assignedEntity[not(@nullFlavor)]/hl7:assignedPerson/hl7:name[not(@nullFlavor)]/hl7:given[not(@nullFlavor)]
Item: (atcdabbr_other_PersonNameCompilationG2M)
-->
    <rule context="*[hl7:templateId[@root = '1.2.40.0.34.6.0.11.9.21']]/hl7:assignedEntity[not(@nullFlavor)]/hl7:assignedPerson/hl7:name[not(@nullFlavor)]/hl7:given[not(@nullFlavor)]">
        <extends rule="ENXP"/>
        <assert role="error" see="http://art-decor.org/art-decor/decor-templates--elgaimpf-?id=1.2.40.0.34.6.0.11.9.11" test="(local-name-from-QName(resolve-QName(@xsi:type,.))='ENXP' and namespace-uri-from-QName(resolve-QName(@xsi:type,.))='urn:hl7-org:v3') or not(@xsi:type)">(atcdabbr_other_PersonNameCompilationG2M): Wenn eine @xsi:type Instruktion anwesend ist MUSS diese den Wert "{urn:hl7-org:v3}:ENXP" haben. Gefunden "{<value-of select="namespace-uri-from-QName(resolve-QName(@xsi:type,.))"/>}:<value-of select="local-name-from-QName(resolve-QName(@xsi:type,.))"/>"</assert>
        <let name="theAttValue" value="distinct-values(tokenize(normalize-space(@qualifier),'\s'))"/>
        <assert role="error" see="http://art-decor.org/art-decor/decor-templates--elgaimpf-?id=1.2.40.0.34.6.0.11.9.11" test="not(@qualifier) or empty($theAttValue[not(. = (doc('include/voc-1.2.40.0.34.6.0.10.8-DYNAMIC.xml')/*/valueSet/conceptList/concept/@code))])">(atcdabbr_other_PersonNameCompilationG2M): Der Wert von qualifier MUSS gewählt werden aus Value Set '1.2.40.0.34.6.0.10.8' ELGA_EntityNamePartQualifier_VS (DYNAMIC).</assert>
    </rule>

   <!--
Template derived rules for ID: 1.2.40.0.34.6.0.11.9.11
Context: *[hl7:templateId[@root = '1.2.40.0.34.6.0.11.9.21']]/hl7:assignedEntity[not(@nullFlavor)]/hl7:assignedPerson/hl7:name[not(@nullFlavor)]/hl7:suffix
Item: (atcdabbr_other_PersonNameCompilationG2M)
-->
    <rule context="*[hl7:templateId[@root = '1.2.40.0.34.6.0.11.9.21']]/hl7:assignedEntity[not(@nullFlavor)]/hl7:assignedPerson/hl7:name[not(@nullFlavor)]/hl7:suffix">
        <extends rule="ENXP"/>
        <assert role="error" see="http://art-decor.org/art-decor/decor-templates--elgaimpf-?id=1.2.40.0.34.6.0.11.9.11" test="(local-name-from-QName(resolve-QName(@xsi:type,.))='ENXP' and namespace-uri-from-QName(resolve-QName(@xsi:type,.))='urn:hl7-org:v3') or not(@xsi:type)">(atcdabbr_other_PersonNameCompilationG2M): Wenn eine @xsi:type Instruktion anwesend ist MUSS diese den Wert "{urn:hl7-org:v3}:ENXP" haben. Gefunden "{<value-of select="namespace-uri-from-QName(resolve-QName(@xsi:type,.))"/>}:<value-of select="local-name-from-QName(resolve-QName(@xsi:type,.))"/>"</assert>
        <let name="theAttValue" value="distinct-values(tokenize(normalize-space(@qualifier),'\s'))"/>
        <assert role="error" see="http://art-decor.org/art-decor/decor-templates--elgaimpf-?id=1.2.40.0.34.6.0.11.9.11" test="not(@qualifier) or empty($theAttValue[not(. = (doc('include/voc-1.2.40.0.34.6.0.10.8-DYNAMIC.xml')/*/valueSet/conceptList/concept/@code))])">(atcdabbr_other_PersonNameCompilationG2M): Der Wert von qualifier MUSS gewählt werden aus Value Set '1.2.40.0.34.6.0.10.8' ELGA_EntityNamePartQualifier_VS (DYNAMIC).</assert>
    </rule>

   <!--
Template derived rules for ID: 1.2.40.0.34.6.0.11.9.21
Context: *[hl7:templateId[@root = '1.2.40.0.34.6.0.11.9.21']]/hl7:assignedEntity[not(@nullFlavor)]/hl7:representedOrganization
Item: (atcdabbr_other_PerformerBodyImpfendePerson)
-->

<!--
Template derived rules for ID: 1.2.40.0.34.6.0.11.9.20
Context: *[hl7:templateId[@root = '1.2.40.0.34.6.0.11.9.21']]/hl7:assignedEntity[not(@nullFlavor)]/hl7:representedOrganization
Item: (atcdabbr_other_OrganizationCompilationWithNameAddrMinimal)
-->
    <rule context="*[hl7:templateId[@root = '1.2.40.0.34.6.0.11.9.21']]/hl7:assignedEntity[not(@nullFlavor)]/hl7:representedOrganization">
        <assert role="error" see="http://art-decor.org/art-decor/decor-templates--elgaimpf-?id=1.2.40.0.34.6.0.11.9.20" test="string(@classCode) = ('ORG') or not(@classCode)">(atcdabbr_other_OrganizationCompilationWithNameAddrMinimal): Der Wert von classCode MUSS 'ORG' sein. Gefunden: "<value-of select="@classCode"/>"</assert>
        <assert role="error" see="http://art-decor.org/art-decor/decor-templates--elgaimpf-?id=1.2.40.0.34.6.0.11.9.20" test="string(@determinerCode) = ('INSTANCE') or not(@determinerCode)">(atcdabbr_other_OrganizationCompilationWithNameAddrMinimal): Der Wert von determinerCode MUSS 'INSTANCE' sein. Gefunden: "<value-of select="@determinerCode"/>"</assert>
        <assert role="error" see="http://art-decor.org/art-decor/decor-templates--elgaimpf-?id=1.2.40.0.34.6.0.11.9.20" test="count(hl7:telecom)&lt;2 or (count(hl7:telecom) = count(hl7:telecom[@use]))">(atcdabbr_other_OrganizationCompilationWithNameAddrMinimal): Das Attribut telecom/@use MUSS bei allen telecom Elementen strukturiert sein.</assert>
        <assert role="error" see="http://art-decor.org/art-decor/decor-templates--elgaimpf-?id=1.2.40.0.34.6.0.11.9.20" test="count(hl7:name[not(@nullFlavor)]) &gt;= 1">(atcdabbr_other_OrganizationCompilationWithNameAddrMinimal): Element hl7:name[not(@nullFlavor)] ist mandatory [min 1x].</assert>
        <assert role="error" see="http://art-decor.org/art-decor/decor-templates--elgaimpf-?id=1.2.40.0.34.6.0.11.9.20" test="count(hl7:name[not(@nullFlavor)]) &lt;= 1">(atcdabbr_other_OrganizationCompilationWithNameAddrMinimal): Element hl7:name[not(@nullFlavor)] kommt zu häufig vor [max 1x].</assert>
        <assert role="error" see="http://art-decor.org/art-decor/decor-templates--elgaimpf-?id=1.2.40.0.34.6.0.11.9.20" test="count(hl7:addr[not(@nullFlavor)]) &lt;= 1">(atcdabbr_other_OrganizationCompilationWithNameAddrMinimal): Element hl7:addr[not(@nullFlavor)] kommt zu häufig vor [max 1x].</assert>
    </rule>

   <!--
Template derived rules for ID: 1.2.40.0.34.6.0.11.9.20
Context: *[hl7:templateId[@root = '1.2.40.0.34.6.0.11.9.21']]/hl7:assignedEntity[not(@nullFlavor)]/hl7:representedOrganization/hl7:id[not(@nullFlavor)]
Item: (atcdabbr_other_OrganizationCompilationWithNameAddrMinimal)
-->
    <rule context="*[hl7:templateId[@root = '1.2.40.0.34.6.0.11.9.21']]/hl7:assignedEntity[not(@nullFlavor)]/hl7:representedOrganization/hl7:id[not(@nullFlavor)]">
        <extends rule="II"/>
        <assert role="error" see="http://art-decor.org/art-decor/decor-templates--elgaimpf-?id=1.2.40.0.34.6.0.11.9.20" test="(local-name-from-QName(resolve-QName(@xsi:type,.))='II' and namespace-uri-from-QName(resolve-QName(@xsi:type,.))='urn:hl7-org:v3') or not(@xsi:type)">(atcdabbr_other_OrganizationCompilationWithNameAddrMinimal): Wenn eine @xsi:type Instruktion anwesend ist MUSS diese den Wert "{urn:hl7-org:v3}:II" haben. Gefunden "{<value-of select="namespace-uri-from-QName(resolve-QName(@xsi:type,.))"/>}:<value-of select="local-name-from-QName(resolve-QName(@xsi:type,.))"/>"</assert>
    </rule>

   <!--
Template derived rules for ID: 1.2.40.0.34.6.0.11.9.20
Context: *[hl7:templateId[@root = '1.2.40.0.34.6.0.11.9.21']]/hl7:assignedEntity[not(@nullFlavor)]/hl7:representedOrganization/hl7:name[not(@nullFlavor)]
Item: (atcdabbr_other_OrganizationCompilationWithNameAddrMinimal)
-->
    <rule context="*[hl7:templateId[@root = '1.2.40.0.34.6.0.11.9.21']]/hl7:assignedEntity[not(@nullFlavor)]/hl7:representedOrganization/hl7:name[not(@nullFlavor)]">
        <extends rule="ON"/>
        <assert role="error" see="http://art-decor.org/art-decor/decor-templates--elgaimpf-?id=1.2.40.0.34.6.0.11.9.20" test="(local-name-from-QName(resolve-QName(@xsi:type,.))='ON' and namespace-uri-from-QName(resolve-QName(@xsi:type,.))='urn:hl7-org:v3') or not(@xsi:type)">(atcdabbr_other_OrganizationCompilationWithNameAddrMinimal): Wenn eine @xsi:type Instruktion anwesend ist MUSS diese den Wert "{urn:hl7-org:v3}:ON" haben. Gefunden "{<value-of select="namespace-uri-from-QName(resolve-QName(@xsi:type,.))"/>}:<value-of select="local-name-from-QName(resolve-QName(@xsi:type,.))"/>"</assert>
    </rule>

   <!--
Template derived rules for ID: 1.2.40.0.34.6.0.11.9.20
Context: *[hl7:templateId[@root = '1.2.40.0.34.6.0.11.9.21']]/hl7:assignedEntity[not(@nullFlavor)]/hl7:representedOrganization/hl7:telecom[not(@nullFlavor)]
Item: (atcdabbr_other_OrganizationCompilationWithNameAddrMinimal)
-->
    <rule context="*[hl7:templateId[@root = '1.2.40.0.34.6.0.11.9.21']]/hl7:assignedEntity[not(@nullFlavor)]/hl7:representedOrganization/hl7:telecom[not(@nullFlavor)]">
        <extends rule="TEL.AT"/>
        <assert role="error" see="http://art-decor.org/art-decor/decor-templates--elgaimpf-?id=1.2.40.0.34.6.0.11.9.20" test="(local-name-from-QName(resolve-QName(@xsi:type,.))='TEL' and namespace-uri-from-QName(resolve-QName(@xsi:type,.))='urn:hl7-org:v3') or not(@xsi:type)">(atcdabbr_other_OrganizationCompilationWithNameAddrMinimal): Wenn eine @xsi:type Instruktion anwesend ist MUSS diese den Wert "{urn:hl7-org:v3}:TEL" haben. Gefunden "{<value-of select="namespace-uri-from-QName(resolve-QName(@xsi:type,.))"/>}:<value-of select="local-name-from-QName(resolve-QName(@xsi:type,.))"/>"</assert>
        <assert role="error" see="http://art-decor.org/art-decor/decor-templates--elgaimpf-?id=1.2.40.0.34.6.0.11.9.20" test="@value">(atcdabbr_other_OrganizationCompilationWithNameAddrMinimal): Attribut @value MUSS vorkommen.</assert>
        <assert role="error" see="http://art-decor.org/art-decor/decor-templates--elgaimpf-?id=1.2.40.0.34.6.0.11.9.20" test="not(@value) or string-length(@value)&gt;0">(atcdabbr_other_OrganizationCompilationWithNameAddrMinimal): Attribute @value MUSS vom Datentyp 'st' sein  - '<value-of select="@value"/>'</assert>
        <assert role="error" see="http://art-decor.org/art-decor/decor-templates--elgaimpf-?id=1.2.40.0.34.6.0.11.9.20" test="not(@use) or string-length(@use) &gt; 0">(atcdabbr_other_OrganizationCompilationWithNameAddrMinimal): Attribute @use MUSS vom Datentyp 'set_cs' sein  - '<value-of select="@use"/>'</assert>
    </rule>

   <!--
Template derived rules for ID: 1.2.40.0.34.6.0.11.9.20
Context: *[hl7:templateId[@root = '1.2.40.0.34.6.0.11.9.21']]/hl7:assignedEntity[not(@nullFlavor)]/hl7:representedOrganization/hl7:addr[not(@nullFlavor)]
Item: (atcdabbr_other_OrganizationCompilationWithNameAddrMinimal)
-->

<!--
Template derived rules for ID: 1.2.40.0.34.6.0.11.9.10
Context: *[hl7:templateId[@root = '1.2.40.0.34.6.0.11.9.21']]/hl7:assignedEntity[not(@nullFlavor)]/hl7:representedOrganization/hl7:addr[not(@nullFlavor)]
Item: (atcdabbr_other_AddressCompilationMinimal)
-->
    <rule context="*[hl7:templateId[@root = '1.2.40.0.34.6.0.11.9.21']]/hl7:assignedEntity[not(@nullFlavor)]/hl7:representedOrganization/hl7:addr[not(@nullFlavor)]">
        <assert role="error" see="http://art-decor.org/art-decor/decor-templates--elgaimpf-?id=1.2.40.0.34.6.0.11.9.10" test="not(@use) or (string-length(@use) &gt; 0 and not(matches(@use,'\s')))">(atcdabbr_other_AddressCompilationMinimal): Attribute @use MUSS vom Datentyp 'cs' sein  - '<value-of select="@use"/>'</assert>
        <assert role="error" see="http://art-decor.org/art-decor/decor-templates--elgaimpf-?id=1.2.40.0.34.6.0.11.9.10" test="not(hl7:streetAddressLine and (hl7:streetName or hl7:houseNumber)) or ((hl7:streetAddressLine or (hl7:streetName and hl7:houseNumber)) and not((hl7:streetAddressLine and hl7:streetName and hl7:houseNumber) or (hl7:streetAddressLine and (hl7:streetName or hl7:houseNumber))))">(atcdabbr_other_AddressCompilationMinimal): Es muss entweder streetAddressLine oder streetName UND houseNumber angegeben werden.</assert>
        <assert role="error" see="http://art-decor.org/art-decor/decor-templates--elgaimpf-?id=1.2.40.0.34.6.0.11.9.10" test="count(hl7:streetAddressLine) &lt;= 1">(atcdabbr_other_AddressCompilationMinimal): Element hl7:streetAddressLine kommt zu häufig vor [max 1x].</assert>
        <assert role="error" see="http://art-decor.org/art-decor/decor-templates--elgaimpf-?id=1.2.40.0.34.6.0.11.9.10" test="count(hl7:streetName) &lt;= 1">(atcdabbr_other_AddressCompilationMinimal): Element hl7:streetName kommt zu häufig vor [max 1x].</assert>
        <assert role="error" see="http://art-decor.org/art-decor/decor-templates--elgaimpf-?id=1.2.40.0.34.6.0.11.9.10" test="count(hl7:houseNumber) &lt;= 1">(atcdabbr_other_AddressCompilationMinimal): Element hl7:houseNumber kommt zu häufig vor [max 1x].</assert>
        <assert role="error" see="http://art-decor.org/art-decor/decor-templates--elgaimpf-?id=1.2.40.0.34.6.0.11.9.10" test="count(hl7:postalCode) &lt;= 1">(atcdabbr_other_AddressCompilationMinimal): Element hl7:postalCode kommt zu häufig vor [max 1x].</assert>
        <assert role="error" see="http://art-decor.org/art-decor/decor-templates--elgaimpf-?id=1.2.40.0.34.6.0.11.9.10" test="count(hl7:city) &lt;= 1">(atcdabbr_other_AddressCompilationMinimal): Element hl7:city kommt zu häufig vor [max 1x].</assert>
        <assert role="error" see="http://art-decor.org/art-decor/decor-templates--elgaimpf-?id=1.2.40.0.34.6.0.11.9.10" test="count(hl7:state) &lt;= 1">(atcdabbr_other_AddressCompilationMinimal): Element hl7:state kommt zu häufig vor [max 1x].</assert>
        <assert role="error" see="http://art-decor.org/art-decor/decor-templates--elgaimpf-?id=1.2.40.0.34.6.0.11.9.10" test="count(hl7:country) &lt;= 1">(atcdabbr_other_AddressCompilationMinimal): Element hl7:country kommt zu häufig vor [max 1x].</assert>
        <assert role="error" see="http://art-decor.org/art-decor/decor-templates--elgaimpf-?id=1.2.40.0.34.6.0.11.9.10" test="count(hl7:additionalLocator) &lt;= 1">(atcdabbr_other_AddressCompilationMinimal): Element hl7:additionalLocator kommt zu häufig vor [max 1x].</assert>
    </rule>

   <!--
Template derived rules for ID: 1.2.40.0.34.6.0.11.9.10
Context: *[hl7:templateId[@root = '1.2.40.0.34.6.0.11.9.21']]/hl7:assignedEntity[not(@nullFlavor)]/hl7:representedOrganization/hl7:addr[not(@nullFlavor)]/hl7:streetAddressLine
Item: (atcdabbr_other_AddressCompilationMinimal)
-->
    <rule context="*[hl7:templateId[@root = '1.2.40.0.34.6.0.11.9.21']]/hl7:assignedEntity[not(@nullFlavor)]/hl7:representedOrganization/hl7:addr[not(@nullFlavor)]/hl7:streetAddressLine">
        <extends rule="ADXP"/>
        <assert role="error" see="http://art-decor.org/art-decor/decor-templates--elgaimpf-?id=1.2.40.0.34.6.0.11.9.10" test="(local-name-from-QName(resolve-QName(@xsi:type,.))='ADXP' and namespace-uri-from-QName(resolve-QName(@xsi:type,.))='urn:hl7-org:v3') or not(@xsi:type)">(atcdabbr_other_AddressCompilationMinimal): Wenn eine @xsi:type Instruktion anwesend ist MUSS diese den Wert "{urn:hl7-org:v3}:ADXP" haben. Gefunden "{<value-of select="namespace-uri-from-QName(resolve-QName(@xsi:type,.))"/>}:<value-of select="local-name-from-QName(resolve-QName(@xsi:type,.))"/>"</assert>
    </rule>

   <!--
Template derived rules for ID: 1.2.40.0.34.6.0.11.9.10
Context: *[hl7:templateId[@root = '1.2.40.0.34.6.0.11.9.21']]/hl7:assignedEntity[not(@nullFlavor)]/hl7:representedOrganization/hl7:addr[not(@nullFlavor)]/hl7:streetName
Item: (atcdabbr_other_AddressCompilationMinimal)
-->
    <rule context="*[hl7:templateId[@root = '1.2.40.0.34.6.0.11.9.21']]/hl7:assignedEntity[not(@nullFlavor)]/hl7:representedOrganization/hl7:addr[not(@nullFlavor)]/hl7:streetName">
        <extends rule="ADXP"/>
        <assert role="error" see="http://art-decor.org/art-decor/decor-templates--elgaimpf-?id=1.2.40.0.34.6.0.11.9.10" test="(local-name-from-QName(resolve-QName(@xsi:type,.))='ADXP' and namespace-uri-from-QName(resolve-QName(@xsi:type,.))='urn:hl7-org:v3') or not(@xsi:type)">(atcdabbr_other_AddressCompilationMinimal): Wenn eine @xsi:type Instruktion anwesend ist MUSS diese den Wert "{urn:hl7-org:v3}:ADXP" haben. Gefunden "{<value-of select="namespace-uri-from-QName(resolve-QName(@xsi:type,.))"/>}:<value-of select="local-name-from-QName(resolve-QName(@xsi:type,.))"/>"</assert>
    </rule>

   <!--
Template derived rules for ID: 1.2.40.0.34.6.0.11.9.10
Context: *[hl7:templateId[@root = '1.2.40.0.34.6.0.11.9.21']]/hl7:assignedEntity[not(@nullFlavor)]/hl7:representedOrganization/hl7:addr[not(@nullFlavor)]/hl7:houseNumber
Item: (atcdabbr_other_AddressCompilationMinimal)
-->
    <rule context="*[hl7:templateId[@root = '1.2.40.0.34.6.0.11.9.21']]/hl7:assignedEntity[not(@nullFlavor)]/hl7:representedOrganization/hl7:addr[not(@nullFlavor)]/hl7:houseNumber">
        <extends rule="ADXP"/>
        <assert role="error" see="http://art-decor.org/art-decor/decor-templates--elgaimpf-?id=1.2.40.0.34.6.0.11.9.10" test="(local-name-from-QName(resolve-QName(@xsi:type,.))='ADXP' and namespace-uri-from-QName(resolve-QName(@xsi:type,.))='urn:hl7-org:v3') or not(@xsi:type)">(atcdabbr_other_AddressCompilationMinimal): Wenn eine @xsi:type Instruktion anwesend ist MUSS diese den Wert "{urn:hl7-org:v3}:ADXP" haben. Gefunden "{<value-of select="namespace-uri-from-QName(resolve-QName(@xsi:type,.))"/>}:<value-of select="local-name-from-QName(resolve-QName(@xsi:type,.))"/>"</assert>
    </rule>

   <!--
Template derived rules for ID: 1.2.40.0.34.6.0.11.9.10
Context: *[hl7:templateId[@root = '1.2.40.0.34.6.0.11.9.21']]/hl7:assignedEntity[not(@nullFlavor)]/hl7:representedOrganization/hl7:addr[not(@nullFlavor)]/hl7:postalCode
Item: (atcdabbr_other_AddressCompilationMinimal)
-->
    <rule context="*[hl7:templateId[@root = '1.2.40.0.34.6.0.11.9.21']]/hl7:assignedEntity[not(@nullFlavor)]/hl7:representedOrganization/hl7:addr[not(@nullFlavor)]/hl7:postalCode">
        <extends rule="ADXP"/>
        <assert role="error" see="http://art-decor.org/art-decor/decor-templates--elgaimpf-?id=1.2.40.0.34.6.0.11.9.10" test="(local-name-from-QName(resolve-QName(@xsi:type,.))='ADXP' and namespace-uri-from-QName(resolve-QName(@xsi:type,.))='urn:hl7-org:v3') or not(@xsi:type)">(atcdabbr_other_AddressCompilationMinimal): Wenn eine @xsi:type Instruktion anwesend ist MUSS diese den Wert "{urn:hl7-org:v3}:ADXP" haben. Gefunden "{<value-of select="namespace-uri-from-QName(resolve-QName(@xsi:type,.))"/>}:<value-of select="local-name-from-QName(resolve-QName(@xsi:type,.))"/>"</assert>
    </rule>

   <!--
Template derived rules for ID: 1.2.40.0.34.6.0.11.9.10
Context: *[hl7:templateId[@root = '1.2.40.0.34.6.0.11.9.21']]/hl7:assignedEntity[not(@nullFlavor)]/hl7:representedOrganization/hl7:addr[not(@nullFlavor)]/hl7:city
Item: (atcdabbr_other_AddressCompilationMinimal)
-->
    <rule context="*[hl7:templateId[@root = '1.2.40.0.34.6.0.11.9.21']]/hl7:assignedEntity[not(@nullFlavor)]/hl7:representedOrganization/hl7:addr[not(@nullFlavor)]/hl7:city">
        <extends rule="ADXP"/>
        <assert role="error" see="http://art-decor.org/art-decor/decor-templates--elgaimpf-?id=1.2.40.0.34.6.0.11.9.10" test="(local-name-from-QName(resolve-QName(@xsi:type,.))='ADXP' and namespace-uri-from-QName(resolve-QName(@xsi:type,.))='urn:hl7-org:v3') or not(@xsi:type)">(atcdabbr_other_AddressCompilationMinimal): Wenn eine @xsi:type Instruktion anwesend ist MUSS diese den Wert "{urn:hl7-org:v3}:ADXP" haben. Gefunden "{<value-of select="namespace-uri-from-QName(resolve-QName(@xsi:type,.))"/>}:<value-of select="local-name-from-QName(resolve-QName(@xsi:type,.))"/>"</assert>
    </rule>

   <!--
Template derived rules for ID: 1.2.40.0.34.6.0.11.9.10
Context: *[hl7:templateId[@root = '1.2.40.0.34.6.0.11.9.21']]/hl7:assignedEntity[not(@nullFlavor)]/hl7:representedOrganization/hl7:addr[not(@nullFlavor)]/hl7:state
Item: (atcdabbr_other_AddressCompilationMinimal)
-->
    <rule context="*[hl7:templateId[@root = '1.2.40.0.34.6.0.11.9.21']]/hl7:assignedEntity[not(@nullFlavor)]/hl7:representedOrganization/hl7:addr[not(@nullFlavor)]/hl7:state">
        <extends rule="ADXP"/>
        <assert role="error" see="http://art-decor.org/art-decor/decor-templates--elgaimpf-?id=1.2.40.0.34.6.0.11.9.10" test="(local-name-from-QName(resolve-QName(@xsi:type,.))='ADXP' and namespace-uri-from-QName(resolve-QName(@xsi:type,.))='urn:hl7-org:v3') or not(@xsi:type)">(atcdabbr_other_AddressCompilationMinimal): Wenn eine @xsi:type Instruktion anwesend ist MUSS diese den Wert "{urn:hl7-org:v3}:ADXP" haben. Gefunden "{<value-of select="namespace-uri-from-QName(resolve-QName(@xsi:type,.))"/>}:<value-of select="local-name-from-QName(resolve-QName(@xsi:type,.))"/>"</assert>
    </rule>

   <!--
Template derived rules for ID: 1.2.40.0.34.6.0.11.9.10
Context: *[hl7:templateId[@root = '1.2.40.0.34.6.0.11.9.21']]/hl7:assignedEntity[not(@nullFlavor)]/hl7:representedOrganization/hl7:addr[not(@nullFlavor)]/hl7:country
Item: (atcdabbr_other_AddressCompilationMinimal)
-->
    <rule context="*[hl7:templateId[@root = '1.2.40.0.34.6.0.11.9.21']]/hl7:assignedEntity[not(@nullFlavor)]/hl7:representedOrganization/hl7:addr[not(@nullFlavor)]/hl7:country">
        <extends rule="ADXP"/>
        <assert role="error" see="http://art-decor.org/art-decor/decor-templates--elgaimpf-?id=1.2.40.0.34.6.0.11.9.10" test="(local-name-from-QName(resolve-QName(@xsi:type,.))='ADXP' and namespace-uri-from-QName(resolve-QName(@xsi:type,.))='urn:hl7-org:v3') or not(@xsi:type)">(atcdabbr_other_AddressCompilationMinimal): Wenn eine @xsi:type Instruktion anwesend ist MUSS diese den Wert "{urn:hl7-org:v3}:ADXP" haben. Gefunden "{<value-of select="namespace-uri-from-QName(resolve-QName(@xsi:type,.))"/>}:<value-of select="local-name-from-QName(resolve-QName(@xsi:type,.))"/>"</assert>
        <assert role="info" see="http://art-decor.org/art-decor/decor-templates--elgaimpf-?id=1.2.40.0.34.6.0.11.9.10" test="string-length(text()) = 3">(atcdabbr_other_AddressCompilationMinimal): content length = 3 characters</assert>
    </rule>

   <!--
Template derived rules for ID: 1.2.40.0.34.6.0.11.9.10
Context: *[hl7:templateId[@root = '1.2.40.0.34.6.0.11.9.21']]/hl7:assignedEntity[not(@nullFlavor)]/hl7:representedOrganization/hl7:addr[not(@nullFlavor)]/hl7:additionalLocator
Item: (atcdabbr_other_AddressCompilationMinimal)
-->
    <rule context="*[hl7:templateId[@root = '1.2.40.0.34.6.0.11.9.21']]/hl7:assignedEntity[not(@nullFlavor)]/hl7:representedOrganization/hl7:addr[not(@nullFlavor)]/hl7:additionalLocator">
        <extends rule="ADXP"/>
        <assert role="error" see="http://art-decor.org/art-decor/decor-templates--elgaimpf-?id=1.2.40.0.34.6.0.11.9.10" test="(local-name-from-QName(resolve-QName(@xsi:type,.))='ADXP' and namespace-uri-from-QName(resolve-QName(@xsi:type,.))='urn:hl7-org:v3') or not(@xsi:type)">(atcdabbr_other_AddressCompilationMinimal): Wenn eine @xsi:type Instruktion anwesend ist MUSS diese den Wert "{urn:hl7-org:v3}:ADXP" haben. Gefunden "{<value-of select="namespace-uri-from-QName(resolve-QName(@xsi:type,.))"/>}:<value-of select="local-name-from-QName(resolve-QName(@xsi:type,.))"/>"</assert>
    </rule>
</pattern>