<?xml version="1.0" encoding="UTF-8"?>
<!--
Template derived pattern
===========================================
ID: 1.2.40.0.34.6.0.11.9.28
Name: Performer Body - Laboratory
Description: 
-->
<pattern xmlns="http://purl.oclc.org/dsdl/schematron" id="template-1.2.40.0.34.6.0.11.9.28-2019-05-15T163536">
    <title>Performer Body - Laboratory</title>
   <!--
Template derived rules for ID: 1.2.40.0.34.6.0.11.9.28
Context: *[hl7:templateId[@root = '1.2.40.0.34.6.0.11.9.28'] and hl7:templateId[@root = '1.3.6.1.4.1.19376.1.3.3.1.7']]
Item: (atcdabbr_other_PerformerBodyLaboratory)
-->
    <rule context="*[hl7:templateId[@root = '1.2.40.0.34.6.0.11.9.28'] and hl7:templateId[@root = '1.3.6.1.4.1.19376.1.3.3.1.7']]" id="d245561e6919-false-d471347e0">
        <assert role="error" see="http://art-decor.org/art-decor/decor-templates--elgaimpf-?id=1.2.40.0.34.6.0.11.9.28" test="count(hl7:templateId[@root = '1.2.40.0.34.6.0.11.9.28']) &gt;= 1">(atcdabbr_other_PerformerBodyLaboratory): Element hl7:templateId[@root = '1.2.40.0.34.6.0.11.9.28'] ist mandatory [min 1x].</assert>
        <assert role="error" see="http://art-decor.org/art-decor/decor-templates--elgaimpf-?id=1.2.40.0.34.6.0.11.9.28" test="count(hl7:templateId[@root = '1.2.40.0.34.6.0.11.9.28']) &lt;= 1">(atcdabbr_other_PerformerBodyLaboratory): Element hl7:templateId[@root = '1.2.40.0.34.6.0.11.9.28'] kommt zu häufig vor [max 1x].</assert>
        <assert role="error" see="http://art-decor.org/art-decor/decor-templates--elgaimpf-?id=1.2.40.0.34.6.0.11.9.28" test="count(hl7:templateId[@root = '1.3.6.1.4.1.19376.1.3.3.1.7']) &gt;= 1">(atcdabbr_other_PerformerBodyLaboratory): Element hl7:templateId[@root = '1.3.6.1.4.1.19376.1.3.3.1.7'] ist mandatory [min 1x].</assert>
        <assert role="error" see="http://art-decor.org/art-decor/decor-templates--elgaimpf-?id=1.2.40.0.34.6.0.11.9.28" test="count(hl7:templateId[@root = '1.3.6.1.4.1.19376.1.3.3.1.7']) &lt;= 1">(atcdabbr_other_PerformerBodyLaboratory): Element hl7:templateId[@root = '1.3.6.1.4.1.19376.1.3.3.1.7'] kommt zu häufig vor [max 1x].</assert>
        <assert role="error" see="http://art-decor.org/art-decor/decor-templates--elgaimpf-?id=1.2.40.0.34.6.0.11.9.28" test="count(hl7:time[not(@nullFlavor)]) &gt;= 1">(atcdabbr_other_PerformerBodyLaboratory): Element hl7:time[not(@nullFlavor)] ist mandatory [min 1x].</assert>
        <assert role="error" see="http://art-decor.org/art-decor/decor-templates--elgaimpf-?id=1.2.40.0.34.6.0.11.9.28" test="count(hl7:time[not(@nullFlavor)]) &lt;= 1">(atcdabbr_other_PerformerBodyLaboratory): Element hl7:time[not(@nullFlavor)] kommt zu häufig vor [max 1x].</assert>
        <assert role="error" see="http://art-decor.org/art-decor/decor-templates--elgaimpf-?id=1.2.40.0.34.6.0.11.9.28" test="count(hl7:assignedEntity[not(@nullFlavor)]) &gt;= 1">(atcdabbr_other_PerformerBodyLaboratory): Element hl7:assignedEntity[not(@nullFlavor)] ist mandatory [min 1x].</assert>
        <assert role="error" see="http://art-decor.org/art-decor/decor-templates--elgaimpf-?id=1.2.40.0.34.6.0.11.9.28" test="count(hl7:assignedEntity[not(@nullFlavor)]) &lt;= 1">(atcdabbr_other_PerformerBodyLaboratory): Element hl7:assignedEntity[not(@nullFlavor)] kommt zu häufig vor [max 1x].</assert>
    </rule>
   <!--
Template derived rules for ID: 1.2.40.0.34.6.0.11.9.28
Context: *[hl7:templateId[@root = '1.2.40.0.34.6.0.11.9.28'] and hl7:templateId[@root = '1.3.6.1.4.1.19376.1.3.3.1.7']]/hl7:templateId[@root = '1.2.40.0.34.6.0.11.9.28']
Item: (atcdabbr_other_PerformerBodyLaboratory)
-->
    <rule context="*[hl7:templateId[@root = '1.2.40.0.34.6.0.11.9.28'] and hl7:templateId[@root = '1.3.6.1.4.1.19376.1.3.3.1.7']]/hl7:templateId[@root = '1.2.40.0.34.6.0.11.9.28']" id="d245561e6936-false-d471429e0">
        <extends rule="II"/>
        <assert role="error" see="http://art-decor.org/art-decor/decor-templates--elgaimpf-?id=1.2.40.0.34.6.0.11.9.28" test="(local-name-from-QName(resolve-QName(@xsi:type,.))='II' and namespace-uri-from-QName(resolve-QName(@xsi:type,.))='urn:hl7-org:v3') or not(@xsi:type)">(atcdabbr_other_PerformerBodyLaboratory): Wenn eine @xsi:type Instruktion anwesend ist MUSS diese den Wert "{urn:hl7-org:v3}:II" haben. Gefunden "{<value-of select="namespace-uri-from-QName(resolve-QName(@xsi:type,.))"/>}:<value-of select="local-name-from-QName(resolve-QName(@xsi:type,.))"/>"</assert>
        <assert role="error" see="http://art-decor.org/art-decor/decor-templates--elgaimpf-?id=1.2.40.0.34.6.0.11.9.28" test="string(@root) = ('1.2.40.0.34.6.0.11.9.28')">(atcdabbr_other_PerformerBodyLaboratory): Der Wert von root MUSS '1.2.40.0.34.6.0.11.9.28' sein. Gefunden: "<value-of select="@root"/>"</assert>
    </rule>
   <!--
Template derived rules for ID: 1.2.40.0.34.6.0.11.9.28
Context: *[hl7:templateId[@root = '1.2.40.0.34.6.0.11.9.28'] and hl7:templateId[@root = '1.3.6.1.4.1.19376.1.3.3.1.7']]/hl7:templateId[@root = '1.3.6.1.4.1.19376.1.3.3.1.7']
Item: (atcdabbr_other_PerformerBodyLaboratory)
-->
    <rule context="*[hl7:templateId[@root = '1.2.40.0.34.6.0.11.9.28'] and hl7:templateId[@root = '1.3.6.1.4.1.19376.1.3.3.1.7']]/hl7:templateId[@root = '1.3.6.1.4.1.19376.1.3.3.1.7']" id="d245561e6940-false-d471443e0">
        <extends rule="II"/>
        <assert role="error" see="http://art-decor.org/art-decor/decor-templates--elgaimpf-?id=1.2.40.0.34.6.0.11.9.28" test="(local-name-from-QName(resolve-QName(@xsi:type,.))='II' and namespace-uri-from-QName(resolve-QName(@xsi:type,.))='urn:hl7-org:v3') or not(@xsi:type)">(atcdabbr_other_PerformerBodyLaboratory): Wenn eine @xsi:type Instruktion anwesend ist MUSS diese den Wert "{urn:hl7-org:v3}:II" haben. Gefunden "{<value-of select="namespace-uri-from-QName(resolve-QName(@xsi:type,.))"/>}:<value-of select="local-name-from-QName(resolve-QName(@xsi:type,.))"/>"</assert>
        <assert role="error" see="http://art-decor.org/art-decor/decor-templates--elgaimpf-?id=1.2.40.0.34.6.0.11.9.28" test="string(@root) = ('1.3.6.1.4.1.19376.1.3.3.1.7')">(atcdabbr_other_PerformerBodyLaboratory): Der Wert von root MUSS '1.3.6.1.4.1.19376.1.3.3.1.7' sein. Gefunden: "<value-of select="@root"/>"</assert>
    </rule>
   <!--
Template derived rules for ID: 1.2.40.0.34.6.0.11.9.28
Context: *[hl7:templateId[@root = '1.2.40.0.34.6.0.11.9.28'] and hl7:templateId[@root = '1.3.6.1.4.1.19376.1.3.3.1.7']]/hl7:time[not(@nullFlavor)]
Item: (atcdabbr_other_PerformerBodyLaboratory)
-->
    <rule context="*[hl7:templateId[@root = '1.2.40.0.34.6.0.11.9.28'] and hl7:templateId[@root = '1.3.6.1.4.1.19376.1.3.3.1.7']]/hl7:time[not(@nullFlavor)]" id="d245561e6944-false-d471456e0">
        <extends rule="TS.AT.TZ"/>
        <assert role="error" see="http://art-decor.org/art-decor/decor-templates--elgaimpf-?id=1.2.40.0.34.6.0.11.9.28" test="(local-name-from-QName(resolve-QName(@xsi:type,.))='TS' and namespace-uri-from-QName(resolve-QName(@xsi:type,.))='urn:hl7-org:v3') or not(@xsi:type)">(atcdabbr_other_PerformerBodyLaboratory): Wenn eine @xsi:type Instruktion anwesend ist MUSS diese den Wert "{urn:hl7-org:v3}:TS" haben. Gefunden "{<value-of select="namespace-uri-from-QName(resolve-QName(@xsi:type,.))"/>}:<value-of select="local-name-from-QName(resolve-QName(@xsi:type,.))"/>"</assert>
        <assert role="error" see="http://art-decor.org/art-decor/decor-templates--elgaimpf-?id=1.2.40.0.34.6.0.11.9.28" test="not(*)">(atcdabbr_other_PerformerBodyLaboratory): <value-of select="local-name()"/> with datatype TS.AT.TZ, SHOULD NOT have child elements.</assert>
        <assert role="error" see="http://art-decor.org/art-decor/decor-templates--elgaimpf-?id=1.2.40.0.34.6.0.11.9.28" test="@value">(atcdabbr_other_PerformerBodyLaboratory): Attribut @value MUSS vorkommen.</assert>
        <assert role="error" see="http://art-decor.org/art-decor/decor-templates--elgaimpf-?id=1.2.40.0.34.6.0.11.9.28" test="not(@value) or matches(string(@value), '^[0-9]{4,14}')">(atcdabbr_other_PerformerBodyLaboratory): Attribute @value MUSS vom Datentyp 'ts' sein  - '<value-of select="@value"/>'</assert>
    </rule>
   <!--
Template derived rules for ID: 1.2.40.0.34.6.0.11.9.28
Context: *[hl7:templateId[@root = '1.2.40.0.34.6.0.11.9.28'] and hl7:templateId[@root = '1.3.6.1.4.1.19376.1.3.3.1.7']]/hl7:assignedEntity[not(@nullFlavor)]
Item: (atcdabbr_other_PerformerBodyLaboratory)
-->
    <rule context="*[hl7:templateId[@root = '1.2.40.0.34.6.0.11.9.28'] and hl7:templateId[@root = '1.3.6.1.4.1.19376.1.3.3.1.7']]/hl7:assignedEntity[not(@nullFlavor)]" id="d245561e6949-false-d471515e0">
        <assert role="error" see="http://art-decor.org/art-decor/decor-templates--elgaimpf-?id=1.2.40.0.34.6.0.11.9.28" test="string(@classCode) = ('ASSIGNED') or not(@classCode)">(atcdabbr_other_PerformerBodyLaboratory): Der Wert von classCode MUSS 'ASSIGNED' sein. Gefunden: "<value-of select="@classCode"/>"</assert>
        <let name="elmcount" value="count(hl7:id[not(@nullFlavor)] | hl7:id[@nullFlavor='NI'] | hl7:id[@nullFlavor='UNK'])"/>
        <assert role="error" see="http://art-decor.org/art-decor/decor-templates--elgaimpf-?id=1.2.40.0.34.6.0.11.9.28" test="$elmcount &lt;= 1">(atcdabbr_other_PerformerBodyLaboratory): Auswahl (hl7:id[not(@nullFlavor)]  oder  hl7:id[@nullFlavor='NI']  oder  hl7:id[@nullFlavor='UNK']) enthält zu viele Elemente [max 1x]</assert>
        <assert role="error" see="http://art-decor.org/art-decor/decor-templates--elgaimpf-?id=1.2.40.0.34.6.0.11.9.28" test="count(hl7:id[not(@nullFlavor)]) &lt;= 1">(atcdabbr_other_PerformerBodyLaboratory): Element hl7:id[not(@nullFlavor)] kommt zu häufig vor [max 1x].</assert>
        <assert role="error" see="http://art-decor.org/art-decor/decor-templates--elgaimpf-?id=1.2.40.0.34.6.0.11.9.28" test="count(hl7:id[@nullFlavor='NI']) &lt;= 1">(atcdabbr_other_PerformerBodyLaboratory): Element hl7:id[@nullFlavor='NI'] kommt zu häufig vor [max 1x].</assert>
        <assert role="error" see="http://art-decor.org/art-decor/decor-templates--elgaimpf-?id=1.2.40.0.34.6.0.11.9.28" test="count(hl7:id[@nullFlavor='UNK']) &lt;= 1">(atcdabbr_other_PerformerBodyLaboratory): Element hl7:id[@nullFlavor='UNK'] kommt zu häufig vor [max 1x].</assert>
        <let name="elmcount" value="count(hl7:code[not(@nullFlavor)] | hl7:code[@nullFlavor='UNK'])"/>
        <assert role="error" see="http://art-decor.org/art-decor/decor-templates--elgaimpf-?id=1.2.40.0.34.6.0.11.9.28" test="$elmcount &lt;= 1">(atcdabbr_other_PerformerBodyLaboratory): Auswahl (hl7:code[not(@nullFlavor)]  oder  hl7:code[@nullFlavor='UNK']) enthält zu viele Elemente [max 1x]</assert>
        <assert role="error" see="http://art-decor.org/art-decor/decor-templates--elgaimpf-?id=1.2.40.0.34.6.0.11.9.28" test="count(hl7:code[not(@nullFlavor)]) &lt;= 1">(atcdabbr_other_PerformerBodyLaboratory): Element hl7:code[not(@nullFlavor)] kommt zu häufig vor [max 1x].</assert>
        <assert role="error" see="http://art-decor.org/art-decor/decor-templates--elgaimpf-?id=1.2.40.0.34.6.0.11.9.28" test="count(hl7:code[@nullFlavor='UNK']) &lt;= 1">(atcdabbr_other_PerformerBodyLaboratory): Element hl7:code[@nullFlavor='UNK'] kommt zu häufig vor [max 1x].</assert>
        <let name="elmcount" value="count(hl7:addr[not(@nullFlavor)] | hl7:addr[@nullFlavor='UNK'])"/>
        <assert role="error" see="http://art-decor.org/art-decor/decor-templates--elgaimpf-?id=1.2.40.0.34.6.0.11.9.28" test="$elmcount &gt;= 1">(atcdabbr_other_PerformerBodyLaboratory): Auswahl (hl7:addr[not(@nullFlavor)]  oder  hl7:addr[@nullFlavor='UNK']) enthält nicht genügend Elemente [min 1x]</assert>
        <assert role="error" see="http://art-decor.org/art-decor/decor-templates--elgaimpf-?id=1.2.40.0.34.6.0.11.9.28" test="count(hl7:addr[@nullFlavor='UNK']) &lt;= 1">(atcdabbr_other_PerformerBodyLaboratory): Element hl7:addr[@nullFlavor='UNK'] kommt zu häufig vor [max 1x].</assert>
        <assert role="error" see="http://art-decor.org/art-decor/decor-templates--elgaimpf-?id=1.2.40.0.34.6.0.11.9.28" test="count(hl7:telecom) &gt;= 1">(atcdabbr_other_PerformerBodyLaboratory): Element hl7:telecom ist required [min 1x].</assert>
        <let name="elmcount" value="count(hl7:assignedPerson | hl7:assignedPerson)"/>
        <assert role="error" see="http://art-decor.org/art-decor/decor-templates--elgaimpf-?id=1.2.40.0.34.6.0.11.9.28" test="$elmcount &lt;= 1">(atcdabbr_other_PerformerBodyLaboratory): Auswahl (hl7:assignedPerson  oder  hl7:assignedPerson) enthält zu viele Elemente [max 1x]</assert>
        <assert role="error" see="http://art-decor.org/art-decor/decor-templates--elgaimpf-?id=1.2.40.0.34.6.0.11.9.28" test="count(hl7:assignedPerson) &lt;= 1">(atcdabbr_other_PerformerBodyLaboratory): Element hl7:assignedPerson kommt zu häufig vor [max 1x].</assert>
        <assert role="error" see="http://art-decor.org/art-decor/decor-templates--elgaimpf-?id=1.2.40.0.34.6.0.11.9.28" test="count(hl7:assignedPerson) &lt;= 1">(atcdabbr_other_PerformerBodyLaboratory): Element hl7:assignedPerson kommt zu häufig vor [max 1x].</assert>
        <assert role="error" see="http://art-decor.org/art-decor/decor-templates--elgaimpf-?id=1.2.40.0.34.6.0.11.9.28" test="count(hl7:representedOrganization) &lt;= 1">(atcdabbr_other_PerformerBodyLaboratory): Element hl7:representedOrganization kommt zu häufig vor [max 1x].</assert>
        <assert role="error" see="http://art-decor.org/art-decor/decor-templates--elgaimpf-?id=1.2.40.0.34.6.0.11.9.28" test="count(hl7:telecom)&lt;2 or (count(hl7:telecom) = count(hl7:telecom[@use]))">(atcdabbr_other_PerformerBodyLaboratory): Das Attribut telecom/@use MUSS bei allen telecom Elementen strukturiert sein.</assert>
    </rule>
   <!--
Template derived rules for ID: 1.2.40.0.34.6.0.11.9.29
Context: *[hl7:templateId[@root = '1.2.40.0.34.6.0.11.9.28'] and hl7:templateId[@root = '1.3.6.1.4.1.19376.1.3.3.1.7']]/hl7:assignedEntity[not(@nullFlavor)]
Item: ( atcdabbr_other_AssignedEntityBodyWithNameAddrAndTelecom)
-->

<!--
Template derived rules for ID: 1.2.40.0.34.6.0.11.9.29
Context: *[hl7:templateId[@root = '1.2.40.0.34.6.0.11.9.28'] and hl7:templateId[@root = '1.3.6.1.4.1.19376.1.3.3.1.7']]/hl7:assignedEntity[not(@nullFlavor)]/hl7:id[not(@nullFlavor)]
Item: ( atcdabbr_other_AssignedEntityBodyWithNameAddrAndTelecom)
-->
    <rule context="*[hl7:templateId[@root = '1.2.40.0.34.6.0.11.9.28'] and hl7:templateId[@root = '1.3.6.1.4.1.19376.1.3.3.1.7']]/hl7:assignedEntity[not(@nullFlavor)]/hl7:id[not(@nullFlavor)]" id="d471522e77-false-d471633e0">
        <extends rule="II"/>
        <assert role="error" see="http://art-decor.org/art-decor/decor-templates--elgaimpf-?id=1.2.40.0.34.6.0.11.9.29" test="(local-name-from-QName(resolve-QName(@xsi:type,.))='II' and namespace-uri-from-QName(resolve-QName(@xsi:type,.))='urn:hl7-org:v3') or not(@xsi:type)">( atcdabbr_other_AssignedEntityBodyWithNameAddrAndTelecom): Wenn eine @xsi:type Instruktion anwesend ist MUSS diese den Wert "{urn:hl7-org:v3}:II" haben. Gefunden "{<value-of select="namespace-uri-from-QName(resolve-QName(@xsi:type,.))"/>}:<value-of select="local-name-from-QName(resolve-QName(@xsi:type,.))"/>"</assert>
    </rule>
   <!--
Template derived rules for ID: 1.2.40.0.34.6.0.11.9.29
Context: *[hl7:templateId[@root = '1.2.40.0.34.6.0.11.9.28'] and hl7:templateId[@root = '1.3.6.1.4.1.19376.1.3.3.1.7']]/hl7:assignedEntity[not(@nullFlavor)]/hl7:id[@nullFlavor='NI']
Item: ( atcdabbr_other_AssignedEntityBodyWithNameAddrAndTelecom)
-->
    <rule context="*[hl7:templateId[@root = '1.2.40.0.34.6.0.11.9.28'] and hl7:templateId[@root = '1.3.6.1.4.1.19376.1.3.3.1.7']]/hl7:assignedEntity[not(@nullFlavor)]/hl7:id[@nullFlavor='NI']" id="d471522e89-false-d471640e0">
        <extends rule="II"/>
        <assert role="error" see="http://art-decor.org/art-decor/decor-templates--elgaimpf-?id=1.2.40.0.34.6.0.11.9.29" test="(local-name-from-QName(resolve-QName(@xsi:type,.))='II' and namespace-uri-from-QName(resolve-QName(@xsi:type,.))='urn:hl7-org:v3') or not(@xsi:type)">( atcdabbr_other_AssignedEntityBodyWithNameAddrAndTelecom): Wenn eine @xsi:type Instruktion anwesend ist MUSS diese den Wert "{urn:hl7-org:v3}:II" haben. Gefunden "{<value-of select="namespace-uri-from-QName(resolve-QName(@xsi:type,.))"/>}:<value-of select="local-name-from-QName(resolve-QName(@xsi:type,.))"/>"</assert>
        <assert role="error" see="http://art-decor.org/art-decor/decor-templates--elgaimpf-?id=1.2.40.0.34.6.0.11.9.29" test="string(@nullFlavor) = ('NI')">( atcdabbr_other_AssignedEntityBodyWithNameAddrAndTelecom): Der Wert von nullFlavor MUSS 'NI' sein. Gefunden: "<value-of select="@nullFlavor"/>"</assert>
    </rule>
   <!--
Template derived rules for ID: 1.2.40.0.34.6.0.11.9.29
Context: *[hl7:templateId[@root = '1.2.40.0.34.6.0.11.9.28'] and hl7:templateId[@root = '1.3.6.1.4.1.19376.1.3.3.1.7']]/hl7:assignedEntity[not(@nullFlavor)]/hl7:id[@nullFlavor='UNK']
Item: ( atcdabbr_other_AssignedEntityBodyWithNameAddrAndTelecom)
-->
    <rule context="*[hl7:templateId[@root = '1.2.40.0.34.6.0.11.9.28'] and hl7:templateId[@root = '1.3.6.1.4.1.19376.1.3.3.1.7']]/hl7:assignedEntity[not(@nullFlavor)]/hl7:id[@nullFlavor='UNK']" id="d471522e91-false-d471651e0">
        <extends rule="II"/>
        <assert role="error" see="http://art-decor.org/art-decor/decor-templates--elgaimpf-?id=1.2.40.0.34.6.0.11.9.29" test="(local-name-from-QName(resolve-QName(@xsi:type,.))='II' and namespace-uri-from-QName(resolve-QName(@xsi:type,.))='urn:hl7-org:v3') or not(@xsi:type)">( atcdabbr_other_AssignedEntityBodyWithNameAddrAndTelecom): Wenn eine @xsi:type Instruktion anwesend ist MUSS diese den Wert "{urn:hl7-org:v3}:II" haben. Gefunden "{<value-of select="namespace-uri-from-QName(resolve-QName(@xsi:type,.))"/>}:<value-of select="local-name-from-QName(resolve-QName(@xsi:type,.))"/>"</assert>
        <assert role="error" see="http://art-decor.org/art-decor/decor-templates--elgaimpf-?id=1.2.40.0.34.6.0.11.9.29" test="string(@nullFlavor) = ('UNK')">( atcdabbr_other_AssignedEntityBodyWithNameAddrAndTelecom): Der Wert von nullFlavor MUSS 'UNK' sein. Gefunden: "<value-of select="@nullFlavor"/>"</assert>
    </rule>
   <!--
Template derived rules for ID: 1.2.40.0.34.6.0.11.9.29
Context: *[hl7:templateId[@root = '1.2.40.0.34.6.0.11.9.28'] and hl7:templateId[@root = '1.3.6.1.4.1.19376.1.3.3.1.7']]/hl7:assignedEntity[not(@nullFlavor)]
Item: ( atcdabbr_other_AssignedEntityBodyWithNameAddrAndTelecom)
-->

<!--
Template derived rules for ID: 1.2.40.0.34.6.0.11.9.29
Context: *[hl7:templateId[@root = '1.2.40.0.34.6.0.11.9.28'] and hl7:templateId[@root = '1.3.6.1.4.1.19376.1.3.3.1.7']]/hl7:assignedEntity[not(@nullFlavor)]/hl7:code[not(@nullFlavor)]
Item: ( atcdabbr_other_AssignedEntityBodyWithNameAddrAndTelecom)
-->
    <rule context="*[hl7:templateId[@root = '1.2.40.0.34.6.0.11.9.28'] and hl7:templateId[@root = '1.3.6.1.4.1.19376.1.3.3.1.7']]/hl7:assignedEntity[not(@nullFlavor)]/hl7:code[not(@nullFlavor)]" id="d471522e99-false-d471663e0">
        <extends rule="CE"/>
        <assert role="error" see="http://art-decor.org/art-decor/decor-templates--elgaimpf-?id=1.2.40.0.34.6.0.11.9.29" test="(local-name-from-QName(resolve-QName(@xsi:type,.))='CE' and namespace-uri-from-QName(resolve-QName(@xsi:type,.))='urn:hl7-org:v3') or not(@xsi:type)">( atcdabbr_other_AssignedEntityBodyWithNameAddrAndTelecom): Wenn eine @xsi:type Instruktion anwesend ist MUSS diese den Wert "{urn:hl7-org:v3}:CE" haben. Gefunden "{<value-of select="namespace-uri-from-QName(resolve-QName(@xsi:type,.))"/>}:<value-of select="local-name-from-QName(resolve-QName(@xsi:type,.))"/>"</assert>
    </rule>
   <!--
Template derived rules for ID: 1.2.40.0.34.6.0.11.9.29
Context: *[hl7:templateId[@root = '1.2.40.0.34.6.0.11.9.28'] and hl7:templateId[@root = '1.3.6.1.4.1.19376.1.3.3.1.7']]/hl7:assignedEntity[not(@nullFlavor)]/hl7:code[@nullFlavor='UNK']
Item: ( atcdabbr_other_AssignedEntityBodyWithNameAddrAndTelecom)
-->
    <rule context="*[hl7:templateId[@root = '1.2.40.0.34.6.0.11.9.28'] and hl7:templateId[@root = '1.3.6.1.4.1.19376.1.3.3.1.7']]/hl7:assignedEntity[not(@nullFlavor)]/hl7:code[@nullFlavor='UNK']" id="d471522e100-false-d471670e0">
        <extends rule="CE"/>
        <assert role="error" see="http://art-decor.org/art-decor/decor-templates--elgaimpf-?id=1.2.40.0.34.6.0.11.9.29" test="(local-name-from-QName(resolve-QName(@xsi:type,.))='CE' and namespace-uri-from-QName(resolve-QName(@xsi:type,.))='urn:hl7-org:v3') or not(@xsi:type)">( atcdabbr_other_AssignedEntityBodyWithNameAddrAndTelecom): Wenn eine @xsi:type Instruktion anwesend ist MUSS diese den Wert "{urn:hl7-org:v3}:CE" haben. Gefunden "{<value-of select="namespace-uri-from-QName(resolve-QName(@xsi:type,.))"/>}:<value-of select="local-name-from-QName(resolve-QName(@xsi:type,.))"/>"</assert>
        <assert role="error" see="http://art-decor.org/art-decor/decor-templates--elgaimpf-?id=1.2.40.0.34.6.0.11.9.29" test="string(@nullFlavor) = ('UNK')">( atcdabbr_other_AssignedEntityBodyWithNameAddrAndTelecom): Der Wert von nullFlavor MUSS 'UNK' sein. Gefunden: "<value-of select="@nullFlavor"/>"</assert>
    </rule>
   <!--
Template derived rules for ID: 1.2.40.0.34.6.0.11.9.29
Context: *[hl7:templateId[@root = '1.2.40.0.34.6.0.11.9.28'] and hl7:templateId[@root = '1.3.6.1.4.1.19376.1.3.3.1.7']]/hl7:assignedEntity[not(@nullFlavor)]
Item: ( atcdabbr_other_AssignedEntityBodyWithNameAddrAndTelecom)
-->


<!--
Template derived rules for ID: 1.2.40.0.34.6.0.11.9.29
Context: *[hl7:templateId[@root = '1.2.40.0.34.6.0.11.9.28'] and hl7:templateId[@root = '1.3.6.1.4.1.19376.1.3.3.1.7']]/hl7:assignedEntity[not(@nullFlavor)]/hl7:addr[not(@nullFlavor)]
Item: ( atcdabbr_other_AssignedEntityBodyWithNameAddrAndTelecom)
-->

<!--
Template derived rules for ID: 1.2.40.0.34.6.0.11.9.10
Context: *[hl7:templateId[@root = '1.2.40.0.34.6.0.11.9.28'] and hl7:templateId[@root = '1.3.6.1.4.1.19376.1.3.3.1.7']]/hl7:assignedEntity[not(@nullFlavor)]/hl7:addr[not(@nullFlavor)]
Item: (atcdabbr_other_AddressCompilationMinimal)
-->
    <rule context="*[hl7:templateId[@root = '1.2.40.0.34.6.0.11.9.28'] and hl7:templateId[@root = '1.3.6.1.4.1.19376.1.3.3.1.7']]/hl7:assignedEntity[not(@nullFlavor)]/hl7:addr[not(@nullFlavor)]">
        <assert role="error" see="http://art-decor.org/art-decor/decor-templates--elgaimpf-?id=1.2.40.0.34.6.0.11.9.10" test="not(@use) or (string-length(@use) &gt; 0 and not(matches(@use,'\s')))">(atcdabbr_other_AddressCompilationMinimal): Attribute @use MUSS vom Datentyp 'cs' sein  - '<value-of select="@use"/>'</assert>
        <assert role="error" see="http://art-decor.org/art-decor/decor-templates--elgaimpf-?id=1.2.40.0.34.6.0.11.9.10" test="not(hl7:streetAddressLine and (hl7:streetName or hl7:houseNumber)) or ((hl7:streetAddressLine or (hl7:streetName and hl7:houseNumber)) and not((hl7:streetAddressLine and hl7:streetName and hl7:houseNumber) or (hl7:streetAddressLine and (hl7:streetName or hl7:houseNumber))))">(atcdabbr_other_AddressCompilationMinimal): Es muss entweder streetAddressLine oder streetName UND houseNumber angegeben werden.</assert>
        <assert role="error" see="http://art-decor.org/art-decor/decor-templates--elgaimpf-?id=1.2.40.0.34.6.0.11.9.10" test="count(hl7:streetAddressLine) &lt;= 1">(atcdabbr_other_AddressCompilationMinimal): Element hl7:streetAddressLine kommt zu häufig vor [max 1x].</assert>
        <assert role="error" see="http://art-decor.org/art-decor/decor-templates--elgaimpf-?id=1.2.40.0.34.6.0.11.9.10" test="count(hl7:streetName) &lt;= 1">(atcdabbr_other_AddressCompilationMinimal): Element hl7:streetName kommt zu häufig vor [max 1x].</assert>
        <assert role="error" see="http://art-decor.org/art-decor/decor-templates--elgaimpf-?id=1.2.40.0.34.6.0.11.9.10" test="count(hl7:houseNumber) &lt;= 1">(atcdabbr_other_AddressCompilationMinimal): Element hl7:houseNumber kommt zu häufig vor [max 1x].</assert>
        <assert role="error" see="http://art-decor.org/art-decor/decor-templates--elgaimpf-?id=1.2.40.0.34.6.0.11.9.10" test="count(hl7:postalCode) &lt;= 1">(atcdabbr_other_AddressCompilationMinimal): Element hl7:postalCode kommt zu häufig vor [max 1x].</assert>
        <assert role="error" see="http://art-decor.org/art-decor/decor-templates--elgaimpf-?id=1.2.40.0.34.6.0.11.9.10" test="count(hl7:city) &lt;= 1">(atcdabbr_other_AddressCompilationMinimal): Element hl7:city kommt zu häufig vor [max 1x].</assert>
        <assert role="error" see="http://art-decor.org/art-decor/decor-templates--elgaimpf-?id=1.2.40.0.34.6.0.11.9.10" test="count(hl7:state) &lt;= 1">(atcdabbr_other_AddressCompilationMinimal): Element hl7:state kommt zu häufig vor [max 1x].</assert>
        <assert role="error" see="http://art-decor.org/art-decor/decor-templates--elgaimpf-?id=1.2.40.0.34.6.0.11.9.10" test="count(hl7:country) &lt;= 1">(atcdabbr_other_AddressCompilationMinimal): Element hl7:country kommt zu häufig vor [max 1x].</assert>
        <assert role="error" see="http://art-decor.org/art-decor/decor-templates--elgaimpf-?id=1.2.40.0.34.6.0.11.9.10" test="count(hl7:additionalLocator) &lt;= 1">(atcdabbr_other_AddressCompilationMinimal): Element hl7:additionalLocator kommt zu häufig vor [max 1x].</assert>
    </rule>

   <!--
Template derived rules for ID: 1.2.40.0.34.6.0.11.9.10
Context: *[hl7:templateId[@root = '1.2.40.0.34.6.0.11.9.28'] and hl7:templateId[@root = '1.3.6.1.4.1.19376.1.3.3.1.7']]/hl7:assignedEntity[not(@nullFlavor)]/hl7:addr[not(@nullFlavor)]/hl7:streetAddressLine
Item: (atcdabbr_other_AddressCompilationMinimal)
-->
    <rule context="*[hl7:templateId[@root = '1.2.40.0.34.6.0.11.9.28'] and hl7:templateId[@root = '1.3.6.1.4.1.19376.1.3.3.1.7']]/hl7:assignedEntity[not(@nullFlavor)]/hl7:addr[not(@nullFlavor)]/hl7:streetAddressLine">
        <extends rule="ADXP"/>
        <assert role="error" see="http://art-decor.org/art-decor/decor-templates--elgaimpf-?id=1.2.40.0.34.6.0.11.9.10" test="(local-name-from-QName(resolve-QName(@xsi:type,.))='ADXP' and namespace-uri-from-QName(resolve-QName(@xsi:type,.))='urn:hl7-org:v3') or not(@xsi:type)">(atcdabbr_other_AddressCompilationMinimal): Wenn eine @xsi:type Instruktion anwesend ist MUSS diese den Wert "{urn:hl7-org:v3}:ADXP" haben. Gefunden "{<value-of select="namespace-uri-from-QName(resolve-QName(@xsi:type,.))"/>}:<value-of select="local-name-from-QName(resolve-QName(@xsi:type,.))"/>"</assert>
    </rule>

   <!--
Template derived rules for ID: 1.2.40.0.34.6.0.11.9.10
Context: *[hl7:templateId[@root = '1.2.40.0.34.6.0.11.9.28'] and hl7:templateId[@root = '1.3.6.1.4.1.19376.1.3.3.1.7']]/hl7:assignedEntity[not(@nullFlavor)]/hl7:addr[not(@nullFlavor)]/hl7:streetName
Item: (atcdabbr_other_AddressCompilationMinimal)
-->
    <rule context="*[hl7:templateId[@root = '1.2.40.0.34.6.0.11.9.28'] and hl7:templateId[@root = '1.3.6.1.4.1.19376.1.3.3.1.7']]/hl7:assignedEntity[not(@nullFlavor)]/hl7:addr[not(@nullFlavor)]/hl7:streetName">
        <extends rule="ADXP"/>
        <assert role="error" see="http://art-decor.org/art-decor/decor-templates--elgaimpf-?id=1.2.40.0.34.6.0.11.9.10" test="(local-name-from-QName(resolve-QName(@xsi:type,.))='ADXP' and namespace-uri-from-QName(resolve-QName(@xsi:type,.))='urn:hl7-org:v3') or not(@xsi:type)">(atcdabbr_other_AddressCompilationMinimal): Wenn eine @xsi:type Instruktion anwesend ist MUSS diese den Wert "{urn:hl7-org:v3}:ADXP" haben. Gefunden "{<value-of select="namespace-uri-from-QName(resolve-QName(@xsi:type,.))"/>}:<value-of select="local-name-from-QName(resolve-QName(@xsi:type,.))"/>"</assert>
    </rule>

   <!--
Template derived rules for ID: 1.2.40.0.34.6.0.11.9.10
Context: *[hl7:templateId[@root = '1.2.40.0.34.6.0.11.9.28'] and hl7:templateId[@root = '1.3.6.1.4.1.19376.1.3.3.1.7']]/hl7:assignedEntity[not(@nullFlavor)]/hl7:addr[not(@nullFlavor)]/hl7:houseNumber
Item: (atcdabbr_other_AddressCompilationMinimal)
-->
    <rule context="*[hl7:templateId[@root = '1.2.40.0.34.6.0.11.9.28'] and hl7:templateId[@root = '1.3.6.1.4.1.19376.1.3.3.1.7']]/hl7:assignedEntity[not(@nullFlavor)]/hl7:addr[not(@nullFlavor)]/hl7:houseNumber">
        <extends rule="ADXP"/>
        <assert role="error" see="http://art-decor.org/art-decor/decor-templates--elgaimpf-?id=1.2.40.0.34.6.0.11.9.10" test="(local-name-from-QName(resolve-QName(@xsi:type,.))='ADXP' and namespace-uri-from-QName(resolve-QName(@xsi:type,.))='urn:hl7-org:v3') or not(@xsi:type)">(atcdabbr_other_AddressCompilationMinimal): Wenn eine @xsi:type Instruktion anwesend ist MUSS diese den Wert "{urn:hl7-org:v3}:ADXP" haben. Gefunden "{<value-of select="namespace-uri-from-QName(resolve-QName(@xsi:type,.))"/>}:<value-of select="local-name-from-QName(resolve-QName(@xsi:type,.))"/>"</assert>
    </rule>

   <!--
Template derived rules for ID: 1.2.40.0.34.6.0.11.9.10
Context: *[hl7:templateId[@root = '1.2.40.0.34.6.0.11.9.28'] and hl7:templateId[@root = '1.3.6.1.4.1.19376.1.3.3.1.7']]/hl7:assignedEntity[not(@nullFlavor)]/hl7:addr[not(@nullFlavor)]/hl7:postalCode
Item: (atcdabbr_other_AddressCompilationMinimal)
-->
    <rule context="*[hl7:templateId[@root = '1.2.40.0.34.6.0.11.9.28'] and hl7:templateId[@root = '1.3.6.1.4.1.19376.1.3.3.1.7']]/hl7:assignedEntity[not(@nullFlavor)]/hl7:addr[not(@nullFlavor)]/hl7:postalCode">
        <extends rule="ADXP"/>
        <assert role="error" see="http://art-decor.org/art-decor/decor-templates--elgaimpf-?id=1.2.40.0.34.6.0.11.9.10" test="(local-name-from-QName(resolve-QName(@xsi:type,.))='ADXP' and namespace-uri-from-QName(resolve-QName(@xsi:type,.))='urn:hl7-org:v3') or not(@xsi:type)">(atcdabbr_other_AddressCompilationMinimal): Wenn eine @xsi:type Instruktion anwesend ist MUSS diese den Wert "{urn:hl7-org:v3}:ADXP" haben. Gefunden "{<value-of select="namespace-uri-from-QName(resolve-QName(@xsi:type,.))"/>}:<value-of select="local-name-from-QName(resolve-QName(@xsi:type,.))"/>"</assert>
    </rule>

   <!--
Template derived rules for ID: 1.2.40.0.34.6.0.11.9.10
Context: *[hl7:templateId[@root = '1.2.40.0.34.6.0.11.9.28'] and hl7:templateId[@root = '1.3.6.1.4.1.19376.1.3.3.1.7']]/hl7:assignedEntity[not(@nullFlavor)]/hl7:addr[not(@nullFlavor)]/hl7:city
Item: (atcdabbr_other_AddressCompilationMinimal)
-->
    <rule context="*[hl7:templateId[@root = '1.2.40.0.34.6.0.11.9.28'] and hl7:templateId[@root = '1.3.6.1.4.1.19376.1.3.3.1.7']]/hl7:assignedEntity[not(@nullFlavor)]/hl7:addr[not(@nullFlavor)]/hl7:city">
        <extends rule="ADXP"/>
        <assert role="error" see="http://art-decor.org/art-decor/decor-templates--elgaimpf-?id=1.2.40.0.34.6.0.11.9.10" test="(local-name-from-QName(resolve-QName(@xsi:type,.))='ADXP' and namespace-uri-from-QName(resolve-QName(@xsi:type,.))='urn:hl7-org:v3') or not(@xsi:type)">(atcdabbr_other_AddressCompilationMinimal): Wenn eine @xsi:type Instruktion anwesend ist MUSS diese den Wert "{urn:hl7-org:v3}:ADXP" haben. Gefunden "{<value-of select="namespace-uri-from-QName(resolve-QName(@xsi:type,.))"/>}:<value-of select="local-name-from-QName(resolve-QName(@xsi:type,.))"/>"</assert>
    </rule>

   <!--
Template derived rules for ID: 1.2.40.0.34.6.0.11.9.10
Context: *[hl7:templateId[@root = '1.2.40.0.34.6.0.11.9.28'] and hl7:templateId[@root = '1.3.6.1.4.1.19376.1.3.3.1.7']]/hl7:assignedEntity[not(@nullFlavor)]/hl7:addr[not(@nullFlavor)]/hl7:state
Item: (atcdabbr_other_AddressCompilationMinimal)
-->
    <rule context="*[hl7:templateId[@root = '1.2.40.0.34.6.0.11.9.28'] and hl7:templateId[@root = '1.3.6.1.4.1.19376.1.3.3.1.7']]/hl7:assignedEntity[not(@nullFlavor)]/hl7:addr[not(@nullFlavor)]/hl7:state">
        <extends rule="ADXP"/>
        <assert role="error" see="http://art-decor.org/art-decor/decor-templates--elgaimpf-?id=1.2.40.0.34.6.0.11.9.10" test="(local-name-from-QName(resolve-QName(@xsi:type,.))='ADXP' and namespace-uri-from-QName(resolve-QName(@xsi:type,.))='urn:hl7-org:v3') or not(@xsi:type)">(atcdabbr_other_AddressCompilationMinimal): Wenn eine @xsi:type Instruktion anwesend ist MUSS diese den Wert "{urn:hl7-org:v3}:ADXP" haben. Gefunden "{<value-of select="namespace-uri-from-QName(resolve-QName(@xsi:type,.))"/>}:<value-of select="local-name-from-QName(resolve-QName(@xsi:type,.))"/>"</assert>
    </rule>

   <!--
Template derived rules for ID: 1.2.40.0.34.6.0.11.9.10
Context: *[hl7:templateId[@root = '1.2.40.0.34.6.0.11.9.28'] and hl7:templateId[@root = '1.3.6.1.4.1.19376.1.3.3.1.7']]/hl7:assignedEntity[not(@nullFlavor)]/hl7:addr[not(@nullFlavor)]/hl7:country
Item: (atcdabbr_other_AddressCompilationMinimal)
-->
    <rule context="*[hl7:templateId[@root = '1.2.40.0.34.6.0.11.9.28'] and hl7:templateId[@root = '1.3.6.1.4.1.19376.1.3.3.1.7']]/hl7:assignedEntity[not(@nullFlavor)]/hl7:addr[not(@nullFlavor)]/hl7:country">
        <extends rule="ADXP"/>
        <assert role="error" see="http://art-decor.org/art-decor/decor-templates--elgaimpf-?id=1.2.40.0.34.6.0.11.9.10" test="(local-name-from-QName(resolve-QName(@xsi:type,.))='ADXP' and namespace-uri-from-QName(resolve-QName(@xsi:type,.))='urn:hl7-org:v3') or not(@xsi:type)">(atcdabbr_other_AddressCompilationMinimal): Wenn eine @xsi:type Instruktion anwesend ist MUSS diese den Wert "{urn:hl7-org:v3}:ADXP" haben. Gefunden "{<value-of select="namespace-uri-from-QName(resolve-QName(@xsi:type,.))"/>}:<value-of select="local-name-from-QName(resolve-QName(@xsi:type,.))"/>"</assert>
        <assert role="info" see="http://art-decor.org/art-decor/decor-templates--elgaimpf-?id=1.2.40.0.34.6.0.11.9.10" test="string-length(text()) = 3">(atcdabbr_other_AddressCompilationMinimal): content length = 3 characters</assert>
    </rule>

   <!--
Template derived rules for ID: 1.2.40.0.34.6.0.11.9.10
Context: *[hl7:templateId[@root = '1.2.40.0.34.6.0.11.9.28'] and hl7:templateId[@root = '1.3.6.1.4.1.19376.1.3.3.1.7']]/hl7:assignedEntity[not(@nullFlavor)]/hl7:addr[not(@nullFlavor)]/hl7:additionalLocator
Item: (atcdabbr_other_AddressCompilationMinimal)
-->
    <rule context="*[hl7:templateId[@root = '1.2.40.0.34.6.0.11.9.28'] and hl7:templateId[@root = '1.3.6.1.4.1.19376.1.3.3.1.7']]/hl7:assignedEntity[not(@nullFlavor)]/hl7:addr[not(@nullFlavor)]/hl7:additionalLocator">
        <extends rule="ADXP"/>
        <assert role="error" see="http://art-decor.org/art-decor/decor-templates--elgaimpf-?id=1.2.40.0.34.6.0.11.9.10" test="(local-name-from-QName(resolve-QName(@xsi:type,.))='ADXP' and namespace-uri-from-QName(resolve-QName(@xsi:type,.))='urn:hl7-org:v3') or not(@xsi:type)">(atcdabbr_other_AddressCompilationMinimal): Wenn eine @xsi:type Instruktion anwesend ist MUSS diese den Wert "{urn:hl7-org:v3}:ADXP" haben. Gefunden "{<value-of select="namespace-uri-from-QName(resolve-QName(@xsi:type,.))"/>}:<value-of select="local-name-from-QName(resolve-QName(@xsi:type,.))"/>"</assert>
    </rule>
   <!--
Template derived rules for ID: 1.2.40.0.34.6.0.11.9.29
Context: *[hl7:templateId[@root = '1.2.40.0.34.6.0.11.9.28'] and hl7:templateId[@root = '1.3.6.1.4.1.19376.1.3.3.1.7']]/hl7:assignedEntity[not(@nullFlavor)]/hl7:addr[@nullFlavor='UNK']
Item: ( atcdabbr_other_AssignedEntityBodyWithNameAddrAndTelecom)
-->
    <rule context="*[hl7:templateId[@root = '1.2.40.0.34.6.0.11.9.28'] and hl7:templateId[@root = '1.3.6.1.4.1.19376.1.3.3.1.7']]/hl7:assignedEntity[not(@nullFlavor)]/hl7:addr[@nullFlavor='UNK']" id="d471522e109-false-d471821e0">
        <assert role="error" see="http://art-decor.org/art-decor/decor-templates--elgaimpf-?id=1.2.40.0.34.6.0.11.9.29" test="string(@nullFlavor) = ('UNK')">( atcdabbr_other_AssignedEntityBodyWithNameAddrAndTelecom): Der Wert von nullFlavor MUSS 'UNK' sein. Gefunden: "<value-of select="@nullFlavor"/>"</assert>
    </rule>
   <!--
Template derived rules for ID: 1.2.40.0.34.6.0.11.9.29
Context: *[hl7:templateId[@root = '1.2.40.0.34.6.0.11.9.28'] and hl7:templateId[@root = '1.3.6.1.4.1.19376.1.3.3.1.7']]/hl7:assignedEntity[not(@nullFlavor)]/hl7:telecom
Item: ( atcdabbr_other_AssignedEntityBodyWithNameAddrAndTelecom)
-->
    <rule context="*[hl7:templateId[@root = '1.2.40.0.34.6.0.11.9.28'] and hl7:templateId[@root = '1.3.6.1.4.1.19376.1.3.3.1.7']]/hl7:assignedEntity[not(@nullFlavor)]/hl7:telecom" id="d471522e111-false-d471831e0">
        <extends rule="TEL.AT"/>
        <assert role="error" see="http://art-decor.org/art-decor/decor-templates--elgaimpf-?id=1.2.40.0.34.6.0.11.9.29" test="(local-name-from-QName(resolve-QName(@xsi:type,.))='TEL' and namespace-uri-from-QName(resolve-QName(@xsi:type,.))='urn:hl7-org:v3') or not(@xsi:type)">( atcdabbr_other_AssignedEntityBodyWithNameAddrAndTelecom): Wenn eine @xsi:type Instruktion anwesend ist MUSS diese den Wert "{urn:hl7-org:v3}:TEL" haben. Gefunden "{<value-of select="namespace-uri-from-QName(resolve-QName(@xsi:type,.))"/>}:<value-of select="local-name-from-QName(resolve-QName(@xsi:type,.))"/>"</assert>
        <assert role="error" see="http://art-decor.org/art-decor/decor-templates--elgaimpf-?id=1.2.40.0.34.6.0.11.9.29" test="@value">( atcdabbr_other_AssignedEntityBodyWithNameAddrAndTelecom): Attribut @value MUSS vorkommen.</assert>
        <assert role="error" see="http://art-decor.org/art-decor/decor-templates--elgaimpf-?id=1.2.40.0.34.6.0.11.9.29" test="not(@value) or string(@value castable as xs:anyURI)">( atcdabbr_other_AssignedEntityBodyWithNameAddrAndTelecom): Attribute @value MUSS vom Datentyp 'url' sein  - '<value-of select="@value"/>'</assert>
        <assert role="error" see="http://art-decor.org/art-decor/decor-templates--elgaimpf-?id=1.2.40.0.34.6.0.11.9.29" test="not(@use) or (string-length(@use) &gt; 0 and not(matches(@use,'\s')))">( atcdabbr_other_AssignedEntityBodyWithNameAddrAndTelecom): Attribute @use MUSS vom Datentyp 'cs' sein  - '<value-of select="@use"/>'</assert>
    </rule>
   <!--
Template derived rules for ID: 1.2.40.0.34.6.0.11.9.29
Context: *[hl7:templateId[@root = '1.2.40.0.34.6.0.11.9.28'] and hl7:templateId[@root = '1.3.6.1.4.1.19376.1.3.3.1.7']]/hl7:assignedEntity[not(@nullFlavor)]
Item: ( atcdabbr_other_AssignedEntityBodyWithNameAddrAndTelecom)
-->


<!--
Template derived rules for ID: 1.2.40.0.34.6.0.11.9.29
Context: *[hl7:templateId[@root = '1.2.40.0.34.6.0.11.9.28'] and hl7:templateId[@root = '1.3.6.1.4.1.19376.1.3.3.1.7']]/hl7:assignedEntity[not(@nullFlavor)]/hl7:assignedPerson
Item: ( atcdabbr_other_AssignedEntityBodyWithNameAddrAndTelecom)
-->

<!--
Template derived rules for ID: 1.2.40.0.34.6.0.11.9.12
Context: *[hl7:templateId[@root = '1.2.40.0.34.6.0.11.9.28'] and hl7:templateId[@root = '1.3.6.1.4.1.19376.1.3.3.1.7']]/hl7:assignedEntity[not(@nullFlavor)]/hl7:assignedPerson
Item: (atcdabbr_other_PersonNameCompilationG1M)
-->
    <rule context="*[hl7:templateId[@root = '1.2.40.0.34.6.0.11.9.28'] and hl7:templateId[@root = '1.3.6.1.4.1.19376.1.3.3.1.7']]/hl7:assignedEntity[not(@nullFlavor)]/hl7:assignedPerson">
        <assert role="error" see="http://art-decor.org/art-decor/decor-templates--elgaimpf-?id=1.2.40.0.34.6.0.11.9.12" test="string(@classCode) = ('PSN') or not(@classCode)">(atcdabbr_other_PersonNameCompilationG1M): Der Wert von classCode MUSS 'PSN' sein. Gefunden: "<value-of select="@classCode"/>"</assert>
        <assert role="error" see="http://art-decor.org/art-decor/decor-templates--elgaimpf-?id=1.2.40.0.34.6.0.11.9.12" test="string(@determinerCode) = ('INSTANCE') or not(@determinerCode)">(atcdabbr_other_PersonNameCompilationG1M): Der Wert von determinerCode MUSS 'INSTANCE' sein. Gefunden: "<value-of select="@determinerCode"/>"</assert>
        <assert role="error" see="http://art-decor.org/art-decor/decor-templates--elgaimpf-?id=1.2.40.0.34.6.0.11.9.12" test="count(hl7:name[not(@nullFlavor)]) &gt;= 1">(atcdabbr_other_PersonNameCompilationG1M): Element hl7:name[not(@nullFlavor)] ist mandatory [min 1x].</assert>
        <assert role="error" see="http://art-decor.org/art-decor/decor-templates--elgaimpf-?id=1.2.40.0.34.6.0.11.9.12" test="count(hl7:name[not(@nullFlavor)]) &lt;= 1">(atcdabbr_other_PersonNameCompilationG1M): Element hl7:name[not(@nullFlavor)] kommt zu häufig vor [max 1x].</assert>
    </rule>

   <!--
Template derived rules for ID: 1.2.40.0.34.6.0.11.9.12
Context: *[hl7:templateId[@root = '1.2.40.0.34.6.0.11.9.28'] and hl7:templateId[@root = '1.3.6.1.4.1.19376.1.3.3.1.7']]/hl7:assignedEntity[not(@nullFlavor)]/hl7:assignedPerson/hl7:name[not(@nullFlavor)]
Item: (atcdabbr_other_PersonNameCompilationG1M)
-->
    <rule context="*[hl7:templateId[@root = '1.2.40.0.34.6.0.11.9.28'] and hl7:templateId[@root = '1.3.6.1.4.1.19376.1.3.3.1.7']]/hl7:assignedEntity[not(@nullFlavor)]/hl7:assignedPerson/hl7:name[not(@nullFlavor)]">
        <extends rule="PN"/>
        <assert role="error" see="http://art-decor.org/art-decor/decor-templates--elgaimpf-?id=1.2.40.0.34.6.0.11.9.12" test="(local-name-from-QName(resolve-QName(@xsi:type,.))='PN' and namespace-uri-from-QName(resolve-QName(@xsi:type,.))='urn:hl7-org:v3') or not(@xsi:type)">(atcdabbr_other_PersonNameCompilationG1M): Wenn eine @xsi:type Instruktion anwesend ist MUSS diese den Wert "{urn:hl7-org:v3}:PN" haben. Gefunden "{<value-of select="namespace-uri-from-QName(resolve-QName(@xsi:type,.))"/>}:<value-of select="local-name-from-QName(resolve-QName(@xsi:type,.))"/>"</assert>
        <assert role="error" see="http://art-decor.org/art-decor/decor-templates--elgaimpf-?id=1.2.40.0.34.6.0.11.9.12" test="not(@use) or (string-length(@use) &gt; 0 and not(matches(@use,'\s')))">(atcdabbr_other_PersonNameCompilationG1M): Attribute @use MUSS vom Datentyp 'cs' sein  - '<value-of select="@use"/>'</assert>
    </rule>

   <!--
Template derived rules for ID: 1.2.40.0.34.6.0.11.9.29
Context: *[hl7:templateId[@root = '1.2.40.0.34.6.0.11.9.28'] and hl7:templateId[@root = '1.3.6.1.4.1.19376.1.3.3.1.7']]/hl7:assignedEntity[not(@nullFlavor)]/hl7:assignedPerson
Item: ( atcdabbr_other_AssignedEntityBodyWithNameAddrAndTelecom)
-->

<!--
Template derived rules for ID: 1.2.40.0.34.6.0.11.9.11
Context: *[hl7:templateId[@root = '1.2.40.0.34.6.0.11.9.28'] and hl7:templateId[@root = '1.3.6.1.4.1.19376.1.3.3.1.7']]/hl7:assignedEntity[not(@nullFlavor)]/hl7:assignedPerson
Item: (atcdabbr_other_PersonNameCompilationG2M)
-->
    <rule context="*[hl7:templateId[@root = '1.2.40.0.34.6.0.11.9.28'] and hl7:templateId[@root = '1.3.6.1.4.1.19376.1.3.3.1.7']]/hl7:assignedEntity[not(@nullFlavor)]/hl7:assignedPerson">
        <assert role="error" see="http://art-decor.org/art-decor/decor-templates--elgaimpf-?id=1.2.40.0.34.6.0.11.9.11" test="string(@classCode) = ('PSN') or not(@classCode)">(atcdabbr_other_PersonNameCompilationG2M): Der Wert von classCode MUSS 'PSN' sein. Gefunden: "<value-of select="@classCode"/>"</assert>
        <assert role="error" see="http://art-decor.org/art-decor/decor-templates--elgaimpf-?id=1.2.40.0.34.6.0.11.9.11" test="string(@determinerCode) = ('INSTANCE') or not(@determinerCode)">(atcdabbr_other_PersonNameCompilationG2M): Der Wert von determinerCode MUSS 'INSTANCE' sein. Gefunden: "<value-of select="@determinerCode"/>"</assert>
        <assert role="error" see="http://art-decor.org/art-decor/decor-templates--elgaimpf-?id=1.2.40.0.34.6.0.11.9.11" test="count(hl7:name[not(@nullFlavor)]) &gt;= 1">(atcdabbr_other_PersonNameCompilationG2M): Element hl7:name[not(@nullFlavor)] ist mandatory [min 1x].</assert>
        <assert role="error" see="http://art-decor.org/art-decor/decor-templates--elgaimpf-?id=1.2.40.0.34.6.0.11.9.11" test="count(hl7:name[not(@nullFlavor)]) &lt;= 1">(atcdabbr_other_PersonNameCompilationG2M): Element hl7:name[not(@nullFlavor)] kommt zu häufig vor [max 1x].</assert>
    </rule>

   <!--
Template derived rules for ID: 1.2.40.0.34.6.0.11.9.11
Context: *[hl7:templateId[@root = '1.2.40.0.34.6.0.11.9.28'] and hl7:templateId[@root = '1.3.6.1.4.1.19376.1.3.3.1.7']]/hl7:assignedEntity[not(@nullFlavor)]/hl7:assignedPerson/hl7:name[not(@nullFlavor)]
Item: (atcdabbr_other_PersonNameCompilationG2M)
-->
    <rule context="*[hl7:templateId[@root = '1.2.40.0.34.6.0.11.9.28'] and hl7:templateId[@root = '1.3.6.1.4.1.19376.1.3.3.1.7']]/hl7:assignedEntity[not(@nullFlavor)]/hl7:assignedPerson/hl7:name[not(@nullFlavor)]">
        <extends rule="PN"/>
        <assert role="error" see="http://art-decor.org/art-decor/decor-templates--elgaimpf-?id=1.2.40.0.34.6.0.11.9.11" test="(local-name-from-QName(resolve-QName(@xsi:type,.))='PN' and namespace-uri-from-QName(resolve-QName(@xsi:type,.))='urn:hl7-org:v3') or not(@xsi:type)">(atcdabbr_other_PersonNameCompilationG2M): Wenn eine @xsi:type Instruktion anwesend ist MUSS diese den Wert "{urn:hl7-org:v3}:PN" haben. Gefunden "{<value-of select="namespace-uri-from-QName(resolve-QName(@xsi:type,.))"/>}:<value-of select="local-name-from-QName(resolve-QName(@xsi:type,.))"/>"</assert>
        <assert role="error" see="http://art-decor.org/art-decor/decor-templates--elgaimpf-?id=1.2.40.0.34.6.0.11.9.11" test="not(@use) or (string-length(@use) &gt; 0 and not(matches(@use,'\s')))">(atcdabbr_other_PersonNameCompilationG2M): Attribute @use MUSS vom Datentyp 'cs' sein  - '<value-of select="@use"/>'</assert>
        <assert role="error" see="http://art-decor.org/art-decor/decor-templates--elgaimpf-?id=1.2.40.0.34.6.0.11.9.11" test="count(hl7:family[not(@nullFlavor)]) &gt;= 1">(atcdabbr_other_PersonNameCompilationG2M): Element hl7:family[not(@nullFlavor)] ist mandatory [min 1x].</assert>
        <assert role="error" see="http://art-decor.org/art-decor/decor-templates--elgaimpf-?id=1.2.40.0.34.6.0.11.9.11" test="count(hl7:given[not(@nullFlavor)]) &gt;= 1">(atcdabbr_other_PersonNameCompilationG2M): Element hl7:given[not(@nullFlavor)] ist mandatory [min 1x].</assert>
    </rule>

   <!--
Template derived rules for ID: 1.2.40.0.34.6.0.11.9.11
Context: *[hl7:templateId[@root = '1.2.40.0.34.6.0.11.9.28'] and hl7:templateId[@root = '1.3.6.1.4.1.19376.1.3.3.1.7']]/hl7:assignedEntity[not(@nullFlavor)]/hl7:assignedPerson/hl7:name[not(@nullFlavor)]/hl7:prefix
Item: (atcdabbr_other_PersonNameCompilationG2M)
-->
    <rule context="*[hl7:templateId[@root = '1.2.40.0.34.6.0.11.9.28'] and hl7:templateId[@root = '1.3.6.1.4.1.19376.1.3.3.1.7']]/hl7:assignedEntity[not(@nullFlavor)]/hl7:assignedPerson/hl7:name[not(@nullFlavor)]/hl7:prefix">
        <extends rule="ENXP"/>
        <assert role="error" see="http://art-decor.org/art-decor/decor-templates--elgaimpf-?id=1.2.40.0.34.6.0.11.9.11" test="(local-name-from-QName(resolve-QName(@xsi:type,.))='ENXP' and namespace-uri-from-QName(resolve-QName(@xsi:type,.))='urn:hl7-org:v3') or not(@xsi:type)">(atcdabbr_other_PersonNameCompilationG2M): Wenn eine @xsi:type Instruktion anwesend ist MUSS diese den Wert "{urn:hl7-org:v3}:ENXP" haben. Gefunden "{<value-of select="namespace-uri-from-QName(resolve-QName(@xsi:type,.))"/>}:<value-of select="local-name-from-QName(resolve-QName(@xsi:type,.))"/>"</assert>
        <let name="theAttValue" value="distinct-values(tokenize(normalize-space(@qualifier),'\s'))"/>
        <assert role="error" see="http://art-decor.org/art-decor/decor-templates--elgaimpf-?id=1.2.40.0.34.6.0.11.9.11" test="not(@qualifier) or empty($theAttValue[not(. = (doc('include/voc-1.2.40.0.34.6.0.10.8-DYNAMIC.xml')/*/valueSet/conceptList/concept/@code))])">(atcdabbr_other_PersonNameCompilationG2M): Der Wert von qualifier MUSS gewählt werden aus Value Set '1.2.40.0.34.6.0.10.8' ELGA_EntityNamePartQualifier_VS (DYNAMIC).</assert>
    </rule>

   <!--
Template derived rules for ID: 1.2.40.0.34.6.0.11.9.11
Context: *[hl7:templateId[@root = '1.2.40.0.34.6.0.11.9.28'] and hl7:templateId[@root = '1.3.6.1.4.1.19376.1.3.3.1.7']]/hl7:assignedEntity[not(@nullFlavor)]/hl7:assignedPerson/hl7:name[not(@nullFlavor)]/hl7:family[not(@nullFlavor)]
Item: (atcdabbr_other_PersonNameCompilationG2M)
-->
    <rule context="*[hl7:templateId[@root = '1.2.40.0.34.6.0.11.9.28'] and hl7:templateId[@root = '1.3.6.1.4.1.19376.1.3.3.1.7']]/hl7:assignedEntity[not(@nullFlavor)]/hl7:assignedPerson/hl7:name[not(@nullFlavor)]/hl7:family[not(@nullFlavor)]">
        <extends rule="ENXP"/>
        <assert role="error" see="http://art-decor.org/art-decor/decor-templates--elgaimpf-?id=1.2.40.0.34.6.0.11.9.11" test="(local-name-from-QName(resolve-QName(@xsi:type,.))='ENXP' and namespace-uri-from-QName(resolve-QName(@xsi:type,.))='urn:hl7-org:v3') or not(@xsi:type)">(atcdabbr_other_PersonNameCompilationG2M): Wenn eine @xsi:type Instruktion anwesend ist MUSS diese den Wert "{urn:hl7-org:v3}:ENXP" haben. Gefunden "{<value-of select="namespace-uri-from-QName(resolve-QName(@xsi:type,.))"/>}:<value-of select="local-name-from-QName(resolve-QName(@xsi:type,.))"/>"</assert>
        <let name="theAttValue" value="distinct-values(tokenize(normalize-space(@qualifier),'\s'))"/>
        <assert role="error" see="http://art-decor.org/art-decor/decor-templates--elgaimpf-?id=1.2.40.0.34.6.0.11.9.11" test="not(@qualifier) or empty($theAttValue[not(. = (doc('include/voc-1.2.40.0.34.6.0.10.8-DYNAMIC.xml')/*/valueSet/conceptList/concept/@code))])">(atcdabbr_other_PersonNameCompilationG2M): Der Wert von qualifier MUSS gewählt werden aus Value Set '1.2.40.0.34.6.0.10.8' ELGA_EntityNamePartQualifier_VS (DYNAMIC).</assert>
    </rule>

   <!--
Template derived rules for ID: 1.2.40.0.34.6.0.11.9.11
Context: *[hl7:templateId[@root = '1.2.40.0.34.6.0.11.9.28'] and hl7:templateId[@root = '1.3.6.1.4.1.19376.1.3.3.1.7']]/hl7:assignedEntity[not(@nullFlavor)]/hl7:assignedPerson/hl7:name[not(@nullFlavor)]/hl7:given[not(@nullFlavor)]
Item: (atcdabbr_other_PersonNameCompilationG2M)
-->
    <rule context="*[hl7:templateId[@root = '1.2.40.0.34.6.0.11.9.28'] and hl7:templateId[@root = '1.3.6.1.4.1.19376.1.3.3.1.7']]/hl7:assignedEntity[not(@nullFlavor)]/hl7:assignedPerson/hl7:name[not(@nullFlavor)]/hl7:given[not(@nullFlavor)]">
        <extends rule="ENXP"/>
        <assert role="error" see="http://art-decor.org/art-decor/decor-templates--elgaimpf-?id=1.2.40.0.34.6.0.11.9.11" test="(local-name-from-QName(resolve-QName(@xsi:type,.))='ENXP' and namespace-uri-from-QName(resolve-QName(@xsi:type,.))='urn:hl7-org:v3') or not(@xsi:type)">(atcdabbr_other_PersonNameCompilationG2M): Wenn eine @xsi:type Instruktion anwesend ist MUSS diese den Wert "{urn:hl7-org:v3}:ENXP" haben. Gefunden "{<value-of select="namespace-uri-from-QName(resolve-QName(@xsi:type,.))"/>}:<value-of select="local-name-from-QName(resolve-QName(@xsi:type,.))"/>"</assert>
        <let name="theAttValue" value="distinct-values(tokenize(normalize-space(@qualifier),'\s'))"/>
        <assert role="error" see="http://art-decor.org/art-decor/decor-templates--elgaimpf-?id=1.2.40.0.34.6.0.11.9.11" test="not(@qualifier) or empty($theAttValue[not(. = (doc('include/voc-1.2.40.0.34.6.0.10.8-DYNAMIC.xml')/*/valueSet/conceptList/concept/@code))])">(atcdabbr_other_PersonNameCompilationG2M): Der Wert von qualifier MUSS gewählt werden aus Value Set '1.2.40.0.34.6.0.10.8' ELGA_EntityNamePartQualifier_VS (DYNAMIC).</assert>
    </rule>

   <!--
Template derived rules for ID: 1.2.40.0.34.6.0.11.9.11
Context: *[hl7:templateId[@root = '1.2.40.0.34.6.0.11.9.28'] and hl7:templateId[@root = '1.3.6.1.4.1.19376.1.3.3.1.7']]/hl7:assignedEntity[not(@nullFlavor)]/hl7:assignedPerson/hl7:name[not(@nullFlavor)]/hl7:suffix
Item: (atcdabbr_other_PersonNameCompilationG2M)
-->
    <rule context="*[hl7:templateId[@root = '1.2.40.0.34.6.0.11.9.28'] and hl7:templateId[@root = '1.3.6.1.4.1.19376.1.3.3.1.7']]/hl7:assignedEntity[not(@nullFlavor)]/hl7:assignedPerson/hl7:name[not(@nullFlavor)]/hl7:suffix">
        <extends rule="ENXP"/>
        <assert role="error" see="http://art-decor.org/art-decor/decor-templates--elgaimpf-?id=1.2.40.0.34.6.0.11.9.11" test="(local-name-from-QName(resolve-QName(@xsi:type,.))='ENXP' and namespace-uri-from-QName(resolve-QName(@xsi:type,.))='urn:hl7-org:v3') or not(@xsi:type)">(atcdabbr_other_PersonNameCompilationG2M): Wenn eine @xsi:type Instruktion anwesend ist MUSS diese den Wert "{urn:hl7-org:v3}:ENXP" haben. Gefunden "{<value-of select="namespace-uri-from-QName(resolve-QName(@xsi:type,.))"/>}:<value-of select="local-name-from-QName(resolve-QName(@xsi:type,.))"/>"</assert>
        <let name="theAttValue" value="distinct-values(tokenize(normalize-space(@qualifier),'\s'))"/>
        <assert role="error" see="http://art-decor.org/art-decor/decor-templates--elgaimpf-?id=1.2.40.0.34.6.0.11.9.11" test="not(@qualifier) or empty($theAttValue[not(. = (doc('include/voc-1.2.40.0.34.6.0.10.8-DYNAMIC.xml')/*/valueSet/conceptList/concept/@code))])">(atcdabbr_other_PersonNameCompilationG2M): Der Wert von qualifier MUSS gewählt werden aus Value Set '1.2.40.0.34.6.0.10.8' ELGA_EntityNamePartQualifier_VS (DYNAMIC).</assert>
    </rule>
   <!--
Template derived rules for ID: 1.2.40.0.34.6.0.11.9.29
Context: *[hl7:templateId[@root = '1.2.40.0.34.6.0.11.9.28'] and hl7:templateId[@root = '1.3.6.1.4.1.19376.1.3.3.1.7']]/hl7:assignedEntity[not(@nullFlavor)]/hl7:representedOrganization
Item: ( atcdabbr_other_AssignedEntityBodyWithNameAddrAndTelecom)
-->
</pattern>