<?xml version="1.0" encoding="UTF-8"?>
<!--
Template derived pattern
===========================================
ID: 1.2.40.0.34.6.0.11.3.21
Name: Expositionsrisiko Problem Entry
Description: 
-->
<pattern xmlns="http://purl.oclc.org/dsdl/schematron" id="template-1.2.40.0.34.6.0.11.3.21-2019-05-29T151739-closed">
    <title>Expositionsrisiko Problem Entry</title>

   <!-- Checking undefined contents for template/element @isClosed="true". Match context that we did not already match -->
    <rule context="*[hl7:observation[hl7:templateId[@root = '1.2.40.0.34.6.0.11.3.21'] and hl7:templateId[@root = '2.16.840.1.113883.10.20.1.28'] and hl7:templateId[@root = '1.3.6.1.4.1.19376.1.5.3.1.4.5']]]/*[not(@xsi:nil = 'true')][not(self::hl7:observation[hl7:templateId[@root = '1.2.40.0.34.6.0.11.3.21'] and hl7:templateId[@root = '2.16.840.1.113883.10.20.1.28'] and hl7:templateId[@root = '1.3.6.1.4.1.19376.1.5.3.1.4.5']])]" id="d245561e4898-true-d445504e0">
        <assert role="error" see="http://art-decor.org/art-decor/decor-templates--elgaimpf-?id=1.2.40.0.34.6.0.11.3.21" test="not(.)">(atcdabbr_entry_ExpositionsrisikoProblem)/d245561e4898-true-d445504e0: '<value-of select="name(..)"/>' ist als geschlossen definiert und dieses Element '<name/>' ist nicht erlaubt oder nicht mit diesem Inhalt erlaubt. Dies kann templateId, code oder id betreffen. Erwartet:  hl7:observation[hl7:templateId[@root = '1.2.40.0.34.6.0.11.3.21'] and hl7:templateId[@root = '2.16.840.1.113883.10.20.1.28'] and hl7:templateId[@root = '1.3.6.1.4.1.19376.1.5.3.1.4.5']] (rule-reference: d245561e4898-true-d445504e0)</assert>
    </rule>

   <!-- Checking undefined contents for template/element @isClosed="true". Match context that we did not already match -->
    <rule context="*[hl7:observation[hl7:templateId[@root = '1.2.40.0.34.6.0.11.3.21'] and hl7:templateId[@root = '2.16.840.1.113883.10.20.1.28'] and hl7:templateId[@root = '1.3.6.1.4.1.19376.1.5.3.1.4.5']]]/hl7:observation[hl7:templateId[@root = '1.2.40.0.34.6.0.11.3.21'] and hl7:templateId[@root = '2.16.840.1.113883.10.20.1.28'] and hl7:templateId[@root = '1.3.6.1.4.1.19376.1.5.3.1.4.5']]/*[not(@xsi:nil = 'true')][not(self::hl7:templateId[@root = '1.2.40.0.34.6.0.11.3.21'] | self::hl7:templateId[@root = '2.16.840.1.113883.10.20.1.28'] | self::hl7:templateId[@root = '1.3.6.1.4.1.19376.1.5.3.1.4.5'] | self::hl7:id[not(@nullFlavor)] | self::hl7:code[(@code = '55607006' and @codeSystem = '2.16.840.1.113883.6.96')] | self::hl7:text | self::hl7:statusCode[@code = 'completed'] | self::hl7:effectiveTime[not(@nullFlavor)] | self::hl7:value[concat(@code, @codeSystem) = doc('include/voc-1.2.40.0.34.6.0.10.15-DYNAMIC.xml')//valueSet[1]/conceptList/concept/concat(@code, @codeSystem)])]" id="d245561e4921-true-d445585e0">
        <assert role="error" see="http://art-decor.org/art-decor/decor-templates--elgaimpf-?id=1.2.40.0.34.6.0.11.3.21" test="not(.)">(atcdabbr_entry_ExpositionsrisikoProblem)/d245561e4921-true-d445585e0: '<value-of select="name(..)"/>' ist als geschlossen definiert und dieses Element '<name/>' ist nicht erlaubt oder nicht mit diesem Inhalt erlaubt. Dies kann templateId, code oder id betreffen. Erwartet:  hl7:templateId[@root = '1.2.40.0.34.6.0.11.3.21'] | hl7:templateId[@root = '2.16.840.1.113883.10.20.1.28'] | hl7:templateId[@root = '1.3.6.1.4.1.19376.1.5.3.1.4.5'] | hl7:id[not(@nullFlavor)] | hl7:code[(@code = '55607006' and @codeSystem = '2.16.840.1.113883.6.96')] | hl7:text | hl7:statusCode[@code = 'completed'] | hl7:effectiveTime[not(@nullFlavor)] | hl7:value[concat(@code, @codeSystem) = doc('include/voc-1.2.40.0.34.6.0.10.15-DYNAMIC.xml')//valueSet[1]/conceptList/concept/concat(@code, @codeSystem)] (rule-reference: d245561e4921-true-d445585e0)</assert>
    </rule>

   <!-- Checking undefined contents for template/element @isClosed="true". Match context that we did not already match -->
    <rule context="*[hl7:observation[hl7:templateId[@root = '1.2.40.0.34.6.0.11.3.21'] and hl7:templateId[@root = '2.16.840.1.113883.10.20.1.28'] and hl7:templateId[@root = '1.3.6.1.4.1.19376.1.5.3.1.4.5']]]/hl7:observation[hl7:templateId[@root = '1.2.40.0.34.6.0.11.3.21'] and hl7:templateId[@root = '2.16.840.1.113883.10.20.1.28'] and hl7:templateId[@root = '1.3.6.1.4.1.19376.1.5.3.1.4.5']]/hl7:text/*[not(@xsi:nil = 'true')][not(self::hl7:reference[not(@nullFlavor)])]" id="d445613e37-true-d445624e0">
        <assert role="error" see="http://art-decor.org/art-decor/decor-templates--elgaimpf-?id=1.2.40.0.34.6.0.11.9.1" test="not(.)">(atcdabrr_other_NarrativeTextReference)/d445613e37-true-d445624e0: '<value-of select="name(..)"/>' ist als geschlossen definiert und dieses Element '<name/>' ist nicht erlaubt oder nicht mit diesem Inhalt erlaubt. Dies kann templateId, code oder id betreffen. Erwartet:  hl7:reference[not(@nullFlavor)] (rule-reference: d445613e37-true-d445624e0)</assert>
    </rule>

   <!-- Checking undefined contents for template/element @isClosed="true". Match context that we did not already match -->
    <rule context="*[hl7:observation[hl7:templateId[@root = '1.2.40.0.34.6.0.11.3.21'] and hl7:templateId[@root = '2.16.840.1.113883.10.20.1.28'] and hl7:templateId[@root = '1.3.6.1.4.1.19376.1.5.3.1.4.5']]]/hl7:observation[hl7:templateId[@root = '1.2.40.0.34.6.0.11.3.21'] and hl7:templateId[@root = '2.16.840.1.113883.10.20.1.28'] and hl7:templateId[@root = '1.3.6.1.4.1.19376.1.5.3.1.4.5']]/hl7:effectiveTime[not(@nullFlavor)]/*[not(@xsi:nil = 'true')][not(self::hl7:low[not(@nullFlavor)] | self::hl7:high)]" id="d245561e4961-true-d445651e0">
        <assert role="error" see="http://art-decor.org/art-decor/decor-templates--elgaimpf-?id=1.2.40.0.34.6.0.11.3.21" test="not(.)">(atcdabbr_entry_ExpositionsrisikoProblem)/d245561e4961-true-d445651e0: '<value-of select="name(..)"/>' ist als geschlossen definiert und dieses Element '<name/>' ist nicht erlaubt oder nicht mit diesem Inhalt erlaubt. Dies kann templateId, code oder id betreffen. Erwartet:  hl7:low[not(@nullFlavor)] | hl7:high (rule-reference: d245561e4961-true-d445651e0)</assert>
    </rule>

   <!-- Checking undefined contents for template/element @isClosed="true". Match context that we did not already match -->
    <rule context="*[hl7:observation[hl7:templateId[@root = '1.2.40.0.34.6.0.11.3.21'] and hl7:templateId[@root = '2.16.840.1.113883.10.20.1.28'] and hl7:templateId[@root = '1.3.6.1.4.1.19376.1.5.3.1.4.5']]]/hl7:observation[hl7:templateId[@root = '1.2.40.0.34.6.0.11.3.21'] and hl7:templateId[@root = '2.16.840.1.113883.10.20.1.28'] and hl7:templateId[@root = '1.3.6.1.4.1.19376.1.5.3.1.4.5']]/hl7:value[concat(@code, @codeSystem) = doc('include/voc-1.2.40.0.34.6.0.10.15-DYNAMIC.xml')//valueSet[1]/conceptList/concept/concat(@code, @codeSystem)]/*[not(@xsi:nil = 'true')][not(self::hl7:originalText)]" id="d245561e4973-true-d445677e0">
        <assert role="error" see="http://art-decor.org/art-decor/decor-templates--elgaimpf-?id=1.2.40.0.34.6.0.11.3.21" test="not(.)">(atcdabbr_entry_ExpositionsrisikoProblem)/d245561e4973-true-d445677e0: '<value-of select="name(..)"/>' ist als geschlossen definiert und dieses Element '<name/>' ist nicht erlaubt oder nicht mit diesem Inhalt erlaubt. Dies kann templateId, code oder id betreffen. Erwartet:  hl7:originalText (rule-reference: d245561e4973-true-d445677e0)</assert>
    </rule>

   <!-- Checking undefined contents for template/element @isClosed="true". Match context that we did not already match -->
    <rule context="*[hl7:observation[hl7:templateId[@root = '1.2.40.0.34.6.0.11.3.21'] and hl7:templateId[@root = '2.16.840.1.113883.10.20.1.28'] and hl7:templateId[@root = '1.3.6.1.4.1.19376.1.5.3.1.4.5']]]/hl7:observation[hl7:templateId[@root = '1.2.40.0.34.6.0.11.3.21'] and hl7:templateId[@root = '2.16.840.1.113883.10.20.1.28'] and hl7:templateId[@root = '1.3.6.1.4.1.19376.1.5.3.1.4.5']]/hl7:value[concat(@code, @codeSystem) = doc('include/voc-1.2.40.0.34.6.0.10.15-DYNAMIC.xml')//valueSet[1]/conceptList/concept/concat(@code, @codeSystem)]/hl7:originalText/*[not(@xsi:nil = 'true')][not(self::hl7:reference[not(@nullFlavor)])]" id="d445681e10-true-d445692e0">
        <assert role="error" see="http://art-decor.org/art-decor/decor-templates--elgaimpf-?id=1.2.40.0.34.6.0.11.9.2" test="not(.)">(atcdabbr_other_OriginalTextReference)/d445681e10-true-d445692e0: '<value-of select="name(..)"/>' ist als geschlossen definiert und dieses Element '<name/>' ist nicht erlaubt oder nicht mit diesem Inhalt erlaubt. Dies kann templateId, code oder id betreffen. Erwartet:  hl7:reference[not(@nullFlavor)] (rule-reference: d445681e10-true-d445692e0)</assert>
    </rule>
</pattern>