<?xml version="1.0" encoding="UTF-8"?>
<!--
Template derived pattern
===========================================
ID: 1.2.40.0.34.6.0.11.3.20
Name: Expositionsrisiko Problem Concern Entry
Description: Angabe der Indikation für eine bestimmte Impfung (entsprechend der Patienten- oder Indikationsgruppe(n). Das  effectiveTime.low -Element trägt die Information, ab wann die Indikation eingetragen wurde und damit zu berücksichtigen ist, das  effectiveTime.high -Element den Zeitpunkt, wenn die Indikation nicht mehr zu berücksichtigen ist (zugleich wird  statusCode  "completed" gesetzt). Anmerkung: Es ist  nicht  vorgesehen, Kontraindikationen zu dokumentieren. 
-->
<pattern xmlns="http://purl.oclc.org/dsdl/schematron" id="template-1.2.40.0.34.6.0.11.3.20-2019-05-29T150252-closed">
    <title>Expositionsrisiko Problem Concern Entry</title>

   <!-- Checking undefined contents for template/element @isClosed="true". Match context that we did not already match -->
    <rule context="*[hl7:act[hl7:templateId[@root = '1.2.40.0.34.6.0.11.3.20'] and hl7:templateId[@root = '2.16.840.1.113883.10.20.1.27'] and hl7:templateId[@root = '1.3.6.1.4.1.19376.1.5.3.1.4.5.1'] and hl7:templateId[@root = '1.3.6.1.4.1.19376.1.5.3.1.4.5.2']]]/*[not(@xsi:nil = 'true')][not(self::hl7:act[hl7:templateId[@root = '1.2.40.0.34.6.0.11.3.20'] and hl7:templateId[@root = '2.16.840.1.113883.10.20.1.27'] and hl7:templateId[@root = '1.3.6.1.4.1.19376.1.5.3.1.4.5.1'] and hl7:templateId[@root = '1.3.6.1.4.1.19376.1.5.3.1.4.5.2']])]" id="d245561e4731-true-d443928e0">
        <assert role="error" see="http://art-decor.org/art-decor/decor-templates--elgaimpf-?id=1.2.40.0.34.6.0.11.3.20" test="not(.)">(atcdabbr_entry_ExpositionsrisikoProblemConcern)/d245561e4731-true-d443928e0: '<value-of select="name(..)"/>' ist als geschlossen definiert und dieses Element '<name/>' ist nicht erlaubt oder nicht mit diesem Inhalt erlaubt. Dies kann templateId, code oder id betreffen. Erwartet:  hl7:act[hl7:templateId[@root = '1.2.40.0.34.6.0.11.3.20'] and hl7:templateId[@root = '2.16.840.1.113883.10.20.1.27'] and hl7:templateId[@root = '1.3.6.1.4.1.19376.1.5.3.1.4.5.1'] and hl7:templateId[@root = '1.3.6.1.4.1.19376.1.5.3.1.4.5.2']] (rule-reference: d245561e4731-true-d443928e0)</assert>
    </rule>

   <!-- Checking undefined contents for template/element @isClosed="true". Match context that we did not already match -->
    <rule context="*[hl7:act[hl7:templateId[@root = '1.2.40.0.34.6.0.11.3.20'] and hl7:templateId[@root = '2.16.840.1.113883.10.20.1.27'] and hl7:templateId[@root = '1.3.6.1.4.1.19376.1.5.3.1.4.5.1'] and hl7:templateId[@root = '1.3.6.1.4.1.19376.1.5.3.1.4.5.2']]]/hl7:act[hl7:templateId[@root = '1.2.40.0.34.6.0.11.3.20'] and hl7:templateId[@root = '2.16.840.1.113883.10.20.1.27'] and hl7:templateId[@root = '1.3.6.1.4.1.19376.1.5.3.1.4.5.1'] and hl7:templateId[@root = '1.3.6.1.4.1.19376.1.5.3.1.4.5.2']]/*[not(@xsi:nil = 'true')][not(self::hl7:templateId[@root = '1.2.40.0.34.6.0.11.3.20'] | self::hl7:templateId[@root = '2.16.840.1.113883.10.20.1.27'] | self::hl7:templateId[@root = '1.3.6.1.4.1.19376.1.5.3.1.4.5.1'] | self::hl7:templateId[@root = '1.3.6.1.4.1.19376.1.5.3.1.4.5.2'] | self::hl7:id[not(@nullFlavor)] | self::hl7:code[@nullFlavor = 'NA'] | self::hl7:statusCode[@code = 'active' or @code = 'completed'] | self::hl7:effectiveTime[not(@nullFlavor)] | self::hl7:author[hl7:assignedAuthor] | self::hl7:entryRelationship[@typeCode='SUBJ'][not(@nullFlavor)] | self::hl7:reference[hl7:externalDocument[hl7:templateId[@root = '1.2.40.0.34.6.0.11.3.14']]])]" id="d245561e4788-true-d444145e0">
        <assert role="error" see="http://art-decor.org/art-decor/decor-templates--elgaimpf-?id=1.2.40.0.34.6.0.11.3.20" test="not(.)">(atcdabbr_entry_ExpositionsrisikoProblemConcern)/d245561e4788-true-d444145e0: '<value-of select="name(..)"/>' ist als geschlossen definiert und dieses Element '<name/>' ist nicht erlaubt oder nicht mit diesem Inhalt erlaubt. Dies kann templateId, code oder id betreffen. Erwartet:  hl7:templateId[@root = '1.2.40.0.34.6.0.11.3.20'] | hl7:templateId[@root = '2.16.840.1.113883.10.20.1.27'] | hl7:templateId[@root = '1.3.6.1.4.1.19376.1.5.3.1.4.5.1'] | hl7:templateId[@root = '1.3.6.1.4.1.19376.1.5.3.1.4.5.2'] | hl7:id[not(@nullFlavor)] | hl7:code[@nullFlavor = 'NA'] | hl7:statusCode[@code = 'active' or @code = 'completed'] | hl7:effectiveTime[not(@nullFlavor)] | hl7:author[hl7:assignedAuthor] | hl7:entryRelationship[@typeCode='SUBJ'][not(@nullFlavor)] | hl7:reference[hl7:externalDocument[hl7:templateId[@root = '1.2.40.0.34.6.0.11.3.14']]] (rule-reference: d245561e4788-true-d444145e0)</assert>
    </rule>

   <!-- Checking undefined contents for template/element @isClosed="true". Match context that we did not already match -->
    <rule context="*[hl7:act[hl7:templateId[@root = '1.2.40.0.34.6.0.11.3.20'] and hl7:templateId[@root = '2.16.840.1.113883.10.20.1.27'] and hl7:templateId[@root = '1.3.6.1.4.1.19376.1.5.3.1.4.5.1'] and hl7:templateId[@root = '1.3.6.1.4.1.19376.1.5.3.1.4.5.2']]]/hl7:act[hl7:templateId[@root = '1.2.40.0.34.6.0.11.3.20'] and hl7:templateId[@root = '2.16.840.1.113883.10.20.1.27'] and hl7:templateId[@root = '1.3.6.1.4.1.19376.1.5.3.1.4.5.1'] and hl7:templateId[@root = '1.3.6.1.4.1.19376.1.5.3.1.4.5.2']]/hl7:effectiveTime[not(@nullFlavor)]/*[not(@xsi:nil = 'true')][not(self::hl7:low[not(@nullFlavor)] | self::hl7:high)]" id="d245561e4831-true-d444196e0">
        <assert role="error" see="http://art-decor.org/art-decor/decor-templates--elgaimpf-?id=1.2.40.0.34.6.0.11.3.20" test="not(.)">(atcdabbr_entry_ExpositionsrisikoProblemConcern)/d245561e4831-true-d444196e0: '<value-of select="name(..)"/>' ist als geschlossen definiert und dieses Element '<name/>' ist nicht erlaubt oder nicht mit diesem Inhalt erlaubt. Dies kann templateId, code oder id betreffen. Erwartet:  hl7:low[not(@nullFlavor)] | hl7:high (rule-reference: d245561e4831-true-d444196e0)</assert>
    </rule>

   <!-- Checking undefined contents for template/element @isClosed="true". Match context that we did not already match -->
    <rule context="*[hl7:act[hl7:templateId[@root = '1.2.40.0.34.6.0.11.3.20'] and hl7:templateId[@root = '2.16.840.1.113883.10.20.1.27'] and hl7:templateId[@root = '1.3.6.1.4.1.19376.1.5.3.1.4.5.1'] and hl7:templateId[@root = '1.3.6.1.4.1.19376.1.5.3.1.4.5.2']]]/hl7:act[hl7:templateId[@root = '1.2.40.0.34.6.0.11.3.20'] and hl7:templateId[@root = '2.16.840.1.113883.10.20.1.27'] and hl7:templateId[@root = '1.3.6.1.4.1.19376.1.5.3.1.4.5.1'] and hl7:templateId[@root = '1.3.6.1.4.1.19376.1.5.3.1.4.5.2']]/hl7:author[hl7:assignedAuthor]/*[not(@xsi:nil = 'true')][not(self::hl7:time[not(@nullFlavor)] | self::hl7:time[@nullFlavor='UNK'] | self::hl7:assignedAuthor)]" id="d245561e4856-true-d444328e0">
        <assert role="error" see="http://art-decor.org/art-decor/decor-templates--elgaimpf-?id=1.2.40.0.34.6.0.11.3.20" test="not(.)">(atcdabbr_entry_ExpositionsrisikoProblemConcern)/d245561e4856-true-d444328e0: '<value-of select="name(..)"/>' ist als geschlossen definiert und dieses Element '<name/>' ist nicht erlaubt oder nicht mit diesem Inhalt erlaubt. Dies kann templateId, code oder id betreffen. Erwartet:  hl7:time[not(@nullFlavor)] | hl7:time[@nullFlavor='UNK'] | hl7:assignedAuthor (rule-reference: d245561e4856-true-d444328e0)</assert>
    </rule>

   <!-- Checking undefined contents for template/element @isClosed="true". Match context that we did not already match -->
    <rule context="*[hl7:act[hl7:templateId[@root = '1.2.40.0.34.6.0.11.3.20'] and hl7:templateId[@root = '2.16.840.1.113883.10.20.1.27'] and hl7:templateId[@root = '1.3.6.1.4.1.19376.1.5.3.1.4.5.1'] and hl7:templateId[@root = '1.3.6.1.4.1.19376.1.5.3.1.4.5.2']]]/hl7:act[hl7:templateId[@root = '1.2.40.0.34.6.0.11.3.20'] and hl7:templateId[@root = '2.16.840.1.113883.10.20.1.27'] and hl7:templateId[@root = '1.3.6.1.4.1.19376.1.5.3.1.4.5.1'] and hl7:templateId[@root = '1.3.6.1.4.1.19376.1.5.3.1.4.5.2']]/hl7:author[hl7:assignedAuthor]/hl7:assignedAuthor/*[not(@xsi:nil = 'true')][not(self::hl7:id[not(@nullFlavor)] | self::hl7:id[@nullFlavor='UNK'] | self::hl7:code[not(@nullFlavor)] | self::hl7:addr[not(@nullFlavor)] | self::hl7:telecom[not(@nullFlavor)] | self::hl7:assignedPerson | self::hl7:assignedAuthoringDevice | self::hl7:representedOrganization)]" id="d444209e38-true-d444431e0">
        <assert role="error" see="http://art-decor.org/art-decor/decor-templates--elgaimpf-?id=1.2.40.0.34.6.0.11.3.20" test="not(.)">(atcdabbr_entry_ExpositionsrisikoProblemConcern)/d444209e38-true-d444431e0: '<value-of select="name(..)"/>' ist als geschlossen definiert und dieses Element '<name/>' ist nicht erlaubt oder nicht mit diesem Inhalt erlaubt. Dies kann templateId, code oder id betreffen. Erwartet:  hl7:id[not(@nullFlavor)] | hl7:id[@nullFlavor='UNK'] | hl7:code[not(@nullFlavor)] | hl7:addr[not(@nullFlavor)] | hl7:telecom[not(@nullFlavor)] | hl7:assignedPerson | hl7:assignedAuthoringDevice | hl7:representedOrganization (rule-reference: d444209e38-true-d444431e0)</assert>
    </rule>

   <!-- Checking undefined contents for template/element @isClosed="true". Match context that we did not already match -->
    <rule context="*[hl7:act[hl7:templateId[@root = '1.2.40.0.34.6.0.11.3.20'] and hl7:templateId[@root = '2.16.840.1.113883.10.20.1.27'] and hl7:templateId[@root = '1.3.6.1.4.1.19376.1.5.3.1.4.5.1'] and hl7:templateId[@root = '1.3.6.1.4.1.19376.1.5.3.1.4.5.2']]]/hl7:act[hl7:templateId[@root = '1.2.40.0.34.6.0.11.3.20'] and hl7:templateId[@root = '2.16.840.1.113883.10.20.1.27'] and hl7:templateId[@root = '1.3.6.1.4.1.19376.1.5.3.1.4.5.1'] and hl7:templateId[@root = '1.3.6.1.4.1.19376.1.5.3.1.4.5.2']]/hl7:author[hl7:assignedAuthor]/hl7:assignedAuthor/hl7:addr[not(@nullFlavor)]/*[not(@xsi:nil = 'true')][not(self::hl7:streetAddressLine | self::hl7:streetName | self::hl7:houseNumber | self::hl7:postalCode[not(@nullFlavor)] | self::hl7:city[not(@nullFlavor)] | self::hl7:state | self::hl7:country[not(@nullFlavor)] | self::hl7:additionalLocator)]" id="d444209e59-true-d444486e0">
        <assert role="error" see="http://art-decor.org/art-decor/decor-templates--elgaimpf-?id=1.2.40.0.34.6.0.11.3.20" test="not(.)">(atcdabbr_entry_ExpositionsrisikoProblemConcern)/d444209e59-true-d444486e0: '<value-of select="name(..)"/>' ist als geschlossen definiert und dieses Element '<name/>' ist nicht erlaubt oder nicht mit diesem Inhalt erlaubt. Dies kann templateId, code oder id betreffen. Erwartet:  hl7:streetAddressLine | hl7:streetName | hl7:houseNumber | hl7:postalCode[not(@nullFlavor)] | hl7:city[not(@nullFlavor)] | hl7:state | hl7:country[not(@nullFlavor)] | hl7:additionalLocator (rule-reference: d444209e59-true-d444486e0)</assert>
    </rule>

   <!-- Checking undefined contents for template/element @isClosed="true". Match context that we did not already match -->
    <rule context="*[hl7:act[hl7:templateId[@root = '1.2.40.0.34.6.0.11.3.20'] and hl7:templateId[@root = '2.16.840.1.113883.10.20.1.27'] and hl7:templateId[@root = '1.3.6.1.4.1.19376.1.5.3.1.4.5.1'] and hl7:templateId[@root = '1.3.6.1.4.1.19376.1.5.3.1.4.5.2']]]/hl7:act[hl7:templateId[@root = '1.2.40.0.34.6.0.11.3.20'] and hl7:templateId[@root = '2.16.840.1.113883.10.20.1.27'] and hl7:templateId[@root = '1.3.6.1.4.1.19376.1.5.3.1.4.5.1'] and hl7:templateId[@root = '1.3.6.1.4.1.19376.1.5.3.1.4.5.2']]/hl7:author[hl7:assignedAuthor]/hl7:assignedAuthor/hl7:assignedPerson/*[not(@xsi:nil = 'true')][not(self::hl7:name[not(@nullFlavor)] | self::hl7:name[@nullFlavor='UNK'] | self::hl7:name[@nullFlavor='MSK'])]" id="d444209e81-true-d444533e0">
        <assert role="error" see="http://art-decor.org/art-decor/decor-templates--elgaimpf-?id=1.2.40.0.34.6.0.11.3.20" test="not(.)">(atcdabbr_entry_ExpositionsrisikoProblemConcern)/d444209e81-true-d444533e0: '<value-of select="name(..)"/>' ist als geschlossen definiert und dieses Element '<name/>' ist nicht erlaubt oder nicht mit diesem Inhalt erlaubt. Dies kann templateId, code oder id betreffen. Erwartet:  hl7:name[not(@nullFlavor)] | hl7:name[@nullFlavor='UNK'] | hl7:name[@nullFlavor='MSK'] (rule-reference: d444209e81-true-d444533e0)</assert>
    </rule>

   <!-- Checking undefined contents for template/element @isClosed="true". Match context that we did not already match -->
    <rule context="*[hl7:act[hl7:templateId[@root = '1.2.40.0.34.6.0.11.3.20'] and hl7:templateId[@root = '2.16.840.1.113883.10.20.1.27'] and hl7:templateId[@root = '1.3.6.1.4.1.19376.1.5.3.1.4.5.1'] and hl7:templateId[@root = '1.3.6.1.4.1.19376.1.5.3.1.4.5.2']]]/hl7:act[hl7:templateId[@root = '1.2.40.0.34.6.0.11.3.20'] and hl7:templateId[@root = '2.16.840.1.113883.10.20.1.27'] and hl7:templateId[@root = '1.3.6.1.4.1.19376.1.5.3.1.4.5.1'] and hl7:templateId[@root = '1.3.6.1.4.1.19376.1.5.3.1.4.5.2']]/hl7:author[hl7:assignedAuthor]/hl7:assignedAuthor/hl7:assignedPerson/hl7:name[not(@nullFlavor)]/*[not(@xsi:nil = 'true')][not(self::hl7:prefix | self::hl7:family[not(@nullFlavor)] | self::hl7:given[not(@nullFlavor)] | self::hl7:suffix)]" id="d444537e62-true-d444565e0">
        <assert role="error" see="http://art-decor.org/art-decor/decor-templates--elgaimpf-?id=1.2.40.0.34.6.0.11.9.6" test="not(.)">(atcdabbr_other_PersonNameCompilationG2)/d444537e62-true-d444565e0: '<value-of select="name(..)"/>' ist als geschlossen definiert und dieses Element '<name/>' ist nicht erlaubt oder nicht mit diesem Inhalt erlaubt. Dies kann templateId, code oder id betreffen. Erwartet:  hl7:prefix | hl7:family[not(@nullFlavor)] | hl7:given[not(@nullFlavor)] | hl7:suffix (rule-reference: d444537e62-true-d444565e0)</assert>
    </rule>

   <!-- Checking undefined contents for template/element @isClosed="true". Match context that we did not already match -->
    <rule context="*[hl7:act[hl7:templateId[@root = '1.2.40.0.34.6.0.11.3.20'] and hl7:templateId[@root = '2.16.840.1.113883.10.20.1.27'] and hl7:templateId[@root = '1.3.6.1.4.1.19376.1.5.3.1.4.5.1'] and hl7:templateId[@root = '1.3.6.1.4.1.19376.1.5.3.1.4.5.2']]]/hl7:act[hl7:templateId[@root = '1.2.40.0.34.6.0.11.3.20'] and hl7:templateId[@root = '2.16.840.1.113883.10.20.1.27'] and hl7:templateId[@root = '1.3.6.1.4.1.19376.1.5.3.1.4.5.1'] and hl7:templateId[@root = '1.3.6.1.4.1.19376.1.5.3.1.4.5.2']]/hl7:author[hl7:assignedAuthor]/hl7:assignedAuthor/hl7:assignedAuthoringDevice/*[not(@xsi:nil = 'true')][not(self::hl7:manufacturerModelName[not(@nullFlavor)] | self::hl7:softwareName[not(@nullFlavor)])]" id="d444209e92-true-d444606e0">
        <assert role="error" see="http://art-decor.org/art-decor/decor-templates--elgaimpf-?id=1.2.40.0.34.6.0.11.3.20" test="not(.)">(atcdabbr_entry_ExpositionsrisikoProblemConcern)/d444209e92-true-d444606e0: '<value-of select="name(..)"/>' ist als geschlossen definiert und dieses Element '<name/>' ist nicht erlaubt oder nicht mit diesem Inhalt erlaubt. Dies kann templateId, code oder id betreffen. Erwartet:  hl7:manufacturerModelName[not(@nullFlavor)] | hl7:softwareName[not(@nullFlavor)] (rule-reference: d444209e92-true-d444606e0)</assert>
    </rule>

   <!-- Checking undefined contents for template/element @isClosed="true". Match context that we did not already match -->
    <rule context="*[hl7:act[hl7:templateId[@root = '1.2.40.0.34.6.0.11.3.20'] and hl7:templateId[@root = '2.16.840.1.113883.10.20.1.27'] and hl7:templateId[@root = '1.3.6.1.4.1.19376.1.5.3.1.4.5.1'] and hl7:templateId[@root = '1.3.6.1.4.1.19376.1.5.3.1.4.5.2']]]/hl7:act[hl7:templateId[@root = '1.2.40.0.34.6.0.11.3.20'] and hl7:templateId[@root = '2.16.840.1.113883.10.20.1.27'] and hl7:templateId[@root = '1.3.6.1.4.1.19376.1.5.3.1.4.5.1'] and hl7:templateId[@root = '1.3.6.1.4.1.19376.1.5.3.1.4.5.2']]/hl7:author[hl7:assignedAuthor]/hl7:assignedAuthor/hl7:representedOrganization/*[not(@xsi:nil = 'true')][not(self::hl7:id[not(@nullFlavor)] | self::hl7:name[not(@nullFlavor)] | self::hl7:telecom[not(@nullFlavor)] | self::hl7:addr[not(@nullFlavor)])]" id="d444209e99-true-d444648e0">
        <assert role="error" see="http://art-decor.org/art-decor/decor-templates--elgaimpf-?id=1.2.40.0.34.6.0.11.3.20" test="not(.)">(atcdabbr_entry_ExpositionsrisikoProblemConcern)/d444209e99-true-d444648e0: '<value-of select="name(..)"/>' ist als geschlossen definiert und dieses Element '<name/>' ist nicht erlaubt oder nicht mit diesem Inhalt erlaubt. Dies kann templateId, code oder id betreffen. Erwartet:  hl7:id[not(@nullFlavor)] | hl7:name[not(@nullFlavor)] | hl7:telecom[not(@nullFlavor)] | hl7:addr[not(@nullFlavor)] (rule-reference: d444209e99-true-d444648e0)</assert>
    </rule>

   <!-- Checking undefined contents for template/element @isClosed="true". Match context that we did not already match -->
    <rule context="*[hl7:act[hl7:templateId[@root = '1.2.40.0.34.6.0.11.3.20'] and hl7:templateId[@root = '2.16.840.1.113883.10.20.1.27'] and hl7:templateId[@root = '1.3.6.1.4.1.19376.1.5.3.1.4.5.1'] and hl7:templateId[@root = '1.3.6.1.4.1.19376.1.5.3.1.4.5.2']]]/hl7:act[hl7:templateId[@root = '1.2.40.0.34.6.0.11.3.20'] and hl7:templateId[@root = '2.16.840.1.113883.10.20.1.27'] and hl7:templateId[@root = '1.3.6.1.4.1.19376.1.5.3.1.4.5.1'] and hl7:templateId[@root = '1.3.6.1.4.1.19376.1.5.3.1.4.5.2']]/hl7:author[hl7:assignedAuthor]/hl7:assignedAuthor/hl7:representedOrganization/hl7:addr[not(@nullFlavor)]/*[not(@xsi:nil = 'true')][not(self::hl7:streetAddressLine | self::hl7:streetName | self::hl7:houseNumber | self::hl7:postalCode[not(@nullFlavor)] | self::hl7:city[not(@nullFlavor)] | self::hl7:state | self::hl7:country[not(@nullFlavor)] | self::hl7:additionalLocator)]" id="d444619e60-true-d444707e0">
        <assert role="error" see="http://art-decor.org/art-decor/decor-templates--elgaimpf-?id=1.2.40.0.34.6.0.11.3.20" test="not(.)">(atcdabbr_entry_ExpositionsrisikoProblemConcern)/d444619e60-true-d444707e0: '<value-of select="name(..)"/>' ist als geschlossen definiert und dieses Element '<name/>' ist nicht erlaubt oder nicht mit diesem Inhalt erlaubt. Dies kann templateId, code oder id betreffen. Erwartet:  hl7:streetAddressLine | hl7:streetName | hl7:houseNumber | hl7:postalCode[not(@nullFlavor)] | hl7:city[not(@nullFlavor)] | hl7:state | hl7:country[not(@nullFlavor)] | hl7:additionalLocator (rule-reference: d444619e60-true-d444707e0)</assert>
    </rule>

   <!-- Checking undefined contents for template/element @isClosed="true". Match context that we did not already match -->
    <rule context="*[hl7:act[hl7:templateId[@root = '1.2.40.0.34.6.0.11.3.20'] and hl7:templateId[@root = '2.16.840.1.113883.10.20.1.27'] and hl7:templateId[@root = '1.3.6.1.4.1.19376.1.5.3.1.4.5.1'] and hl7:templateId[@root = '1.3.6.1.4.1.19376.1.5.3.1.4.5.2']]]/hl7:act[hl7:templateId[@root = '1.2.40.0.34.6.0.11.3.20'] and hl7:templateId[@root = '2.16.840.1.113883.10.20.1.27'] and hl7:templateId[@root = '1.3.6.1.4.1.19376.1.5.3.1.4.5.1'] and hl7:templateId[@root = '1.3.6.1.4.1.19376.1.5.3.1.4.5.2']]/hl7:entryRelationship[@typeCode='SUBJ'][not(@nullFlavor)]/*[not(@xsi:nil = 'true')][not(self::hl7:observation[hl7:templateId[@root = '1.2.40.0.34.6.0.11.3.21'] and hl7:templateId[@root = '2.16.840.1.113883.10.20.1.28'] and hl7:templateId[@root = '1.3.6.1.4.1.19376.1.5.3.1.4.5']])]" id="d245561e4872-true-d444769e0">
        <assert role="error" see="http://art-decor.org/art-decor/decor-templates--elgaimpf-?id=1.2.40.0.34.6.0.11.3.20" test="not(.)">(atcdabbr_entry_ExpositionsrisikoProblemConcern)/d245561e4872-true-d444769e0: '<value-of select="name(..)"/>' ist als geschlossen definiert und dieses Element '<name/>' ist nicht erlaubt oder nicht mit diesem Inhalt erlaubt. Dies kann templateId, code oder id betreffen. Erwartet:  hl7:observation[hl7:templateId[@root = '1.2.40.0.34.6.0.11.3.21'] and hl7:templateId[@root = '2.16.840.1.113883.10.20.1.28'] and hl7:templateId[@root = '1.3.6.1.4.1.19376.1.5.3.1.4.5']] (rule-reference: d245561e4872-true-d444769e0)</assert>
    </rule>

   <!-- Checking undefined contents for template/element @isClosed="true". Match context that we did not already match -->
    <rule context="*[hl7:act[hl7:templateId[@root = '1.2.40.0.34.6.0.11.3.20'] and hl7:templateId[@root = '2.16.840.1.113883.10.20.1.27'] and hl7:templateId[@root = '1.3.6.1.4.1.19376.1.5.3.1.4.5.1'] and hl7:templateId[@root = '1.3.6.1.4.1.19376.1.5.3.1.4.5.2']]]/hl7:act[hl7:templateId[@root = '1.2.40.0.34.6.0.11.3.20'] and hl7:templateId[@root = '2.16.840.1.113883.10.20.1.27'] and hl7:templateId[@root = '1.3.6.1.4.1.19376.1.5.3.1.4.5.1'] and hl7:templateId[@root = '1.3.6.1.4.1.19376.1.5.3.1.4.5.2']]/hl7:entryRelationship[@typeCode='SUBJ'][not(@nullFlavor)]/hl7:observation[hl7:templateId[@root = '1.2.40.0.34.6.0.11.3.21'] and hl7:templateId[@root = '2.16.840.1.113883.10.20.1.28'] and hl7:templateId[@root = '1.3.6.1.4.1.19376.1.5.3.1.4.5']]/*[not(@xsi:nil = 'true')][not(self::hl7:templateId[@root = '1.2.40.0.34.6.0.11.3.21'] | self::hl7:templateId[@root = '2.16.840.1.113883.10.20.1.28'] | self::hl7:templateId[@root = '1.3.6.1.4.1.19376.1.5.3.1.4.5'] | self::hl7:id[not(@nullFlavor)] | self::hl7:code[(@code = '55607006' and @codeSystem = '2.16.840.1.113883.6.96')] | self::hl7:text | self::hl7:statusCode[@code = 'completed'] | self::hl7:effectiveTime[not(@nullFlavor)] | self::hl7:value[concat(@code, @codeSystem) = doc('include/voc-1.2.40.0.34.6.0.10.15-DYNAMIC.xml')//valueSet[1]/conceptList/concept/concat(@code, @codeSystem)])]" id="d444744e7-true-d444850e0">
        <assert role="error" see="http://art-decor.org/art-decor/decor-templates--elgaimpf-?id=1.2.40.0.34.6.0.11.3.20" test="not(.)">(atcdabbr_entry_ExpositionsrisikoProblemConcern)/d444744e7-true-d444850e0: '<value-of select="name(..)"/>' ist als geschlossen definiert und dieses Element '<name/>' ist nicht erlaubt oder nicht mit diesem Inhalt erlaubt. Dies kann templateId, code oder id betreffen. Erwartet:  hl7:templateId[@root = '1.2.40.0.34.6.0.11.3.21'] | hl7:templateId[@root = '2.16.840.1.113883.10.20.1.28'] | hl7:templateId[@root = '1.3.6.1.4.1.19376.1.5.3.1.4.5'] | hl7:id[not(@nullFlavor)] | hl7:code[(@code = '55607006' and @codeSystem = '2.16.840.1.113883.6.96')] | hl7:text | hl7:statusCode[@code = 'completed'] | hl7:effectiveTime[not(@nullFlavor)] | hl7:value[concat(@code, @codeSystem) = doc('include/voc-1.2.40.0.34.6.0.10.15-DYNAMIC.xml')//valueSet[1]/conceptList/concept/concat(@code, @codeSystem)] (rule-reference: d444744e7-true-d444850e0)</assert>
    </rule>

   <!-- Checking undefined contents for template/element @isClosed="true". Match context that we did not already match -->
    <rule context="*[hl7:act[hl7:templateId[@root = '1.2.40.0.34.6.0.11.3.20'] and hl7:templateId[@root = '2.16.840.1.113883.10.20.1.27'] and hl7:templateId[@root = '1.3.6.1.4.1.19376.1.5.3.1.4.5.1'] and hl7:templateId[@root = '1.3.6.1.4.1.19376.1.5.3.1.4.5.2']]]/hl7:act[hl7:templateId[@root = '1.2.40.0.34.6.0.11.3.20'] and hl7:templateId[@root = '2.16.840.1.113883.10.20.1.27'] and hl7:templateId[@root = '1.3.6.1.4.1.19376.1.5.3.1.4.5.1'] and hl7:templateId[@root = '1.3.6.1.4.1.19376.1.5.3.1.4.5.2']]/hl7:entryRelationship[@typeCode='SUBJ'][not(@nullFlavor)]/hl7:observation[hl7:templateId[@root = '1.2.40.0.34.6.0.11.3.21'] and hl7:templateId[@root = '2.16.840.1.113883.10.20.1.28'] and hl7:templateId[@root = '1.3.6.1.4.1.19376.1.5.3.1.4.5']]/hl7:text/*[not(@xsi:nil = 'true')][not(self::hl7:reference[not(@nullFlavor)])]" id="d444878e37-true-d444889e0">
        <assert role="error" see="http://art-decor.org/art-decor/decor-templates--elgaimpf-?id=1.2.40.0.34.6.0.11.9.1" test="not(.)">(atcdabrr_other_NarrativeTextReference)/d444878e37-true-d444889e0: '<value-of select="name(..)"/>' ist als geschlossen definiert und dieses Element '<name/>' ist nicht erlaubt oder nicht mit diesem Inhalt erlaubt. Dies kann templateId, code oder id betreffen. Erwartet:  hl7:reference[not(@nullFlavor)] (rule-reference: d444878e37-true-d444889e0)</assert>
    </rule>

   <!-- Checking undefined contents for template/element @isClosed="true". Match context that we did not already match -->
    <rule context="*[hl7:act[hl7:templateId[@root = '1.2.40.0.34.6.0.11.3.20'] and hl7:templateId[@root = '2.16.840.1.113883.10.20.1.27'] and hl7:templateId[@root = '1.3.6.1.4.1.19376.1.5.3.1.4.5.1'] and hl7:templateId[@root = '1.3.6.1.4.1.19376.1.5.3.1.4.5.2']]]/hl7:act[hl7:templateId[@root = '1.2.40.0.34.6.0.11.3.20'] and hl7:templateId[@root = '2.16.840.1.113883.10.20.1.27'] and hl7:templateId[@root = '1.3.6.1.4.1.19376.1.5.3.1.4.5.1'] and hl7:templateId[@root = '1.3.6.1.4.1.19376.1.5.3.1.4.5.2']]/hl7:entryRelationship[@typeCode='SUBJ'][not(@nullFlavor)]/hl7:observation[hl7:templateId[@root = '1.2.40.0.34.6.0.11.3.21'] and hl7:templateId[@root = '2.16.840.1.113883.10.20.1.28'] and hl7:templateId[@root = '1.3.6.1.4.1.19376.1.5.3.1.4.5']]/hl7:effectiveTime[not(@nullFlavor)]/*[not(@xsi:nil = 'true')][not(self::hl7:low[not(@nullFlavor)] | self::hl7:high)]" id="d444744e47-true-d444916e0">
        <assert role="error" see="http://art-decor.org/art-decor/decor-templates--elgaimpf-?id=1.2.40.0.34.6.0.11.3.20" test="not(.)">(atcdabbr_entry_ExpositionsrisikoProblemConcern)/d444744e47-true-d444916e0: '<value-of select="name(..)"/>' ist als geschlossen definiert und dieses Element '<name/>' ist nicht erlaubt oder nicht mit diesem Inhalt erlaubt. Dies kann templateId, code oder id betreffen. Erwartet:  hl7:low[not(@nullFlavor)] | hl7:high (rule-reference: d444744e47-true-d444916e0)</assert>
    </rule>

   <!-- Checking undefined contents for template/element @isClosed="true". Match context that we did not already match -->
    <rule context="*[hl7:act[hl7:templateId[@root = '1.2.40.0.34.6.0.11.3.20'] and hl7:templateId[@root = '2.16.840.1.113883.10.20.1.27'] and hl7:templateId[@root = '1.3.6.1.4.1.19376.1.5.3.1.4.5.1'] and hl7:templateId[@root = '1.3.6.1.4.1.19376.1.5.3.1.4.5.2']]]/hl7:act[hl7:templateId[@root = '1.2.40.0.34.6.0.11.3.20'] and hl7:templateId[@root = '2.16.840.1.113883.10.20.1.27'] and hl7:templateId[@root = '1.3.6.1.4.1.19376.1.5.3.1.4.5.1'] and hl7:templateId[@root = '1.3.6.1.4.1.19376.1.5.3.1.4.5.2']]/hl7:entryRelationship[@typeCode='SUBJ'][not(@nullFlavor)]/hl7:observation[hl7:templateId[@root = '1.2.40.0.34.6.0.11.3.21'] and hl7:templateId[@root = '2.16.840.1.113883.10.20.1.28'] and hl7:templateId[@root = '1.3.6.1.4.1.19376.1.5.3.1.4.5']]/hl7:value[concat(@code, @codeSystem) = doc('include/voc-1.2.40.0.34.6.0.10.15-DYNAMIC.xml')//valueSet[1]/conceptList/concept/concat(@code, @codeSystem)]/*[not(@xsi:nil = 'true')][not(self::hl7:originalText)]" id="d444744e59-true-d444942e0">
        <assert role="error" see="http://art-decor.org/art-decor/decor-templates--elgaimpf-?id=1.2.40.0.34.6.0.11.3.20" test="not(.)">(atcdabbr_entry_ExpositionsrisikoProblemConcern)/d444744e59-true-d444942e0: '<value-of select="name(..)"/>' ist als geschlossen definiert und dieses Element '<name/>' ist nicht erlaubt oder nicht mit diesem Inhalt erlaubt. Dies kann templateId, code oder id betreffen. Erwartet:  hl7:originalText (rule-reference: d444744e59-true-d444942e0)</assert>
    </rule>

   <!-- Checking undefined contents for template/element @isClosed="true". Match context that we did not already match -->
    <rule context="*[hl7:act[hl7:templateId[@root = '1.2.40.0.34.6.0.11.3.20'] and hl7:templateId[@root = '2.16.840.1.113883.10.20.1.27'] and hl7:templateId[@root = '1.3.6.1.4.1.19376.1.5.3.1.4.5.1'] and hl7:templateId[@root = '1.3.6.1.4.1.19376.1.5.3.1.4.5.2']]]/hl7:act[hl7:templateId[@root = '1.2.40.0.34.6.0.11.3.20'] and hl7:templateId[@root = '2.16.840.1.113883.10.20.1.27'] and hl7:templateId[@root = '1.3.6.1.4.1.19376.1.5.3.1.4.5.1'] and hl7:templateId[@root = '1.3.6.1.4.1.19376.1.5.3.1.4.5.2']]/hl7:entryRelationship[@typeCode='SUBJ'][not(@nullFlavor)]/hl7:observation[hl7:templateId[@root = '1.2.40.0.34.6.0.11.3.21'] and hl7:templateId[@root = '2.16.840.1.113883.10.20.1.28'] and hl7:templateId[@root = '1.3.6.1.4.1.19376.1.5.3.1.4.5']]/hl7:value[concat(@code, @codeSystem) = doc('include/voc-1.2.40.0.34.6.0.10.15-DYNAMIC.xml')//valueSet[1]/conceptList/concept/concat(@code, @codeSystem)]/hl7:originalText/*[not(@xsi:nil = 'true')][not(self::hl7:reference[not(@nullFlavor)])]" id="d444946e10-true-d444957e0">
        <assert role="error" see="http://art-decor.org/art-decor/decor-templates--elgaimpf-?id=1.2.40.0.34.6.0.11.9.2" test="not(.)">(atcdabbr_other_OriginalTextReference)/d444946e10-true-d444957e0: '<value-of select="name(..)"/>' ist als geschlossen definiert und dieses Element '<name/>' ist nicht erlaubt oder nicht mit diesem Inhalt erlaubt. Dies kann templateId, code oder id betreffen. Erwartet:  hl7:reference[not(@nullFlavor)] (rule-reference: d444946e10-true-d444957e0)</assert>
    </rule>

   <!-- Checking undefined contents for template/element @isClosed="true". Match context that we did not already match -->
    <rule context="*[hl7:act[hl7:templateId[@root = '1.2.40.0.34.6.0.11.3.20'] and hl7:templateId[@root = '2.16.840.1.113883.10.20.1.27'] and hl7:templateId[@root = '1.3.6.1.4.1.19376.1.5.3.1.4.5.1'] and hl7:templateId[@root = '1.3.6.1.4.1.19376.1.5.3.1.4.5.2']]]/hl7:act[hl7:templateId[@root = '1.2.40.0.34.6.0.11.3.20'] and hl7:templateId[@root = '2.16.840.1.113883.10.20.1.27'] and hl7:templateId[@root = '1.3.6.1.4.1.19376.1.5.3.1.4.5.1'] and hl7:templateId[@root = '1.3.6.1.4.1.19376.1.5.3.1.4.5.2']]/hl7:reference[hl7:externalDocument[hl7:templateId[@root = '1.2.40.0.34.6.0.11.3.14']]]/*[not(@xsi:nil = 'true')][not(self::hl7:externalDocument[hl7:templateId[@root = '1.2.40.0.34.6.0.11.3.14']])]" id="d245561e4876-true-d444988e0">
        <assert role="error" see="http://art-decor.org/art-decor/decor-templates--elgaimpf-?id=1.2.40.0.34.6.0.11.3.20" test="not(.)">(atcdabbr_entry_ExpositionsrisikoProblemConcern)/d245561e4876-true-d444988e0: '<value-of select="name(..)"/>' ist als geschlossen definiert und dieses Element '<name/>' ist nicht erlaubt oder nicht mit diesem Inhalt erlaubt. Dies kann templateId, code oder id betreffen. Erwartet:  hl7:externalDocument[hl7:templateId[@root = '1.2.40.0.34.6.0.11.3.14']] (rule-reference: d245561e4876-true-d444988e0)</assert>
    </rule>

   <!-- Checking undefined contents for template/element @isClosed="true". Match context that we did not already match -->
    <rule context="*[hl7:act[hl7:templateId[@root = '1.2.40.0.34.6.0.11.3.20'] and hl7:templateId[@root = '2.16.840.1.113883.10.20.1.27'] and hl7:templateId[@root = '1.3.6.1.4.1.19376.1.5.3.1.4.5.1'] and hl7:templateId[@root = '1.3.6.1.4.1.19376.1.5.3.1.4.5.2']]]/hl7:act[hl7:templateId[@root = '1.2.40.0.34.6.0.11.3.20'] and hl7:templateId[@root = '2.16.840.1.113883.10.20.1.27'] and hl7:templateId[@root = '1.3.6.1.4.1.19376.1.5.3.1.4.5.1'] and hl7:templateId[@root = '1.3.6.1.4.1.19376.1.5.3.1.4.5.2']]/hl7:reference[hl7:externalDocument[hl7:templateId[@root = '1.2.40.0.34.6.0.11.3.14']]]/hl7:externalDocument[hl7:templateId[@root = '1.2.40.0.34.6.0.11.3.14']]/*[not(@xsi:nil = 'true')][not(self::hl7:templateId[@root = '1.2.40.0.34.6.0.11.3.14'] | self::hl7:id[not(@nullFlavor)] | self::hl7:code | self::hl7:text | self::hl7:setId[not(@nullFlavor)] | self::hl7:versionNumber[not(@nullFlavor)])]" id="d444966e18-true-d445020e0">
        <assert role="error" see="http://art-decor.org/art-decor/decor-templates--elgaimpf-?id=1.2.40.0.34.6.0.11.3.20" test="not(.)">(atcdabbr_entry_ExpositionsrisikoProblemConcern)/d444966e18-true-d445020e0: '<value-of select="name(..)"/>' ist als geschlossen definiert und dieses Element '<name/>' ist nicht erlaubt oder nicht mit diesem Inhalt erlaubt. Dies kann templateId, code oder id betreffen. Erwartet:  hl7:templateId[@root = '1.2.40.0.34.6.0.11.3.14'] | hl7:id[not(@nullFlavor)] | hl7:code | hl7:text | hl7:setId[not(@nullFlavor)] | hl7:versionNumber[not(@nullFlavor)] (rule-reference: d444966e18-true-d445020e0)</assert>
    </rule>

   <!-- Checking undefined contents for template/element @isClosed="true". Match context that we did not already match -->
    <rule context="*[hl7:act[hl7:templateId[@root = '1.2.40.0.34.6.0.11.3.20'] and hl7:templateId[@root = '2.16.840.1.113883.10.20.1.27'] and hl7:templateId[@root = '1.3.6.1.4.1.19376.1.5.3.1.4.5.1'] and hl7:templateId[@root = '1.3.6.1.4.1.19376.1.5.3.1.4.5.2']]]/hl7:act[hl7:templateId[@root = '1.2.40.0.34.6.0.11.3.20'] and hl7:templateId[@root = '2.16.840.1.113883.10.20.1.27'] and hl7:templateId[@root = '1.3.6.1.4.1.19376.1.5.3.1.4.5.1'] and hl7:templateId[@root = '1.3.6.1.4.1.19376.1.5.3.1.4.5.2']]/hl7:reference[hl7:externalDocument[hl7:templateId[@root = '1.2.40.0.34.6.0.11.3.14']]]/hl7:externalDocument[hl7:templateId[@root = '1.2.40.0.34.6.0.11.3.14']]/hl7:text/*[not(@xsi:nil = 'true')][not(self::hl7:reference[not(@nullFlavor)])]" id="d445037e37-true-d445048e0">
        <assert role="error" see="http://art-decor.org/art-decor/decor-templates--elgaimpf-?id=1.2.40.0.34.6.0.11.9.1" test="not(.)">(atcdabrr_other_NarrativeTextReference)/d445037e37-true-d445048e0: '<value-of select="name(..)"/>' ist als geschlossen definiert und dieses Element '<name/>' ist nicht erlaubt oder nicht mit diesem Inhalt erlaubt. Dies kann templateId, code oder id betreffen. Erwartet:  hl7:reference[not(@nullFlavor)] (rule-reference: d445037e37-true-d445048e0)</assert>
    </rule>
</pattern>