<?xml version="1.0" encoding="UTF-8"?>
<!--
Template derived pattern
===========================================
ID: 1.2.40.0.34.6.0.11.9.32
Name: Vaccine Product
Description: 
-->
<pattern xmlns="http://purl.oclc.org/dsdl/schematron" id="template-1.2.40.0.34.6.0.11.9.32-2019-04-24T085724-closed">
    <title>Vaccine Product</title>

   <!-- Checking undefined contents for template/element @isClosed="true". Match context that we did not already match -->
    <rule context="*[hl7:manufacturedProduct[hl7:templateId[@root = '1.2.40.0.34.6.0.11.9.32'] and hl7:templateId[@root = '1.3.6.1.4.1.19376.1.5.3.1.4.7.2'] and hl7:templateId[@root = '2.16.840.1.113883.10.20.1.53']]]/*[not(@xsi:nil = 'true')][not(self::hl7:manufacturedProduct[hl7:templateId[@root = '1.2.40.0.34.6.0.11.9.32'] and hl7:templateId[@root = '1.3.6.1.4.1.19376.1.5.3.1.4.7.2'] and hl7:templateId[@root = '2.16.840.1.113883.10.20.1.53']])]" id="d245561e7287-true-d473829e0">
        <assert role="error" see="http://art-decor.org/art-decor/decor-templates--elgaimpf-?id=1.2.40.0.34.6.0.11.9.32" test="not(.)">(atcdabbr_other_vaccineProduct)/d245561e7287-true-d473829e0: '<value-of select="name(..)"/>' ist als geschlossen definiert und dieses Element '<name/>' ist nicht erlaubt oder nicht mit diesem Inhalt erlaubt. Dies kann templateId, code oder id betreffen. Erwartet:  hl7:manufacturedProduct[hl7:templateId[@root = '1.2.40.0.34.6.0.11.9.32'] and hl7:templateId[@root = '1.3.6.1.4.1.19376.1.5.3.1.4.7.2'] and hl7:templateId[@root = '2.16.840.1.113883.10.20.1.53']] (rule-reference: d245561e7287-true-d473829e0)</assert>
    </rule>

   <!-- Checking undefined contents for template/element @isClosed="true". Match context that we did not already match -->
    <rule context="*[hl7:manufacturedProduct[hl7:templateId[@root = '1.2.40.0.34.6.0.11.9.32'] and hl7:templateId[@root = '1.3.6.1.4.1.19376.1.5.3.1.4.7.2'] and hl7:templateId[@root = '2.16.840.1.113883.10.20.1.53']]]/hl7:manufacturedProduct[hl7:templateId[@root = '1.2.40.0.34.6.0.11.9.32'] and hl7:templateId[@root = '1.3.6.1.4.1.19376.1.5.3.1.4.7.2'] and hl7:templateId[@root = '2.16.840.1.113883.10.20.1.53']]/*[not(@xsi:nil = 'true')][not(self::hl7:templateId[@root = '1.2.40.0.34.6.0.11.9.32'] | self::hl7:templateId[@root = '1.3.6.1.4.1.19376.1.5.3.1.4.7.2'] | self::hl7:templateId[@root = '2.16.840.1.113883.10.20.1.53'] | self::hl7:id[not(@nullFlavor)] | self::hl7:manufacturedMaterial[hl7:templateId[@root = '1.3.6.1.4.1.19376.1.9.1.3.1']] | self::hl7:manufacturerOrganization)]" id="d245561e7386-true-d473934e0">
        <assert role="error" see="http://art-decor.org/art-decor/decor-templates--elgaimpf-?id=1.2.40.0.34.6.0.11.9.32" test="not(.)">(atcdabbr_other_vaccineProduct)/d245561e7386-true-d473934e0: '<value-of select="name(..)"/>' ist als geschlossen definiert und dieses Element '<name/>' ist nicht erlaubt oder nicht mit diesem Inhalt erlaubt. Dies kann templateId, code oder id betreffen. Erwartet:  hl7:templateId[@root = '1.2.40.0.34.6.0.11.9.32'] | hl7:templateId[@root = '1.3.6.1.4.1.19376.1.5.3.1.4.7.2'] | hl7:templateId[@root = '2.16.840.1.113883.10.20.1.53'] | hl7:id[not(@nullFlavor)] | hl7:manufacturedMaterial[hl7:templateId[@root = '1.3.6.1.4.1.19376.1.9.1.3.1']] | hl7:manufacturerOrganization (rule-reference: d245561e7386-true-d473934e0)</assert>
    </rule>

   <!-- Checking undefined contents for template/element @isClosed="true". Match context that we did not already match -->
    <rule context="*[hl7:manufacturedProduct[hl7:templateId[@root = '1.2.40.0.34.6.0.11.9.32'] and hl7:templateId[@root = '1.3.6.1.4.1.19376.1.5.3.1.4.7.2'] and hl7:templateId[@root = '2.16.840.1.113883.10.20.1.53']]]/hl7:manufacturedProduct[hl7:templateId[@root = '1.2.40.0.34.6.0.11.9.32'] and hl7:templateId[@root = '1.3.6.1.4.1.19376.1.5.3.1.4.7.2'] and hl7:templateId[@root = '2.16.840.1.113883.10.20.1.53']]/hl7:manufacturedMaterial[hl7:templateId[@root = '1.3.6.1.4.1.19376.1.9.1.3.1']]/*[not(@xsi:nil = 'true')][not(self::hl7:templateId[@root = '1.3.6.1.4.1.19376.1.9.1.3.1'] | self::hl7:code[concat(@code, @codeSystem) = doc('include/voc-1.2.40.0.34.6.0.10.14-DYNAMIC.xml')//valueSet[1]/conceptList/concept/concat(@code, @codeSystem) or concat(@code, @codeSystem) = doc('include/voc-1.2.40.0.34.6.0.10.10-DYNAMIC.xml')//valueSet[1]/conceptList/concept/concat(@code, @codeSystem) or @nullFlavor] | self::hl7:name | self::hl7:lotNumberText[not(@nullFlavor)] | self::hl7:lotNumberText[@nullFlavor='NA'] | self::hl7:lotNumberText[@nullFlavor='UNK'] | self::pharm:ingredient[pharm:ingredient])]" id="d245561e7426-true-d474000e0">
        <assert role="error" see="http://art-decor.org/art-decor/decor-templates--elgaimpf-?id=1.2.40.0.34.6.0.11.9.32" test="not(.)">(atcdabbr_other_vaccineProduct)/d245561e7426-true-d474000e0: '<value-of select="name(..)"/>' ist als geschlossen definiert und dieses Element '<name/>' ist nicht erlaubt oder nicht mit diesem Inhalt erlaubt. Dies kann templateId, code oder id betreffen. Erwartet:  hl7:templateId[@root = '1.3.6.1.4.1.19376.1.9.1.3.1'] | hl7:code[concat(@code, @codeSystem) = doc('include/voc-1.2.40.0.34.6.0.10.14-DYNAMIC.xml')//valueSet[1]/conceptList/concept/concat(@code, @codeSystem) or concat(@code, @codeSystem) = doc('include/voc-1.2.40.0.34.6.0.10.10-DYNAMIC.xml')//valueSet[1]/conceptList/concept/concat(@code, @codeSystem) or @nullFlavor] | hl7:name | hl7:lotNumberText[not(@nullFlavor)] | hl7:lotNumberText[@nullFlavor='NA'] | hl7:lotNumberText[@nullFlavor='UNK'] | pharm:ingredient[pharm:ingredient] (rule-reference: d245561e7426-true-d474000e0)</assert>
    </rule>

   <!-- Checking undefined contents for template/element @isClosed="true". Match context that we did not already match -->
    <rule context="*[hl7:manufacturedProduct[hl7:templateId[@root = '1.2.40.0.34.6.0.11.9.32'] and hl7:templateId[@root = '1.3.6.1.4.1.19376.1.5.3.1.4.7.2'] and hl7:templateId[@root = '2.16.840.1.113883.10.20.1.53']]]/hl7:manufacturedProduct[hl7:templateId[@root = '1.2.40.0.34.6.0.11.9.32'] and hl7:templateId[@root = '1.3.6.1.4.1.19376.1.5.3.1.4.7.2'] and hl7:templateId[@root = '2.16.840.1.113883.10.20.1.53']]/hl7:manufacturedMaterial[hl7:templateId[@root = '1.3.6.1.4.1.19376.1.9.1.3.1']]/hl7:code[concat(@code, @codeSystem) = doc('include/voc-1.2.40.0.34.6.0.10.14-DYNAMIC.xml')//valueSet[1]/conceptList/concept/concat(@code, @codeSystem) or concat(@code, @codeSystem) = doc('include/voc-1.2.40.0.34.6.0.10.10-DYNAMIC.xml')//valueSet[1]/conceptList/concept/concat(@code, @codeSystem) or @nullFlavor]/*[not(@xsi:nil = 'true')][not(self::hl7:originalText | self::hl7:translation)]" id="d245561e7440-true-d474030e0">
        <assert role="error" see="http://art-decor.org/art-decor/decor-templates--elgaimpf-?id=1.2.40.0.34.6.0.11.9.32" test="not(.)">(atcdabbr_other_vaccineProduct)/d245561e7440-true-d474030e0: '<value-of select="name(..)"/>' ist als geschlossen definiert und dieses Element '<name/>' ist nicht erlaubt oder nicht mit diesem Inhalt erlaubt. Dies kann templateId, code oder id betreffen. Erwartet:  hl7:originalText | hl7:translation (rule-reference: d245561e7440-true-d474030e0)</assert>
    </rule>

   <!-- Checking undefined contents for template/element @isClosed="true". Match context that we did not already match -->
    <rule context="*[hl7:manufacturedProduct[hl7:templateId[@root = '1.2.40.0.34.6.0.11.9.32'] and hl7:templateId[@root = '1.3.6.1.4.1.19376.1.5.3.1.4.7.2'] and hl7:templateId[@root = '2.16.840.1.113883.10.20.1.53']]]/hl7:manufacturedProduct[hl7:templateId[@root = '1.2.40.0.34.6.0.11.9.32'] and hl7:templateId[@root = '1.3.6.1.4.1.19376.1.5.3.1.4.7.2'] and hl7:templateId[@root = '2.16.840.1.113883.10.20.1.53']]/hl7:manufacturedMaterial[hl7:templateId[@root = '1.3.6.1.4.1.19376.1.9.1.3.1']]/hl7:code[concat(@code, @codeSystem) = doc('include/voc-1.2.40.0.34.6.0.10.14-DYNAMIC.xml')//valueSet[1]/conceptList/concept/concat(@code, @codeSystem) or concat(@code, @codeSystem) = doc('include/voc-1.2.40.0.34.6.0.10.10-DYNAMIC.xml')//valueSet[1]/conceptList/concept/concat(@code, @codeSystem) or @nullFlavor]/hl7:originalText/*[not(@xsi:nil = 'true')][not(self::hl7:reference[not(@nullFlavor)])]" id="d474034e10-true-d474045e0">
        <assert role="error" see="http://art-decor.org/art-decor/decor-templates--elgaimpf-?id=1.2.40.0.34.6.0.11.9.2" test="not(.)">(atcdabbr_other_OriginalTextReference)/d474034e10-true-d474045e0: '<value-of select="name(..)"/>' ist als geschlossen definiert und dieses Element '<name/>' ist nicht erlaubt oder nicht mit diesem Inhalt erlaubt. Dies kann templateId, code oder id betreffen. Erwartet:  hl7:reference[not(@nullFlavor)] (rule-reference: d474034e10-true-d474045e0)</assert>
    </rule>

   <!-- Checking undefined contents for template/element @isClosed="true". Match context that we did not already match -->
    <rule context="*[hl7:manufacturedProduct[hl7:templateId[@root = '1.2.40.0.34.6.0.11.9.32'] and hl7:templateId[@root = '1.3.6.1.4.1.19376.1.5.3.1.4.7.2'] and hl7:templateId[@root = '2.16.840.1.113883.10.20.1.53']]]/hl7:manufacturedProduct[hl7:templateId[@root = '1.2.40.0.34.6.0.11.9.32'] and hl7:templateId[@root = '1.3.6.1.4.1.19376.1.5.3.1.4.7.2'] and hl7:templateId[@root = '2.16.840.1.113883.10.20.1.53']]/hl7:manufacturedMaterial[hl7:templateId[@root = '1.3.6.1.4.1.19376.1.9.1.3.1']]/pharm:ingredient[pharm:ingredient]/*[not(@xsi:nil = 'true')][not(self::pharm:ingredient[not(@nullFlavor)])]" id="d245561e7561-true-d474076e0">
        <assert role="error" see="http://art-decor.org/art-decor/decor-templates--elgaimpf-?id=1.2.40.0.34.6.0.11.9.32" test="not(.)">(atcdabbr_other_vaccineProduct)/d245561e7561-true-d474076e0: '<value-of select="name(..)"/>' ist als geschlossen definiert und dieses Element '<name/>' ist nicht erlaubt oder nicht mit diesem Inhalt erlaubt. Dies kann templateId, code oder id betreffen. Erwartet:  pharm:ingredient[not(@nullFlavor)] (rule-reference: d245561e7561-true-d474076e0)</assert>
    </rule>

   <!-- Checking undefined contents for template/element @isClosed="true". Match context that we did not already match -->
    <rule context="*[hl7:manufacturedProduct[hl7:templateId[@root = '1.2.40.0.34.6.0.11.9.32'] and hl7:templateId[@root = '1.3.6.1.4.1.19376.1.5.3.1.4.7.2'] and hl7:templateId[@root = '2.16.840.1.113883.10.20.1.53']]]/hl7:manufacturedProduct[hl7:templateId[@root = '1.2.40.0.34.6.0.11.9.32'] and hl7:templateId[@root = '1.3.6.1.4.1.19376.1.5.3.1.4.7.2'] and hl7:templateId[@root = '2.16.840.1.113883.10.20.1.53']]/hl7:manufacturedMaterial[hl7:templateId[@root = '1.3.6.1.4.1.19376.1.9.1.3.1']]/pharm:ingredient[pharm:ingredient]/pharm:ingredient[not(@nullFlavor)]/*[not(@xsi:nil = 'true')][not(self::pharm:code[@codeSystem = '2.16.840.1.113883.6.73' or @codeSystem = '1.2.40.0.34.5.156' or @nullFlavor] | self::pharm:name)]" id="d245561e7568-true-d474096e0">
        <assert role="error" see="http://art-decor.org/art-decor/decor-templates--elgaimpf-?id=1.2.40.0.34.6.0.11.9.32" test="not(.)">(atcdabbr_other_vaccineProduct)/d245561e7568-true-d474096e0: '<value-of select="name(..)"/>' ist als geschlossen definiert und dieses Element '<name/>' ist nicht erlaubt oder nicht mit diesem Inhalt erlaubt. Dies kann templateId, code oder id betreffen. Erwartet:  pharm:code[@codeSystem = '2.16.840.1.113883.6.73' or @codeSystem = '1.2.40.0.34.5.156' or @nullFlavor] | pharm:name (rule-reference: d245561e7568-true-d474096e0)</assert>
    </rule>

   <!-- Checking undefined contents for template/element @isClosed="true". Match context that we did not already match -->
    <rule context="*[hl7:manufacturedProduct[hl7:templateId[@root = '1.2.40.0.34.6.0.11.9.32'] and hl7:templateId[@root = '1.3.6.1.4.1.19376.1.5.3.1.4.7.2'] and hl7:templateId[@root = '2.16.840.1.113883.10.20.1.53']]]/hl7:manufacturedProduct[hl7:templateId[@root = '1.2.40.0.34.6.0.11.9.32'] and hl7:templateId[@root = '1.3.6.1.4.1.19376.1.5.3.1.4.7.2'] and hl7:templateId[@root = '2.16.840.1.113883.10.20.1.53']]/hl7:manufacturedMaterial[hl7:templateId[@root = '1.3.6.1.4.1.19376.1.9.1.3.1']]/pharm:ingredient[pharm:ingredient]/pharm:ingredient[not(@nullFlavor)]/pharm:code[@codeSystem = '2.16.840.1.113883.6.73' or @codeSystem = '1.2.40.0.34.5.156' or @nullFlavor]/*[not(@xsi:nil = 'true')][not(self::hl7:originalText | self::hl7:translation)]" id="d245561e7577-true-d474115e0">
        <assert role="error" see="http://art-decor.org/art-decor/decor-templates--elgaimpf-?id=1.2.40.0.34.6.0.11.9.32" test="not(.)">(atcdabbr_other_vaccineProduct)/d245561e7577-true-d474115e0: '<value-of select="name(..)"/>' ist als geschlossen definiert und dieses Element '<name/>' ist nicht erlaubt oder nicht mit diesem Inhalt erlaubt. Dies kann templateId, code oder id betreffen. Erwartet:  hl7:originalText | hl7:translation (rule-reference: d245561e7577-true-d474115e0)</assert>
    </rule>

   <!-- Checking undefined contents for template/element @isClosed="true". Match context that we did not already match -->
    <rule context="*[hl7:manufacturedProduct[hl7:templateId[@root = '1.2.40.0.34.6.0.11.9.32'] and hl7:templateId[@root = '1.3.6.1.4.1.19376.1.5.3.1.4.7.2'] and hl7:templateId[@root = '2.16.840.1.113883.10.20.1.53']]]/hl7:manufacturedProduct[hl7:templateId[@root = '1.2.40.0.34.6.0.11.9.32'] and hl7:templateId[@root = '1.3.6.1.4.1.19376.1.5.3.1.4.7.2'] and hl7:templateId[@root = '2.16.840.1.113883.10.20.1.53']]/hl7:manufacturerOrganization/*[not(@xsi:nil = 'true')][not(self::hl7:id[not(@nullFlavor)] | self::hl7:name[not(@nullFlavor)] | self::hl7:telecom[not(@nullFlavor)] | self::hl7:addr[not(@nullFlavor)])]" id="d245561e7617-true-d474157e0">
        <assert role="error" see="http://art-decor.org/art-decor/decor-templates--elgaimpf-?id=1.2.40.0.34.6.0.11.9.32" test="not(.)">(atcdabbr_other_vaccineProduct)/d245561e7617-true-d474157e0: '<value-of select="name(..)"/>' ist als geschlossen definiert und dieses Element '<name/>' ist nicht erlaubt oder nicht mit diesem Inhalt erlaubt. Dies kann templateId, code oder id betreffen. Erwartet:  hl7:id[not(@nullFlavor)] | hl7:name[not(@nullFlavor)] | hl7:telecom[not(@nullFlavor)] | hl7:addr[not(@nullFlavor)] (rule-reference: d245561e7617-true-d474157e0)</assert>
    </rule>

   <!-- Checking undefined contents for template/element @isClosed="true". Match context that we did not already match -->
    <rule context="*[hl7:manufacturedProduct[hl7:templateId[@root = '1.2.40.0.34.6.0.11.9.32'] and hl7:templateId[@root = '1.3.6.1.4.1.19376.1.5.3.1.4.7.2'] and hl7:templateId[@root = '2.16.840.1.113883.10.20.1.53']]]/hl7:manufacturedProduct[hl7:templateId[@root = '1.2.40.0.34.6.0.11.9.32'] and hl7:templateId[@root = '1.3.6.1.4.1.19376.1.5.3.1.4.7.2'] and hl7:templateId[@root = '2.16.840.1.113883.10.20.1.53']]/hl7:manufacturerOrganization/hl7:addr[not(@nullFlavor)]/*[not(@xsi:nil = 'true')][not(self::hl7:streetAddressLine | self::hl7:streetName | self::hl7:houseNumber | self::hl7:postalCode[not(@nullFlavor)] | self::hl7:city[not(@nullFlavor)] | self::hl7:state | self::hl7:country[not(@nullFlavor)] | self::hl7:additionalLocator)]" id="d474132e46-true-d474214e0">
        <assert role="error" see="http://art-decor.org/art-decor/decor-templates--elgaimpf-?id=1.2.40.0.34.6.0.11.9.32" test="not(.)">(atcdabbr_other_vaccineProduct)/d474132e46-true-d474214e0: '<value-of select="name(..)"/>' ist als geschlossen definiert und dieses Element '<name/>' ist nicht erlaubt oder nicht mit diesem Inhalt erlaubt. Dies kann templateId, code oder id betreffen. Erwartet:  hl7:streetAddressLine | hl7:streetName | hl7:houseNumber | hl7:postalCode[not(@nullFlavor)] | hl7:city[not(@nullFlavor)] | hl7:state | hl7:country[not(@nullFlavor)] | hl7:additionalLocator (rule-reference: d474132e46-true-d474214e0)</assert>
    </rule>
</pattern>